"Reference","Value","Footprint","Qty","DNP"
"C1,C3,C18,C19,C20,C22,C43,C44,C68,C69,C70,C71,C72,C76","1u","Capacitor_SMD:C_0402_1005Metric","14",""
"C2,C4,C7,C13,C21,C23,C27,C28,C33,C34,C35,C36,C37,C38,C39,C40,C41,C42,C49,C50,C51,C52,C53,C54,C74,C75,C78,C79","100n","Capacitor_SMD:C_0402_1005Metric","28",""
"C5,C12","4.7u","Capacitor_SMD:C_0603_1608Metric","2",""
"C6,C16,C29,C31","1u","Capacitor_SMD:C_0603_1608Metric","4",""
"C8,C15","4.7n","Capacitor_SMD:C_0603_1608Metric","2","DNP"
"C9,C17,C30,C32,C47,C80","100n","Capacitor_SMD:C_0603_1608Metric","6",""
"C10,C48,C57,C61,C65,C67","10n","Capacitor_SMD:C_0603_1608Metric","6",""
"C11,C14","2.2u","Capacitor_SMD:C_0603_1608Metric","2",""
"C24","10u","Capacitor_SMD:C_0603_1608Metric","1","DNP"
"C25","100n","Capacitor_SMD:C_0603_1608Metric","1","DNP"
"C26,C83","10n","Capacitor_SMD:C_0402_1005Metric","2",""
"C45,C46","30p","Capacitor_SMD:C_0402_1005Metric","2",""
"C55,C56,C63","47p","Capacitor_SMD:C_0603_1608Metric","3",""
"C58,C59,C62,C66","5.1n","Capacitor_SMD:C_0603_1608Metric","4",""
"C60","1p","Capacitor_SMD:C_0603_1608Metric","1",""
"C64","~","Capacitor_SMD:C_0603_1608Metric","1","DNP"
"C73,C77,C84,C85","47uF","Capacitor_SMD:C_1210_3225Metric","4",""
"C81,C82","10uF","Capacitor_SMD:C_1206_3216Metric","2",""
"C86","8.2n","Capacitor_SMD:C_0603_1608Metric","1",""
"C87","6.8p","Capacitor_SMD:C_0603_1608Metric","1",""
"C88","1n","Capacitor_SMD:C_0402_1005Metric","1",""
"D1,D2,D3,D4,D5,D10,D11,D12,D13","1N5819WS","Diode_SMD:D_SOD-323","9",""
"D6","4","LED_SMD:LED_0805_2012Metric","1",""
"D7","3","LED_SMD:LED_0805_2012Metric","1",""
"D8","2","LED_SMD:LED_0805_2012Metric","1",""
"D9","1","LED_SMD:LED_0805_2012Metric","1",""
"D14","D","micromouse:SMAF, SS24FL","1",""
"J1","Conn_02x02_Counter_Clockwise","Connector_PinHeader_2.54mm:PinHeader_2x02_P2.54mm_Vertical","1",""
"J2","Batt 1","Connector_PinHeader_2.54mm:PinHeader_1x02_P2.54mm_Vertical","1",""
"J3","Batt 2","Connector_PinHeader_2.54mm:PinHeader_1x02_P2.54mm_Vertical","1",""
"J4","GT-USB-7047C","micromouse:GT-USB-7047C","1",""
"J5","Motor L","micromouse:JST_SH_BM03B-SRSS-TB_1x03-1MP_P1.00mm_Vertical","1",""
"J6","Motor R","micromouse:JST_SH_BM03B-SRSS-TB_1x03-1MP_P1.00mm_Vertical","1",""
"J7,J8,J9,J10,J11","SATA_female_7pin","micromouse:Sensor board","5",""
"JP1,JP2,JP11,JP12,JP13","SolderJumper_2_Bridged","micromouse:SolderJumper-2 bridged small","5",""
"JP3,JP4,JP5,JP7,JP8,JP9,JP10","SolderJumper_3_Bridged12","micromouse:SolderJumper-3 bridged12 small","7",""
"JP6","SolderJumper_3_Bridged123","micromouse:SolderJumper-3 bridged123 small","1",""
"L1,L2,L3,L4,L5,L6,L7,L8","L_Ferrite","Inductor_SMD:L_0603_1608Metric","8",""
"L9","4.7uH","micromouse:L_Vishay_IHLP-2525","1",""
"Q1","AO3400A","micromouse:SOT-23","1",""
"Q2,Q3,Q4,Q5","S8050","micromouse:SOT-23","4",""
"R1,R2,R3,R4","100","Resistor_SMD:R_0603_1608Metric","4",""
"R5","1M8","Resistor_SMD:R_0603_1608Metric","1",""
"R6,R8,R20,R21,R22,R23,R24,R27,R47,R49,R58","1k","Resistor_SMD:R_0402_1005Metric","11",""
"R7,R37,R45","1M","Resistor_SMD:R_0603_1608Metric","3",""
"R9","10k2","Resistor_SMD:R_0603_1608Metric","1",""
"R10","1k58","Resistor_SMD:R_0603_1608Metric","1",""
"R11,R12","5k1","Resistor_SMD:R_0402_1005Metric","2",""
"R13","< 200mOhm","Resistor_SMD:R_0603_1608Metric","1","DNP"
"R14","< 200mOhm","Resistor_SMD:R_0603_1608Metric","1",""
"R15","1 Ω","Resistor_SMD:R_0603_1608Metric","1",""
"R16,R17,R46,R48,R54,R57","10k","Resistor_SMD:R_0402_1005Metric","6",""
"R18,R29,R30,R38","10k","Resistor_SMD:R_0603_1608Metric","4",""
"R19","6k8","Resistor_SMD:R_0603_1608Metric","1",""
"R25,R26","27","Resistor_SMD:R_0402_1005Metric","2",""
"R28,R32,R33,R34,R35,R36,R39,R42,R43,R44","1k","Resistor_SMD:R_0603_1608Metric","10",""
"R31,R41","1k2","Resistor_SMD:R_0603_1608Metric","2",""
"R40","4k7","Resistor_SMD:R_0603_1608Metric","1",""
"R50,R52","0","Resistor_SMD:R_0603_1608Metric","2",""
"R51,R53","0","Resistor_SMD:R_0603_1608Metric","2","DNP"
"R55","2k2","Capacitor_SMD:C_0402_1005Metric","1",""
"R56","100k","Resistor_SMD:R_0603_1608Metric","1",""
"SW1,SW2,SW3,SW4","SKPMAME010","micromouse:SKPMAME010","4",""
"SW5","SW_Push","RP2040_base:TS-1187A","1",""
"SWD1","SWD","micromouse:REDFIT 4 pin","1",""
"TP1,TP4","peak det 1","TestPoint:TestPoint_Pad_D1.0mm","2",""
"TP2","Filter in","TestPoint:TestPoint_Pad_D1.0mm","1",""
"TP3","Amplified 1","TestPoint:TestPoint_Pad_D1.0mm","1",""
"TP5,TP7","peak det 2","TestPoint:TestPoint_Pad_D1.0mm","2",""
"TP6","Amplified 2","TestPoint:TestPoint_Pad_D1.0mm","1",""
"U1","YX-SMD5020","micromouse:YX-SMD5020","1",""
"U2,U15","74HC595","micromouse:SOIC-16_3.9x9.9mm_P1.27mm","2",""
"U3","0.91 inch oled","micromouse:Oled .91 inch","1",""
"U4,U7","HAL251","micromouse:TO-92S","2",""
"U5","LD39150DT33","Package_TO_SOT_SMD:TO-252-3_TabPin2","1",""
"U6,U18","W25QXXXJV","RP2040_base:SOIC-8_5.275x5.275mm_P1.27mm","2",""
"U8","L78L05_SOT89","micromouse:SOT-89-3","1",""
"U9","SRV05-4","Package_TO_SOT_SMD:SOT-23-6","1",""
"U10","XC6206P282MR","Package_TO_SOT_SMD:SOT-23-3","1",""
"U11,U12","74VHC4051AFT","Package_SO:TSSOP-16_4.4x5mm_P0.65mm","2",""
"U13","Seiko_Epson_X2A0001610002","micromouse:Seiko Epson X2A0001610002","1","DNP"
"U14","MPU-6500","Package_DFN_QFN:QFN-24-1EP_3x3mm_P0.4mm_EP1.75x1.6mm","1",""
"U16","74HC595","Package_SO:SOIC-16_3.9x9.9mm_P1.27mm","1",""
"U17","RP2040","Package_DFN_QFN:QFN-56-1EP_7x7mm_P0.4mm_EP3.2x3.2mm","1",""
"U19,U20,U22","NE5532","micromouse:SOP-8_3.9x4.9mm_P1.27mm","3",""
"U21","LMV358","micromouse:SOP-8_3.9x4.9mm_P1.27mm","1",""
"U23,U24","DRV8212PDSG","micromouse:WSON-8-1EP_2x2mm_P0.5mm_EP0.9x1.6mm_ThermalVias","2",""
"U25","TPS54331","Package_SO:SOIC-8_3.9x4.9mm_P1.27mm","1",""
"Y1","X322512MSB4SI","RP2040_base:YSX321SL, datasheet recommended measurements","1",""
