{
  "board": {
    "3dviewports": [],
    "design_settings": {
      "defaults": {
        "apply_defaults_to_fp_fields": false,
        "apply_defaults_to_fp_shapes": false,
        "apply_defaults_to_fp_text": false,
        "board_outline_line_width": 0.09999999999999999,
        "copper_line_width": 0.19999999999999998,
        "copper_text_italic": false,
        "copper_text_size_h": 1.5,
        "copper_text_size_v": 1.5,
        "copper_text_thickness": 0.3,
        "copper_text_upright": false,
        "courtyard_line_width": 0.049999999999999996,
        "dimension_precision": 4,
        "dimension_units": 3,
        "dimensions": {
          "arrow_length": 1270000,
          "extension_offset": 500000,
          "keep_text_aligned": true,
          "suppress_zeroes": false,
          "text_position": 0,
          "units_format": 1
        },
        "fab_line_width": 0.09999999999999999,
        "fab_text_italic": false,
        "fab_text_size_h": 1.0,
        "fab_text_size_v": 1.0,
        "fab_text_thickness": 0.15,
        "fab_text_upright": false,
        "other_line_width": 0.15,
        "other_text_italic": false,
        "other_text_size_h": 1.0,
        "other_text_size_v": 1.0,
        "other_text_thickness": 0.15,
        "other_text_upright": false,
        "pads": {
          "drill": 0.0,
          "height": 0.5,
          "width": 1.0
        },
        "silk_line_width": 0.15,
        "silk_text_italic": false,
        "silk_text_size_h": 1.0,
        "silk_text_size_v": 1.0,
        "silk_text_thickness": 0.15,
        "silk_text_upright": false,
        "zones": {
          "min_clearance": 0.127
        }
      },
      "diff_pair_dimensions": [
        {
          "gap": 0.0,
          "via_gap": 0.0,
          "width": 0.0
        }
      ],
      "drc_exclusions": [
        "clearance|68527407|45516377|459dbc40-ac64-4df6-82c2-47b3f4e1f3be|80645244-2260-4d7f-854d-e59430907582",
        "clearance|71575000|100350000|0199b91e-474f-4e7c-8504-7257e3ade625|80645244-2260-4d7f-854d-e59430907582",
        "clearance|87609412|58187748|946b72eb-2d33-4de4-b0be-a6af84b14dc8|80645244-2260-4d7f-854d-e59430907582",
        "silk_over_copper|47270627|46576116|d9b22436-9b4c-408b-a277-22182c791f9e|00000000-0000-0000-0000-000000000000",
        "silk_over_copper|64846297|37641473|41dbfdb5-53b3-4274-8fc9-47a844ff29d1|00000000-0000-0000-0000-000000000000",
        "silk_over_copper|81730000|103230000|f7931c48-4e1c-4c1c-9088-591363ddc146|00000000-0000-0000-0000-000000000000",
        "silk_over_copper|82000000|103500000|eb3d7b4a-94b9-48a9-bfc9-09c56f9281a7|00000000-0000-0000-0000-000000000000",
        "silk_over_copper|89682775|103182775|9fdfe36e-4960-4940-905d-cfa103543b4a|00000000-0000-0000-0000-000000000000",
        "silk_overlap|47736080|46516116|d9b22436-9b4c-408b-a277-22182c791f9e|3124e78d-98e4-4a80-aacd-4522213300ff"
      ],
      "meta": {
        "version": 2
      },
      "rule_severities": {
        "annular_width": "error",
        "clearance": "error",
        "connection_width": "warning",
        "copper_edge_clearance": "error",
        "copper_sliver": "warning",
        "courtyards_overlap": "error",
        "diff_pair_gap_out_of_range": "error",
        "diff_pair_uncoupled_length_too_long": "error",
        "drill_out_of_range": "error",
        "duplicate_footprints": "warning",
        "extra_footprint": "warning",
        "footprint": "error",
        "footprint_symbol_mismatch": "warning",
        "footprint_type_mismatch": "ignore",
        "hole_clearance": "error",
        "hole_near_hole": "error",
        "invalid_outline": "error",
        "isolated_copper": "warning",
        "item_on_disabled_layer": "error",
        "items_not_allowed": "error",
        "length_out_of_range": "error",
        "lib_footprint_issues": "warning",
        "lib_footprint_mismatch": "ignore",
        "malformed_courtyard": "error",
        "microvia_drill_out_of_range": "error",
        "missing_courtyard": "ignore",
        "missing_footprint": "warning",
        "net_conflict": "warning",
        "npth_inside_courtyard": "ignore",
        "padstack": "warning",
        "pth_inside_courtyard": "ignore",
        "shorting_items": "error",
        "silk_edge_clearance": "warning",
        "silk_over_copper": "warning",
        "silk_overlap": "warning",
        "skew_out_of_range": "error",
        "solder_mask_bridge": "error",
        "starved_thermal": "error",
        "text_height": "warning",
        "text_thickness": "warning",
        "through_hole_pad_without_hole": "error",
        "too_many_vias": "error",
        "track_dangling": "warning",
        "track_width": "error",
        "tracks_crossing": "error",
        "unconnected_items": "error",
        "unresolved_variable": "error",
        "via_dangling": "warning",
        "zones_intersect": "error"
      },
      "rules": {
        "max_error": 0.005,
        "min_clearance": 0.127,
        "min_connection": 0.0,
        "min_copper_edge_clearance": 0.3,
        "min_hole_clearance": 0.254,
        "min_hole_to_hole": 0.254,
        "min_microvia_diameter": 0.19999999999999998,
        "min_microvia_drill": 0.15,
        "min_resolved_spokes": 1,
        "min_silk_clearance": 0.0,
        "min_text_height": 1.0,
        "min_text_thickness": 0.153,
        "min_through_hole_diameter": 0.3,
        "min_track_width": 0.127,
        "min_via_annular_width": 0.09999999999999999,
        "min_via_diameter": 0.3,
        "solder_mask_clearance": 0.0,
        "solder_mask_min_width": 0.0,
        "solder_mask_to_copper_clearance": 0.0,
        "use_height_for_length_calcs": true
      },
      "teardrop_options": [
        {
          "td_onpadsmd": true,
          "td_onroundshapesonly": false,
          "td_ontrackend": false,
          "td_onviapad": true
        }
      ],
      "teardrop_parameters": [
        {
          "td_allow_use_two_tracks": true,
          "td_curve_segcount": 0,
          "td_height_ratio": 1.0,
          "td_length_ratio": 0.5,
          "td_maxheight": 2.0,
          "td_maxlen": 1.0,
          "td_on_pad_in_zone": false,
          "td_target_name": "td_round_shape",
          "td_width_to_size_filter_ratio": 0.9
        },
        {
          "td_allow_use_two_tracks": true,
          "td_curve_segcount": 0,
          "td_height_ratio": 1.0,
          "td_length_ratio": 0.5,
          "td_maxheight": 2.0,
          "td_maxlen": 1.0,
          "td_on_pad_in_zone": false,
          "td_target_name": "td_rect_shape",
          "td_width_to_size_filter_ratio": 0.9
        },
        {
          "td_allow_use_two_tracks": true,
          "td_curve_segcount": 0,
          "td_height_ratio": 1.0,
          "td_length_ratio": 0.5,
          "td_maxheight": 2.0,
          "td_maxlen": 1.0,
          "td_on_pad_in_zone": false,
          "td_target_name": "td_track_end",
          "td_width_to_size_filter_ratio": 0.9
        }
      ],
      "track_widths": [
        0.0,
        0.0,
        0.127,
        0.2,
        0.254,
        0.3,
        0.5,
        0.8
      ],
      "tuning_pattern_settings": {
        "diff_pair_defaults": {
          "corner_radius_percentage": 80,
          "corner_style": 1,
          "max_amplitude": 1.0,
          "min_amplitude": 0.2,
          "single_sided": false,
          "spacing": 1.0
        },
        "diff_pair_skew_defaults": {
          "corner_radius_percentage": 80,
          "corner_style": 1,
          "max_amplitude": 1.0,
          "min_amplitude": 0.2,
          "single_sided": false,
          "spacing": 0.6
        },
        "single_track_defaults": {
          "corner_radius_percentage": 80,
          "corner_style": 1,
          "max_amplitude": 1.0,
          "min_amplitude": 0.2,
          "single_sided": false,
          "spacing": 0.6
        }
      },
      "via_dimensions": [
        {
          "diameter": 0.0,
          "drill": 0.0
        },
        {
          "diameter": 0.5,
          "drill": 0.3
        },
        {
          "diameter": 0.8,
          "drill": 0.4
        },
        {
          "diameter": 1.0,
          "drill": 0.6
        },
        {
          "diameter": 1.2,
          "drill": 0.8
        },
        {
          "diameter": 1.4,
          "drill": 1.0
        }
      ],
      "zones_allow_external_fillets": false
    },
    "ipc2581": {
      "dist": "",
      "distpn": "",
      "internal_id": "",
      "mfg": "",
      "mpn": ""
    },
    "layer_presets": [],
    "viewports": []
  },
  "boards": [],
  "cvpcb": {
    "equivalence_files": []
  },
  "erc": {
    "erc_exclusions": [],
    "meta": {
      "version": 0
    },
    "pin_map": [
      [
        0,
        0,
        0,
        0,
        0,
        0,
        1,
        0,
        0,
        0,
        0,
        2
      ],
      [
        0,
        2,
        0,
        1,
        0,
        0,
        1,
        0,
        2,
        2,
        2,
        2
      ],
      [
        0,
        0,
        0,
        0,
        0,
        0,
        1,
        0,
        1,
        0,
        1,
        2
      ],
      [
        0,
        1,
        0,
        0,
        0,
        0,
        1,
        1,
        2,
        1,
        1,
        2
      ],
      [
        0,
        0,
        0,
        0,
        0,
        0,
        1,
        0,
        0,
        0,
        0,
        2
      ],
      [
        0,
        0,
        0,
        0,
        0,
        0,
        0,
        0,
        0,
        0,
        0,
        2
      ],
      [
        1,
        1,
        1,
        1,
        1,
        0,
        1,
        1,
        1,
        1,
        1,
        2
      ],
      [
        0,
        0,
        0,
        1,
        0,
        0,
        1,
        0,
        0,
        0,
        0,
        2
      ],
      [
        0,
        2,
        1,
        2,
        0,
        0,
        1,
        0,
        2,
        2,
        2,
        2
      ],
      [
        0,
        2,
        0,
        1,
        0,
        0,
        1,
        0,
        2,
        0,
        0,
        2
      ],
      [
        0,
        2,
        1,
        1,
        0,
        0,
        1,
        0,
        2,
        0,
        0,
        2
      ],
      [
        2,
        2,
        2,
        2,
        2,
        2,
        2,
        2,
        2,
        2,
        2,
        2
      ]
    ],
    "rule_severities": {
      "bus_definition_conflict": "error",
      "bus_entry_needed": "error",
      "bus_to_bus_conflict": "error",
      "bus_to_net_conflict": "error",
      "conflicting_netclasses": "error",
      "different_unit_footprint": "error",
      "different_unit_net": "error",
      "duplicate_reference": "error",
      "duplicate_sheet_names": "error",
      "endpoint_off_grid": "warning",
      "extra_units": "error",
      "global_label_dangling": "warning",
      "hier_label_mismatch": "error",
      "label_dangling": "error",
      "lib_symbol_issues": "ignore",
      "missing_bidi_pin": "warning",
      "missing_input_pin": "warning",
      "missing_power_pin": "error",
      "missing_unit": "warning",
      "multiple_net_names": "warning",
      "net_not_bus_member": "warning",
      "no_connect_connected": "warning",
      "no_connect_dangling": "warning",
      "pin_not_connected": "error",
      "pin_not_driven": "error",
      "pin_to_pin": "warning",
      "power_pin_not_driven": "error",
      "similar_labels": "warning",
      "simulation_model_issue": "ignore",
      "unannotated": "error",
      "unit_value_mismatch": "error",
      "unresolved_variable": "error",
      "wire_dangling": "error"
    }
  },
  "libraries": {
    "pinned_footprint_libs": [
      "micromouse"
    ],
    "pinned_symbol_libs": [
      "micromouse",
      "rp2040_base"
    ]
  },
  "meta": {
    "filename": "micromouse.kicad_pro",
    "version": 1
  },
  "net_settings": {
    "classes": [
      {
        "bus_width": 12,
        "clearance": 0.127,
        "diff_pair_gap": 0.2,
        "diff_pair_via_gap": 0.25,
        "diff_pair_width": 0.127,
        "line_style": 0,
        "microvia_diameter": 0.3,
        "microvia_drill": 0.1,
        "name": "Default",
        "pcb_color": "rgba(0, 0, 0, 0.000)",
        "schematic_color": "rgba(0, 0, 0, 0.000)",
        "track_width": 0.2,
        "via_diameter": 0.5,
        "via_drill": 0.3,
        "wire_width": 6
      },
      {
        "bus_width": 12,
        "clearance": 0.127,
        "diff_pair_gap": 0.25,
        "diff_pair_via_gap": 0.25,
        "diff_pair_width": 0.2,
        "line_style": 0,
        "microvia_diameter": 0.3,
        "microvia_drill": 0.1,
        "name": "High power",
        "pcb_color": "rgba(0, 0, 0, 0.000)",
        "schematic_color": "rgba(0, 0, 0, 0.000)",
        "track_width": 1.0,
        "via_diameter": 0.9,
        "via_drill": 0.5,
        "wire_width": 6
      },
      {
        "bus_width": 12,
        "clearance": 0.127,
        "diff_pair_gap": 0.2,
        "diff_pair_via_gap": 0.25,
        "diff_pair_width": 0.127,
        "line_style": 0,
        "microvia_diameter": 0.3,
        "microvia_drill": 0.1,
        "name": "Motor power",
        "pcb_color": "rgba(0, 0, 0, 0.000)",
        "schematic_color": "rgba(0, 0, 0, 0.000)",
        "track_width": 0.4,
        "via_diameter": 0.8,
        "via_drill": 0.4,
        "wire_width": 6
      },
      {
        "bus_width": 12,
        "clearance": 0.127,
        "diff_pair_gap": 0.25,
        "diff_pair_via_gap": 0.25,
        "diff_pair_width": 0.2,
        "line_style": 0,
        "microvia_diameter": 0.3,
        "microvia_drill": 0.1,
        "name": "Power",
        "pcb_color": "rgb(255, 133, 143)",
        "schematic_color": "rgba(0, 0, 0, 0.000)",
        "track_width": 0.3,
        "via_diameter": 0.8,
        "via_drill": 0.4,
        "wire_width": 6
      }
    ],
    "meta": {
      "version": 3
    },
    "net_colors": null,
    "netclass_assignments": {
      "+2V8": "Power",
      "+3V3": "Power",
      "+3V3 analog": "Power",
      "+5V": "Power",
      "+6V": "Power",
      "+6V analog": "Power",
      "+6V_motor": "High power",
      "+BATT": "High power",
      "/+6V regulators": "Power",
      "/Motor driver 1/+6V decoupled": "Motor power",
      "/Motor driver 1/OUT1": "Motor power",
      "/Motor driver 1/OUT2": "Motor power",
      "/Motor driver 2/+6V decoupled": "Motor power",
      "/Motor driver 2/OUT1": "Motor power",
      "/Motor driver 2/OUT2": "Motor power",
      "/Switch mode supply 2/VOUT": "Power",
      "Net-(C14-Pad1)": "Power",
      "Net-(D14-K)": "High power",
      "Net-(D15-K)": "High power",
      "Net-(J1-Pin_1)": "High power",
      "Net-(J1-Pin_3)": "High power",
      "Net-(J2-Pin_1)": "High power",
      "Net-(J2-Pin_2)": "High power",
      "Net-(J3-Pin_1)": "High power",
      "Net-(U5-VI)": "Power",
      "Net-(U5-VO)": "Power",
      "Net-(U6-VI)": "Power",
      "Net-(U6-VO)": "Power"
    },
    "netclass_patterns": []
  },
  "pcbnew": {
    "last_paths": {
      "gencad": "",
      "idf": "",
      "netlist": "",
      "plot": "",
      "pos_files": "",
      "specctra_dsn": "",
      "step": "../../../../Downloads/tmp/mouse.step",
      "svg": "",
      "vrml": ""
    },
    "page_layout_descr_file": ""
  },
  "schematic": {
    "annotate_start_num": 0,
    "bom_fmt_presets": [],
    "bom_fmt_settings": {
      "field_delimiter": ",",
      "keep_line_breaks": false,
      "keep_tabs": false,
      "name": "CSV",
      "ref_delimiter": ",",
      "ref_range_delimiter": "",
      "string_delimiter": "\""
    },
    "bom_presets": [],
    "bom_settings": {
      "exclude_dnp": false,
      "fields_ordered": [
        {
          "group_by": true,
          "label": "Reference",
          "name": "Reference",
          "show": true
        },
        {
          "group_by": true,
          "label": "Value",
          "name": "Value",
          "show": true
        },
        {
          "group_by": false,
          "label": "Datasheet",
          "name": "Datasheet",
          "show": false
        },
        {
          "group_by": true,
          "label": "Footprint",
          "name": "Footprint",
          "show": true
        },
        {
          "group_by": false,
          "label": "Qty",
          "name": "${QUANTITY}",
          "show": true
        },
        {
          "group_by": true,
          "label": "DNP",
          "name": "${DNP}",
          "show": true
        },
        {
          "group_by": false,
          "label": "#",
          "name": "${ITEM_NUMBER}",
          "show": false
        },
        {
          "group_by": false,
          "label": "Field5",
          "name": "Field5",
          "show": false
        },
        {
          "group_by": false,
          "label": "GIT_URL",
          "name": "GIT_URL",
          "show": false
        },
        {
          "group_by": false,
          "label": "LCSC",
          "name": "LCSC",
          "show": false
        },
        {
          "group_by": false,
          "label": "MFR part nr",
          "name": "MFR part nr",
          "show": false
        },
        {
          "group_by": false,
          "label": "Pin",
          "name": "Pin",
          "show": false
        },
        {
          "group_by": false,
          "label": "Sim.Device",
          "name": "Sim.Device",
          "show": false
        },
        {
          "group_by": false,
          "label": "Sim.Pins",
          "name": "Sim.Pins",
          "show": false
        },
        {
          "group_by": false,
          "label": "Untitled Field",
          "name": "Untitled Field",
          "show": false
        },
        {
          "group_by": false,
          "label": "Description",
          "name": "Description",
          "show": false
        }
      ],
      "filter_string": "",
      "group_symbols": true,
      "name": "",
      "sort_asc": true,
      "sort_field": "Reference"
    },
    "connection_grid_size": 50.0,
    "drawing": {
      "dashed_lines_dash_length_ratio": 12.0,
      "dashed_lines_gap_length_ratio": 3.0,
      "default_line_thickness": 6.0,
      "default_text_size": 50.0,
      "field_names": [],
      "intersheets_ref_own_page": false,
      "intersheets_ref_prefix": "",
      "intersheets_ref_short": false,
      "intersheets_ref_show": false,
      "intersheets_ref_suffix": "",
      "junction_size_choice": 3,
      "label_size_ratio": 0.375,
      "operating_point_overlay_i_precision": 3,
      "operating_point_overlay_i_range": "~A",
      "operating_point_overlay_v_precision": 3,
      "operating_point_overlay_v_range": "~V",
      "overbar_offset_ratio": 1.23,
      "pin_symbol_size": 25.0,
      "text_offset_ratio": 0.15
    },
    "legacy_lib_dir": "",
    "legacy_lib_list": [],
    "meta": {
      "version": 1
    },
    "net_format_name": "",
    "page_layout_descr_file": "",
    "plot_directory": "schematic",
    "spice_current_sheet_as_root": false,
    "spice_external_command": "spice \"%I\"",
    "spice_model_current_sheet_as_root": true,
    "spice_save_all_currents": false,
    "spice_save_all_dissipations": false,
    "spice_save_all_voltages": false,
    "subpart_first_id": 65,
    "subpart_id_separator": 0
  },
  "sheets": [
    [
      "1d67d1a6-4411-49f5-920c-ed8538e45304",
      "Root"
    ],
    [
      "9dc29172-27d4-4bfe-ac3e-a7812b507b0f",
      "sensor board2"
    ],
    [
      "cc2e9265-4663-40f0-9863-e0e0326b3c1a",
      "RP2040-base"
    ],
    [
      "17975f48-afe4-4095-bf71-1eb495c3c5ef",
      "sensor board1"
    ],
    [
      "1609cea0-e1aa-4601-967c-4bca52b51378",
      "sensor board3"
    ],
    [
      "f226e2e9-8c06-436a-84da-d66e442fb14b",
      "IR input filter"
    ],
    [
      "91b46c3f-7396-4a0d-bbd6-7b8dd7271c93",
      "sensor board4"
    ],
    [
      "a50b6e62-acc6-4077-9149-36b15d340c19",
      "sensor board5"
    ],
    [
      "5c2dc977-f332-4ce9-bd98-560c4e89411e",
      "Level shifter1"
    ],
    [
      "70c0a02d-00f9-48ec-bf49-56c1f4279b9b",
      "Level shifter2"
    ],
    [
      "7a78c80c-77cb-40eb-b7a5-5c1112882a42",
      "Motor driver 1"
    ],
    [
      "3de56a78-bb2d-476e-90f1-c29c75aeb963",
      "Motor driver 2"
    ],
    [
      "e7387750-53dd-4834-b6af-3417beed57ad",
      "Switch mode supply 1"
    ],
    [
      "ec6d2567-bcef-4a43-851b-7e14da5ac856",
      "Level shifter"
    ]
  ],
  "text_variables": {}
}
