(footprint "logo bmp 16.7x14.4"
	(version 20240108)
	(generator "pcbnew")
	(generator_version "8.0")
	(layer "F.Cu")
	(property "Reference" "G***"
		(at 0 0 0)
		(layer "F.SilkS")
		(uuid "bbc36fe5-da44-4ac9-9fc1-7a9438c324c4")
		(effects
			(font
				(size 1.5 1.5)
				(thickness 0.3)
			)
		)
	)
	(property "Value" "LOGO"
		(at 0.75 0 0)
		(layer "F.SilkS")
		(hide yes)
		(uuid "63fac9bb-ffbc-4be4-a800-2015c4fde8da")
		(effects
			(font
				(size 1.5 1.5)
				(thickness 0.3)
			)
		)
	)
	(property "Footprint" ""
		(at 0 0 0)
		(unlocked yes)
		(layer "F.Fab")
		(hide yes)
		(uuid "00000000-0000-0000-0000-000000000000")
		(effects
			(font
				(size 1.27 1.27)
			)
		)
	)
	(property "Datasheet" ""
		(at 0 0 0)
		(unlocked yes)
		(layer "F.Fab")
		(hide yes)
		(uuid "00000000-0000-0000-0000-000000000000")
		(effects
			(font
				(size 1.27 1.27)
			)
		)
	)
	(property "Description" ""
		(at 0 0 0)
		(unlocked yes)
		(layer "F.Fab")
		(hide yes)
		(uuid "00000000-0000-0000-0000-000000000000")
		(effects
			(font
				(size 1.27 1.27)
			)
		)
	)
	(attr board_only exclude_from_pos_files exclude_from_bom)
	(fp_poly
		(pts
			(xy -4.509952 -2.365304) (xy -4.464618 -2.350288) (xy -4.41975 -2.318787) (xy -4.387834 -2.275432)
			(xy -4.371113 -2.223458) (xy -4.369905 -2.213598) (xy -4.370313 -2.1899) (xy -4.374615 -2.150703)
			(xy -4.382897 -2.095457) (xy -4.395246 -2.02361) (xy -4.411748 -1.934613) (xy -4.422579 -1.878397)
			(xy -4.436801 -1.80596) (xy -4.450327 -1.738179) (xy -4.46265 -1.677511) (xy -4.473262 -1.626411)
			(xy -4.481657 -1.587336) (xy -4.487328 -1.562742) (xy -4.488993 -1.556614) (xy -4.51302 -1.509773)
			(xy -4.550104 -1.472736) (xy -4.596522 -1.447501) (xy -4.648555 -1.436062) (xy -4.702478 -1.440415)
			(xy -4.704659 -1.440955) (xy -4.749491 -1.461337) (xy -4.787314 -1.495552) (xy -4.814884 -1.539314)
			(xy -4.828956 -1.588338) (xy -4.830093 -1.606688) (xy -4.828201 -1.629869) (xy -4.82293 -1.667524)
			(xy -4.814819 -1.716988) (xy -4.804406 -1.775594) (xy -4.79223 -1.840679) (xy -4.778829 -1.909576)
			(xy -4.764741 -1.979622) (xy -4.750504 -2.048151) (xy -4.736658 -2.112498) (xy -4.723739 -2.169998)
			(xy -4.712287 -2.217985) (xy -4.70284 -2.253796) (xy -4.695937 -2.274764) (xy -4.694585 -2.277524)
			(xy -4.658917 -2.321967) (xy -4.614121 -2.352087) (xy -4.563399 -2.36687)
		)
		(stroke
			(width 0)
			(type solid)
		)
		(fill solid)
		(layer "F.SilkS")
		(uuid "8373daca-4354-4485-a27d-db3d029fa6eb")
	)
	(fp_poly
		(pts
			(xy -5.348064 -3.430819) (xy -5.298555 -3.398271) (xy -5.26542 -3.357171) (xy -5.248723 -3.307615)
			(xy -5.246558 -3.279005) (xy -5.248469 -3.245351) (xy -5.253316 -3.215131) (xy -5.2564 -3.204519)
			(xy -5.275212 -3.171878) (xy -5.304111 -3.139648) (xy -5.336144 -3.115457) (xy -5.33909 -3.113857)
			(xy -5.353798 -3.109384) (xy -5.384167 -3.102529) (xy -5.427572 -3.093743) (xy -5.481386 -3.083476)
			(xy -5.542982 -3.07218) (xy -5.609735 -3.060308) (xy -5.679016 -3.048308) (xy -5.748201 -3.036634)
			(xy -5.814663 -3.025737) (xy -5.875775 -3.016066) (xy -5.92891 -3.008075) (xy -5.971443 -3.002214)
			(xy -6.000748 -2.998934) (xy -6.011079 -2.998395) (xy -6.043154 -3.002011) (xy -6.072778 -3.010317)
			(xy -6.074718 -3.011148) (xy -6.11491 -3.038229) (xy -6.148445 -3.077958) (xy -6.171708 -3.124729)
			(xy -6.181087 -3.172936) (xy -6.18113 -3.176212) (xy -6.173947 -3.21463) (xy -6.15482 -3.256325)
			(xy -6.127378 -3.294578) (xy -6.106195 -3.314899) (xy -6.09654 -3.321957) (xy -6.0854 -3.328238)
			(xy -6.070863 -3.334173) (xy -6.051017 -3.340194) (xy -6.023949 -3.346732) (xy -5.987747 -3.354218)
			(xy -5.9405 -3.363085) (xy -5.880294 -3.373763) (xy -5.805219 -3.386685) (xy -5.735789 -3.398483)
			(xy -5.398678 -3.455602)
		)
		(stroke
			(width 0)
			(type solid)
		)
		(fill solid)
		(layer "F.SilkS")
		(uuid "7fb4d642-4909-4a05-ab5b-078e2dc4d5c9")
	)
	(fp_poly
		(pts
			(xy -2.846005 -3.694192) (xy -2.759106 -3.691831) (xy -2.67208 -3.688635) (xy -2.587104 -3.68475)
			(xy -2.506356 -3.680325) (xy -2.432014 -3.675508) (xy -2.366255 -3.670446) (xy -2.311258 -3.665288)
			(xy -2.269201 -3.660181) (xy -2.24226 -3.655272) (xy -2.23464 -3.652693) (xy -2.191499 -3.620715)
			(xy -2.160212 -3.578013) (xy -2.142109 -3.528586) (xy -2.138522 -3.476433) (xy -2.150782 -3.425553)
			(xy -2.155587 -3.415221) (xy -2.188733 -3.369281) (xy -2.2332 -3.335857) (xy -2.285321 -3.317114)
			(xy -2.327177 -3.31399) (xy -2.343446 -3.314735) (xy -2.375548 -3.31622) (xy -2.42083 -3.31832) (xy -2.476639 -3.320913)
			(xy -2.540322 -3.323875) (xy -2.609225 -3.327084) (xy -2.618652 -3.327523) (xy -2.689474 -3.331067)
			(xy -2.756706 -3.33489) (xy -2.817411 -3.338788) (xy -2.868653 -3.342559) (xy -2.907495 -3.346001)
			(xy -2.931 -3.348913) (xy -2.93205 -3.349102) (xy -2.985776 -3.367167) (xy -3.02801 -3.397213) (xy -3.058172 -3.436276)
			(xy -3.07568 -3.481389) (xy -3.079954 -3.529586) (xy -3.070415 -3.577903) (xy -3.04648 -3.623373)
			(xy -3.00757 -3.663031) (xy -2.995229 -3.671825) (xy -2.97847 -3.682302) (xy -2.963101 -3.689223)
			(xy -2.944943 -3.693215) (xy -2.919817 -3.694904) (xy -2.883544 -3.694917)
		)
		(stroke
			(width 0)
			(type solid)
		)
		(fill solid)
		(layer "F.SilkS")
		(uuid "5b0cc306-ea03-4674-9d2c-0facc3a1604f")
	)
	(fp_poly
		(pts
			(xy -5.214947 -5.100283) (xy -5.186667 -5.089376) (xy -5.169309 -5.077818) (xy -5.143772 -5.055733)
			(xy -5.109308 -5.022373) (xy -5.06517 -4.976993) (xy -5.010612 -4.918845) (xy -4.950102 -4.852915)
			(xy -4.900967 -4.798658) (xy -4.855497 -4.747878) (xy -4.815303 -4.702417) (xy -4.781999 -4.664123)
			(xy -4.757197 -4.63484) (xy -4.742509 -4.616414) (xy -4.739469 -4.611862) (xy -4.731025 -4.588387)
			(xy -4.724218 -4.556912) (xy -4.722639 -4.545282) (xy -4.726151 -4.495622) (xy -4.746358 -4.447323)
			(xy -4.781577 -4.403921) (xy -4.795809 -4.39159) (xy -4.82032 -4.374815) (xy -4.845206 -4.365704)
			(xy -4.878556 -4.361587) (xy -4.888341 -4.361063) (xy -4.934873 -4.36216) (xy -4.969666 -4.370988)
			(xy -4.97696 -4.374393) (xy -4.992065 -4.38588) (xy -5.017337 -4.40932) (xy -5.050878 -4.442636)
			(xy -5.090787 -4.48375) (xy -5.135165 -4.530586) (xy -5.182112 -4.581065) (xy -5.229729 -4.633112)
			(xy -5.276115 -4.684647) (xy -5.319371 -4.733594) (xy -5.357597 -4.777876) (xy -5.388894 -4.815415)
			(xy -5.411362 -4.844134) (xy -5.4231 -4.861956) (xy -5.423384 -4.86255) (xy -5.438 -4.913343) (xy -5.43641 -4.962507)
			(xy -5.420908 -5.007846) (xy -5.393786 -5.047164) (xy -5.357337 -5.078263) (xy -5.313852 -5.098948)
			(xy -5.265625 -5.10702)
		)
		(stroke
			(width 0)
			(type solid)
		)
		(fill solid)
		(layer "F.SilkS")
		(uuid "e06f7afd-ad1c-4ac3-814c-be12d5a758ba")
	)
	(fp_poly
		(pts
			(xy -3.188552 -5.399078) (xy -3.141776 -5.38255) (xy -3.10062 -5.353006) (xy -3.068342 -5.310866)
			(xy -3.057078 -5.286601) (xy -3.050061 -5.266367) (xy -3.045829 -5.247228) (xy -3.045093 -5.227343)
			(xy -3.048567 -5.20487) (xy -3.056963 -5.17797) (xy -3.070995 -5.1448) (xy -3.091374 -5.10352) (xy -3.118815 -5.05229)
			(xy -3.154029 -4.989267) (xy -3.19773 -4.912611) (xy -3.210519 -4.89031) (xy -3.256271 -4.810775)
			(xy -3.294017 -4.74576) (xy -3.324829 -4.693659) (xy -3.34978 -4.652865) (xy -3.369943 -4.621773)
			(xy -3.386391 -4.598776) (xy -3.400198 -4.582268) (xy -3.412436 -4.570643) (xy -3.424177 -4.562296)
			(xy -3.432933 -4.55741) (xy -3.456515 -4.548681) (xy -3.486833 -4.541593) (xy -3.51625 -4.537511)
			(xy -3.537129 -4.537797) (xy -3.539345 -4.538401) (xy -3.554796 -4.542745) (xy -3.573331 -4.54713)
			(xy -3.613654 -4.564846) (xy -3.647301 -4.596394) (xy -3.672432 -4.637741) (xy -3.687206 -4.684855)
			(xy -3.68978 -4.733703) (xy -3.679018 -4.778603) (xy -3.670839 -4.795159) (xy -3.654758 -4.825199)
			(xy -3.632197 -4.866226) (xy -3.604581 -4.91574) (xy -3.573335 -4.971241) (xy -3.539882 -5.030232)
			(xy -3.505647 -5.090212) (xy -3.472055 -5.148684) (xy -3.440528 -5.203148) (xy -3.412492 -5.251105)
			(xy -3.389371 -5.290056) (xy -3.372588 -5.317503) (xy -3.366699 -5.326608) (xy -3.330022 -5.366354)
			(xy -3.285933 -5.391401) (xy -3.23769 -5.402168)
		)
		(stroke
			(width 0)
			(type solid)
		)
		(fill solid)
		(layer "F.SilkS")
		(uuid "1990036a-4bd3-42f2-9256-8ef8daf75af8")
	)
	(fp_poly
		(pts
			(xy 0.887464 -0.028735) (xy 0.967248 0.005637) (xy 1.038545 0.056411) (xy 1.101283 0.123501) (xy 1.155388 0.206826)
			(xy 1.200784 0.306301) (xy 1.21197 0.337167) (xy 1.223502 0.374986) (xy 1.229064 0.407905) (xy 1.228816 0.442183)
			(xy 1.222922 0.484082) (xy 1.21661 0.516119) (xy 1.195505 0.596655) (xy 1.167606 0.662859) (xy 1.130377 0.71841)
			(xy 1.081285 0.766983) (xy 1.017795 0.812256) (xy 1.008597 0.817941) (xy 0.93234 0.854638) (xy 0.849938 0.876818)
			(xy 0.766246 0.883493) (xy 0.710513 0.87858) (xy 0.647617 0.859849) (xy 0.584826 0.825674) (xy 0.525935 0.778747)
			(xy 0.47474 0.721758) (xy 0.460111 0.701095) (xy 0.412122 0.614502) (xy 0.380975 0.526477) (xy 0.366169 0.438719)
			(xy 0.366642 0.399446) (xy 0.721748 0.399446) (xy 0.72653 0.436673) (xy 0.738824 0.476318) (xy 0.755551 0.509092)
			(xy 0.760092 0.515156) (xy 0.78001 0.526051) (xy 0.806822 0.524492) (xy 0.83002 0.513523) (xy 0.853396 0.486674)
			(xy 0.863897 0.451102) (xy 0.860131 0.412596) (xy 0.856623 0.402771) (xy 0.837294 0.363891) (xy 0.816499 0.334328)
			(xy 0.796831 0.317372) (xy 0.787152 0.314608) (xy 0.763057 0.322923) (xy 0.741387 0.344274) (xy 0.726298 0.373272)
			(xy 0.721748 0.399446) (xy 0.366642 0.399446) (xy 0.367203 0.352925) (xy 0.383574 0.270794) (xy 0.414781 0.194023)
			(xy 0.460322 0.12431) (xy 0.519695 0.063354) (xy 0.592398 0.012853) (xy 0.674439 -0.024275) (xy 0.747067 -0.042393)
			(xy 0.817346 -0.043566)
		)
		(stroke
			(width 0)
			(type solid)
		)
		(fill solid)
		(layer "F.SilkS")
		(uuid "5a49c37b-a25b-4535-9e4c-474d9dd53efe")
	)
	(fp_poly
		(pts
			(xy -1.99628 1.54676) (xy -1.92314 1.577547) (xy -1.854105 1.623673) (xy -1.807481 1.666725) (xy -1.774306 1.707765)
			(xy -1.741595 1.75912) (xy -1.711446 1.81626) (xy -1.685955 1.874652) (xy -1.667217 1.929766) (xy -1.65733 1.97707)
			(xy -1.656321 1.993459) (xy -1.659756 2.041271) (xy -1.668929 2.097435) (xy -1.682143 2.153882) (xy -1.6977 2.202541)
			(xy -1.703032 2.215456) (xy -1.736952 2.27203) (xy -1.785458 2.326182) (xy -1.844651 2.374585) (xy -1.910631 2.413915)
			(xy -1.960087 2.434723) (xy -2.008976 2.44715) (xy -2.066459 2.45499) (xy -2.124818 2.457666) (xy -2.176338 2.454603)
			(xy -2.191648 2.452001) (xy -2.249913 2.431107) (xy -2.307981 2.394633) (xy -2.363414 2.345368) (xy -2.413775 2.2861)
			(xy -2.456627 2.21962) (xy -2.489531 2.148716) (xy -2.506932 2.09122) (xy -2.514275 2.039392) (xy -2.516181 1.978304)
			(xy -2.516031 1.975556) (xy -2.164837 1.975556) (xy -2.160919 2.00067) (xy -2.150982 2.031729) (xy -2.137761 2.062122)
			(xy -2.12399 2.08524) (xy -2.116199 2.093135) (xy -2.089708 2.100162) (xy -2.061058 2.093474) (xy -2.045471 2.082483)
			(xy -2.024951 2.049824) (xy -2.021317 2.010212) (xy -2.034601 1.964337) (xy -2.039522 1.954014) (xy -2.063245 1.915439)
			(xy -2.086033 1.895064) (xy -2.10774 1.892997) (xy -2.117258 1.898175) (xy -2.14941 1.930448) (xy -2.163994 1.964889)
			(xy -2.164837 1.975556) (xy -2.516031 1.975556) (xy -2.512804 1.916337) (xy -2.504298 1.861873) (xy -2.502596 1.854895)
			(xy -2.474244 1.780676) (xy -2.430365 1.71162) (xy -2.373743 1.650216) (xy -2.307162 1.598957) (xy -2.233408 1.560333)
			(xy -2.155265 1.536835) (xy -2.145043 1.53504) (xy -2.071067 1.532271)
		)
		(stroke
			(width 0)
			(type solid)
		)
		(fill solid)
		(layer "F.SilkS")
		(uuid "d86ff4ac-9134-4471-b3c1-75bafb61f772")
	)
	(fp_poly
		(pts
			(xy -3.997125 -4.30467) (xy -3.915621 -4.291974) (xy -3.880218 -4.28268) (xy -3.823687 -4.261546)
			(xy -3.764076 -4.232476) (xy -3.705085 -4.197927) (xy -3.650415 -4.160361) (xy -3.603766 -4.122236)
			(xy -3.568839 -4.086012) (xy -3.555372 -4.066776) (xy -3.538834 -4.020934) (xy -3.536732 -3.969777)
			(xy -3.548759 -3.919178) (xy -3.56471 -3.888297) (xy -3.601375 -3.847868) (xy -3.646017 -3.823004)
			(xy -3.696098 -3.814039) (xy -3.749082 -3.82131) (xy -3.802431 -3.845151) (xy -3.817221 -3.854937)
			(xy -3.872632 -3.893206) (xy -3.917512 -3.921131) (xy -3.955281 -3.940522) (xy -3.989365 -3.953189)
			(xy -4.014705 -3.959394) (xy -4.083351 -3.964798) (xy -4.14526 -3.953073) (xy -4.199553 -3.924645)
			(xy -4.245348 -3.879941) (xy -4.274988 -3.833306) (xy -4.294792 -3.780022) (xy -4.306177 -3.717103)
			(xy -4.309088 -3.650279) (xy -4.303472 -3.585281) (xy -4.289272 -3.527841) (xy -4.278142 -3.502219)
			(xy -4.263264 -3.478504) (xy -4.241327 -3.448876) (xy -4.2153 -3.416739) (xy -4.188151 -3.3855) (xy -4.162851 -3.358562)
			(xy -4.142369 -3.339333) (xy -4.129675 -3.331217) (xy -4.128968 -3.331147) (xy -4.117041 -3.337301)
			(xy -4.095583 -3.353906) (xy -4.067998 -3.378181) (xy -4.04688 -3.398233) (xy -4.014074 -3.428598)
			(xy -3.981936 -3.455393) (xy -3.955165 -3.474831) (xy -3.943887 -3.481269) (xy -3.894007 -3.494983)
			(xy -3.843651 -3.492312) (xy -3.796286 -3.474953) (xy -3.755382 -3.444602) (xy -3.724405 -3.402955)
			(xy -3.710207 -3.366965) (xy -3.704988 -3.318917) (xy -3.715793 -3.270784) (xy -3.743198 -3.22131)
			(xy -3.787778 -3.169242) (xy -3.811071 -3.146927) (xy -3.865811 -3.096878) (xy -3.818207 -3.040515)
			(xy -3.757272 -2.959921) (xy -3.70633 -2.875267) (xy -3.667302 -2.790346) (xy -3.642111 -2.70895)
			(xy -3.637131 -2.683319) (xy -3.631285 -2.636064) (xy -3.628209 -2.586649) (xy -3.627892 -2.539824)
			(xy -3.630323 -2.50034) (xy -3.635491 -2.472947) (xy -3.637634 -2.467679) (xy -3.659443 -2.436017)
			(xy -3.689535 -2.405041) (xy -3.720181 -2.382647) (xy -3.721635 -2.38187) (xy -3.755825 -2.371748)
			(xy -3.798767 -2.369618) (xy -3.842669 -2.37518) (xy -3.879422 -2.387964) (xy -3.914614 -2.41265)
			(xy -3.940194 -2.445896) (xy -3.957686 -2.490636) (xy -3.96862 -2.549804) (xy -3.969991 -2.562039)
			(xy -3.987813 -2.651167) (xy -4.021582 -2.732786) (xy -4.070353 -2.804747) (xy -4.08241 -2.818426)
			(xy -4.120205 -2.859429) (xy -4.199902 -2.782742) (xy -4.247224 -2.73917) (xy -4.28621 -2.708334)
			(xy -4.31997 -2.688429) (xy -4.351612 -2.677649) (xy -4.384245 -2.674186) (xy -4.386801 -2.674171)
			(xy -4.439868 -2.682828) (xy -4.486583 -2.70711) (xy -4.524164 -2.744482) (xy -4.549829 -2.792411)
			(xy -4.559266 -2.831266) (xy -4.556539 -2.871277) (xy -4.540334 -2.915499) (xy -4.513187 -2.958867)
			(xy -4.477635 -2.996317) (xy -4.475875 -2.997784) (xy -4.447382 -3.022992) (xy -4.420146 -3.049781)
			(xy -4.410445 -3.060358) (xy -4.383987 -3.090795) (xy -4.446119 -3.156658) (xy -4.515323 -3.238515)
			(xy -4.571448 -3.322811) (xy -4.612495 -3.406395) (xy -4.62341 -3.436351) (xy -4.633101 -3.467582)
			(xy -4.639921 -3.49537) (xy -4.644394 -3.524197) (xy -4.64704 -3.55854) (xy -4.648383 -3.602878)
			(xy -4.64891 -3.655009) (xy -4.648432 -3.726344) (xy -4.645584 -3.783756) (xy -4.639607 -3.831757)
			(xy -4.62974 -3.87486) (xy -4.615225 -3.917578) (xy -4.597776 -3.958942) (xy -4.546062 -4.054148)
			(xy -4.482873 -4.134837) (xy -4.408213 -4.201005) (xy -4.322089 -4.252647) (xy -4.23796 -4.285717)
			(xy -4.164804 -4.301597) (xy -4.082356 -4.307896)
		)
		(stroke
			(width 0)
			(type solid)
		)
		(fill solid)
		(layer "F.SilkS")
		(uuid "309df99a-a97c-46d0-8532-4fed72169757")
	)
	(fp_poly
		(pts
			(xy -1.540795 -7.000585) (xy -1.259698 -6.985721) (xy -0.982661 -6.959524) (xy -0.763388 -6.929895)
			(xy -0.424401 -6.86813) (xy -0.089976 -6.788608) (xy 0.239158 -6.691581) (xy 0.56227 -6.5773) (xy 0.878633 -6.446017)
			(xy 1.187517 -6.297984) (xy 1.400508 -6.183622) (xy 1.523623 -6.112509) (xy 1.651574 -6.035003) (xy 1.779346 -5.954294)
			(xy 1.901927 -5.87357) (xy 2.014303 -5.796021) (xy 2.049581 -5.770738) (xy 2.071024 -5.754726) (xy 2.102434 -5.73065)
			(xy 2.141432 -5.700391) (xy 2.185639 -5.665829) (xy 2.232676 -5.628847) (xy 2.280165 -5.591325) (xy 2.325726 -5.555144)
			(xy 2.366981 -5.522186) (xy 2.401551 -5.494331) (xy 2.427057 -5.473461) (xy 2.441119 -5.461456) (xy 2.442841 -5.459763)
			(xy 2.450814 -5.452193) (xy 2.470378 -5.434159) (xy 2.499396 -5.407615) (xy 2.535736 -5.374511) (xy 2.577262 -5.3368)
			(xy 2.586266 -5.328637) (xy 2.829105 -5.096135) (xy 3.059637 -4.850236) (xy 3.27725 -4.59188) (xy 3.481334 -4.32201)
			(xy 3.671279 -4.041569) (xy 3.846476 -3.751497) (xy 4.006312 -3.452739) (xy 4.150179 -3.146235) (xy 4.277466 -2.832928)
			(xy 4.365865 -2.581324) (xy 4.463758 -2.253048) (xy 4.543722 -1.921447) (xy 4.605812 -1.587263) (xy 4.650081 -1.251234)
			(xy 4.676583 -0.9141) (xy 4.685371 -0.576601) (xy 4.676499 -0.239477) (xy 4.650021 0.096533) (xy 4.605989 0.430689)
			(xy 4.544458 0.762251) (xy 4.46548 1.09048) (xy 4.36911 1.414636) (xy 4.255402 1.73398) (xy 4.124407 2.04777)
			(xy 4.013909 2.280911) (xy 3.983872 2.340458) (xy 3.952118 2.402323) (xy 3.921214 2.461578) (xy 3.893727 2.513297)
			(xy 3.8751 2.547411) (xy 3.854279 2.585955) (xy 3.837914 2.618516) (xy 3.82756 2.641829) (xy 3.824772 2.652627)
			(xy 3.824916 2.652846) (xy 3.835764 2.654288) (xy 3.862492 2.654603) (xy 3.902519 2.653919) (xy 3.953262 2.652359)
			(xy 4.012136 2.650049) (xy 4.076561 2.647114) (xy 4.143952 2.64368) (xy 4.211726 2.63987) (xy 4.277302 2.635812)
			(xy 4.338095 2.631629) (xy 4.391524 2.627447) (xy 4.435005 2.623391) (xy 4.436903 2.62319) (xy 4.535919 2.61176)
			(xy 4.648647 2.59719) (xy 4.770682 2.580105) (xy 4.897617 2.561129) (xy 5.025046 2.540888) (xy 5.070747 2.533319)
			(xy 5.131095 2.523857) (xy 5.191052 2.515614) (xy 5.245916 2.509151) (xy 5.290988 2.505035) (xy 5.316559 2.503812)
			(xy 5.356203 2.50413) (xy 5.383324 2.506954) (xy 5.403861 2.513501) (xy 5.423754 2.524988) (xy 5.425442 2.52612)
			(xy 5.452961 2.551447) (xy 5.477611 2.585685) (xy 5.482671 2.595023) (xy 5.499551 2.637114) (xy 5.505509 2.676826)
			(xy 5.499679 2.716113) (xy 5.481198 2.756929) (xy 5.4492 2.801226) (xy 5.40282 2.850958) (xy 5.345905 2.903902)
			(xy 5.17884 3.045245) (xy 5.013725 3.170037) (xy 4.848089 3.2797) (xy 4.67946 3.375651) (xy 4.505369 3.459313)
			(xy 4.323343 3.532105) (xy 4.155749 3.587958) (xy 4.068912 3.614473) (xy 4.202015 3.680411) (xy 4.373328 3.758319)
			(xy 4.539288 3.819305) (xy 4.701462 3.863611) (xy 4.861416 3.89148) (xy 5.020715 3.903155) (xy 5.180924 3.898877)
			(xy 5.34361 3.878889) (xy 5.407161 3.867072) (xy 5.56135 3.827626) (xy 5.707785 3.773829) (xy 5.845182 3.706578)
			(xy 5.972263 3.626766) (xy 6.087745 3.535291) (xy 6.190347 3.433046) (xy 6.278789 3.320928) (xy 6.346002 3.210856)
			(xy 6.401621 3.090463) (xy 6.447693 2.957777) (xy 6.483378 2.81684) (xy 6.507835 2.671691) (xy 6.520222 2.526369)
			(xy 6.519699 2.384914) (xy 6.519341 2.378403) (xy 6.501078 2.209439) (xy 6.46563 2.035949) (xy 6.413378 1.859226)
			(xy 6.344705 1.680565) (xy 6.26136 1.503911) (xy 6.204262 1.39314) (xy 6.144116 1.377701) (xy 6.031661 1.341983)
			(xy 5.926948 1.293717) (xy 5.837139 1.239263) (xy 5.782297 1.199719) (xy 5.723789 1.15275) (xy 5.663493 1.100311)
			(xy 5.603289 1.044354) (xy 5.545054 0.986833) (xy 5.490669 0.929701) (xy 5.442012 0.874913) (xy 5.400961 0.824421)
			(xy 5.369395 0.78018) (xy 5.349194 0.744142) (xy 5.34292 0.725387) (xy 5.337862 0.662178) (xy 5.345783 0.602199)
			(xy 5.365498 0.548981) (xy 5.395826 0.506055) (xy 5.424058 0.483203) (xy 5.46307 0.465041) (xy 5.519297 0.447326)
			(xy 5.591448 0.430297) (xy 5.678234 0.414192) (xy 5.778362 0.399248) (xy 5.890544 0.385703) (xy 6.013488 0.373794)
			(xy 6.022155 0.373054) (xy 6.212021 0.356976) (xy 6.27754 0.306452) (xy 6.424157 0.190701) (xy 6.580017 0.06256)
			(xy 6.74274 -0.075961) (xy 6.909946 -0.222854) (xy 6.995199 -0.299456) (xy 7.062555 -0.36009) (xy 7.11843 -0.409497)
			(xy 7.16476 -0.449197) (xy 7.203481 -0.480711) (xy 7.236529 -0.505557) (xy 7.26584 -0.525257) (xy 7.29335 -0.541331)
			(xy 7.320994 -0.555297) (xy 7.321086 -0.555341) (xy 7.384046 -0.577591) (xy 7.441774 -0.582564) (xy 7.49363 -0.570362)
			(xy 7.538979 -0.541084) (xy 7.561344 -0.517204) (xy 7.57322 -0.495591) (xy 7.587829 -0.458046) (xy 7.60453 -0.406835)
			(xy 7.622682 -0.344222) (xy 7.641643 -0.272472) (xy 7.660773 -0.19385) (xy 7.679431 -0.11062) (xy 7.688092 -0.069399)
			(xy 7.719073 0.120816) (xy 7.734545 0.31243) (xy 7.734509 0.502561) (xy 7.718962 0.688323) (xy 7.688511 0.864098)
			(xy 7.670297 0.946301) (xy 7.711305 1.026028) (xy 7.77953 1.162816) (xy 7.844432 1.301063) (xy 7.904931 1.438119)
			(xy 7.959945 1.571331) (xy 8.008394 1.698047) (xy 8.049197 1.815614) (xy 8.081273 1.92138) (xy 8.090728 1.957049)
			(xy 8.128641 2.127065) (xy 8.155022 2.293765) (xy 8.170066 2.460794) (xy 8.173966 2.631796) (xy 8.166916 2.810417)
			(xy 8.149112 3.000302) (xy 8.147174 3.016539) (xy 8.115627 3.226582) (xy 8.071971 3.439274) (xy 8.017109 3.652247)
			(xy 7.951942 3.863132) (xy 7.877372 4.069561) (xy 7.7943 4.269166) (xy 7.703629 4.459579) (xy 7.606258 4.638431)
			(xy 7.503092 4.803355) (xy 7.425194 4.912855) (xy 7.305186 5.059832) (xy 7.173213 5.197777) (xy 7.028165 5.327576)
			(xy 6.868934 5.450116) (xy 6.694412 5.566285) (xy 6.503491 5.67697) (xy 6.407832 5.727322) (xy 6.195442 5.829331)
			(xy 5.9718 5.924549) (xy 5.740549 6.011794) (xy 5.505335 6.08988) (xy 5.2698 6.157626) (xy 5.037591 6.213845)
			(xy 4.81235 6.257356) (xy 4.742258 6.268413) (xy 4.636739 6.283496) (xy 4.540989 6.295713) (xy 4.451049 6.305334)
			(xy 4.362956 6.312634) (xy 4.272749 6.317883) (xy 4.176469 6.321355) (xy 4.070153 6.323322) (xy 3.94984 6.324056)
			(xy 3.932604 6.324075) (xy 3.8136 6.323742) (xy 3.709306 6.322411) (xy 3.615945 6.319829) (xy 3.529735 6.315741)
			(xy 3.446898 6.309891) (xy 3.363652 6.302027) (xy 3.276218 6.291893) (xy 3.180817 6.279235) (xy 3.104444 6.268324)
			(xy 2.79882 6.215126) (xy 2.493542 6.144778) (xy 2.188108 6.057102) (xy 1.882015 5.951919) (xy 1.574762 5.829053)
			(xy 1.265846 5.688325) (xy 0.954764 5.529557) (xy 0.837006 5.465085) (xy 0.679294 5.377154) (xy 0.550157 5.427271)
			(xy 0.494812 5.448135) (xy 0.428588 5.472142) (xy 0.358262 5.496889) (xy 0.29061 5.519974) (xy 0.261544 5.529605)
			(xy 0.201173 5.549818) (xy 0.157158 5.565657) (xy 0.128034 5.577737) (xy 0.112336 5.586673) (xy 0.108598 5.59308)
			(xy 0.108866 5.593679) (xy 0.117469 5.60434) (xy 0.136463 5.62554) (xy 0.163341 5.654547) (xy 0.195593 5.688631)
			(xy 0.208196 5.701784) (xy 0.285819 5.780621) (xy 0.365801 5.857875) (xy 0.449636 5.934757) (xy 0.538814 6.012478)
			(xy 0.63483 6.092247) (xy 0.739175 6.175274) (xy 0.853342 6.262771) (xy 0.978822 6.355947) (xy 1.11711 6.456012)
			(xy 1.269696 6.564177) (xy 1.284512 6.574582) (xy 1.348622 6.620086) (xy 1.398843 6.657408) (xy 1.436775 6.688496)
			(xy 1.464018 6.715296) (xy 1.482172 6.739754) (xy 1.492838 6.763816) (xy 1.497616 6.789429) (xy 1.498106 6.818539)
			(xy 1.497345 6.833441) (xy 1.493367 6.870652) (xy 1.485446 6.897137) (xy 1.470978 6.92063) (xy 1.46572 6.927329)
			(xy 1.442467 6.95211) (xy 1.416045 6.971309) (xy 1.384166 6.985355) (xy 1.344542 6.994677) (xy 1.294885 6.999705)
			(xy 1.232905 7.000866) (xy 1.156316 6.99859) (xy 1.101129 6.995679) (xy 0.86045 6.973585) (xy 0.629662 6.936053)
			(xy 0.40806 6.882817) (xy 0.194941 6.813611) (xy -0.0104 6.728172) (xy -0.208668 6.626232) (xy -0.400567 6.507528)
			(xy -0.586801 6.371793) (xy -0.615337 6.349106) (xy -0.691375 6.284869) (xy -0.771628 6.211565) (xy -0.852061 6.133228)
			(xy -0.928638 6.053889) (xy -0.997322 5.977581) (xy -1.04561 5.919224) (xy -1.124263 5.81925) (xy -1.165902 5.824177)
			(xy -1.27646 5.83466) (xy -1.402092 5.842021) (xy -1.539642 5.846321) (xy -1.685952 5.847623) (xy -1.837867 5.84599)
			(xy -1.99223 5.841485) (xy -2.145885 5.834169) (xy -2.295676 5.824105) (xy -2.438445 5.811356) (xy -2.56776 5.796415)
			(xy -2.909054 5.742527) (xy -3.245548 5.670964) (xy -3.576628 5.582) (xy -3.901678 5.475909) (xy -4.220083 5.352966)
			(xy -4.531229 5.213446) (xy -4.834499 5.057624) (xy -5.129279 4.885774) (xy -5.414953 4.698171) (xy -5.690907 4.495088)
			(xy -5.940547 4.29062) (xy -6.191395 4.062386) (xy -6.42987 3.820987) (xy -6.655336 3.567315) (xy -6.867155 3.302263)
			(xy -7.064692 3.026723) (xy -7.247309 2.741589) (xy -7.41437 2.447754) (xy -7.565239 2.14611) (xy -7.699278 1.83755)
			(xy -7.711694 1.806443) (xy -7.831875 1.478302) (xy -7.855418 1.401858) (xy -7.311948 1.401858) (xy -7.310756 1.484065)
			(xy -7.30661 1.561889) (xy -7.298977 1.640157) (xy -7.287325 1.723698) (xy -7.271123 1.81734) (xy -7.259544 1.877615)
			(xy -7.228349 2.035559) (xy -7.140912 2.204501) (xy -7.007609 2.44931) (xy -6.866802 2.682292) (xy -6.715322 2.908344)
			(xy -6.550001 3.132365) (xy -6.49589 3.201603) (xy -6.457261 3.250357) (xy -6.425292 3.290424) (xy -6.397672 3.324476)
			(xy -6.372086 3.355185) (xy -6.34622 3.385225) (xy -6.31776 3.417268) (xy -6.284393 3.453987) (xy -6.243805 3.498055)
			(xy -6.193683 3.552144) (xy -6.175064 3.572209) (xy -5.967455 3.784578) (xy -5.747792 3.987025) (xy -5.51454 4.180841)
			(xy -5.266164 4.36732) (xy -5.072184 4.501045) (xy -4.90555 4.606698) (xy -4.724912 4.711661) (xy -4.534707 4.813687)
			(xy -4.339373 4.910533) (xy -4.143346 4.999953) (xy -3.951064 5.079702) (xy -3.859457 5.114606) (xy -3.817127 5.129895)
			(xy -3.767838 5.147163) (xy -3.714713 5.165376) (xy -3.660873 5.183501) (xy -3.60944 5.200504) (xy -3.563536 5.215351)
			(xy -3.526283 5.227009) (xy -3.500802 5.234443) (xy -3.490858 5.236664) (xy -3.492496 5.230357) (xy -3.504596 5.212548)
			(xy -3.525368 5.185608) (xy -3.553022 5.151904) (xy -3.56951 5.132514) (xy -3.748895 4.909841) (xy -3.914159 4.675722)
			(xy -4.064813 4.431232) (xy -4.200364 4.177442) (xy -4.320322 3.915426) (xy -4.424196 3.646258) (xy -4.511495 3.371011)
			(xy -4.581728 3.090758) (xy -4.634404 2.806573) (xy -4.634895 2.803357) (xy -4.669911 2.513248) (xy -4.686599 2.222746)
			(xy -4.68575 2.07244) (xy -4.331662 2.07244) (xy -4.324995 2.349764) (xy -4.30054 2.625245) (xy -4.297314 2.651038)
			(xy -4.252504 2.928482) (xy -4.19004 3.201102) (xy -4.110326 3.468127) (xy -4.013765 3.728783) (xy -3.900762 3.982299)
			(xy -3.771721 4.227902) (xy -3.627045 4.464819) (xy -3.467137 4.692279) (xy -3.292402 4.909509) (xy -3.103244 5.115735)
			(xy -2.913609 5.297994) (xy -2.796799 5.403604) (xy -2.645267 5.426329) (xy -2.466755 5.450196) (xy -2.282927 5.469306)
			(xy -2.097719 5.483456) (xy -1.91507 5.492441) (xy -1.738916 5.496057) (xy -1.573196 5.494099) (xy -1.450552 5.488367)
			(xy -1.360448 5.482514) (xy -1.428183 5.371475) (xy -1.459905 5.318663) (xy -1.496009 5.257272) (xy -1.532021 5.194974)
			(xy -1.563075 5.140146) (xy -1.586772 5.097835) (xy -1.607181 5.061651) (xy -1.622658 5.034489) (xy -1.631558 5.019246)
			(xy -1.633 5.017022) (xy -1.642635 5.017736) (xy -1.665166 5.022354) (xy -1.694623 5.029596) (xy -1.76007 5.040462)
			(xy -1.83017 5.041471) (xy -1.898224 5.033051) (xy -1.957535 5.01563) (xy -1.965189 5.012301) (xy -2.023935 4.979967)
			(xy -2.081 4.938707) (xy -2.132563 4.892041) (xy -2.136789 4.887184) (xy -1.295447 4.887184) (xy -1.290719 4.899639)
			(xy -1.277397 4.925563) (xy -1.256773 4.962781) (xy -1.230142 5.009118) (xy -1.198794 5.0624) (xy -1.164024 5.120452)
			(xy -1.127124 5.181098) (xy -1.089386 5.242163) (xy -1.052104 5.301474) (xy -1.01657 5.356854) (xy -1.013078 5.362222)
			(xy -0.881369 5.552089) (xy -0.744514 5.724892) (xy -0.601554 5.881596) (xy -0.451526 6.023164) (xy -0.293469 6.15056)
			(xy -0.126421 6.264748) (xy -0.091573 6.286252) (xy 0.013893 6.345153) (xy 0.132503 6.402586) (xy 0.258908 6.456332)
			(xy 0.38776 6.50417) (xy 0.513712 6.543882) (xy 0.558679 6.556116) (xy 0.608675 6.569084) (xy 0.643468 6.578076)
			(xy 0.665783 6.583712) (xy 0.678345 6.58661) (xy 0.683878 6.587391) (xy 0.685107 6.586674) (xy 0.684756 6.585076)
			(xy 0.684736 6.584764) (xy 0.677826 6.578092) (xy 0.659238 6.562992) (xy 0.632184 6.542026) (xy 0.613023 6.527548)
			(xy 0.406087 6.365154) (xy 0.210203 6.196477) (xy 0.026841 6.022978) (xy -0.142535 5.846119) (xy -0.296455 5.667361)
			(xy -0.433454 5.488164) (xy -0.44078 5.477887) (xy -0.502648 5.385982) (xy -0.567299 5.281366) (xy -0.631995 5.168993)
			(xy -0.693999 5.053817) (xy -0.750575 4.940793) (xy -0.798986 4.834873) (xy -0.808836 4.811658) (xy -0.825942 4.770933)
			(xy -0.840439 4.736925) (xy -0.850879 4.712998) (xy -0.855814 4.702514) (xy -0.855935 4.702348) (xy -0.864798 4.704928)
			(xy -0.88627 4.714271) (xy -0.916511 4.728657) (xy -0.933042 4.736863) (xy -0.992445 4.76458) (xy -1.067013 4.795806)
			(xy -1.15399 4.829433) (xy -1.246867 4.863038) (xy -1.27346 4.873536) (xy -1.291105 4.882736) (xy -1.295447 4.887184)
			(xy -2.136789 4.887184) (xy -2.174806 4.84349) (xy -2.20391 4.796576) (xy -2.207204 4.789189) (xy -2.220059 4.73656)
			(xy -2.21611 4.684973) (xy -2.196956 4.637425) (xy -2.164196 4.596919) (xy -2.11943 4.566453) (xy -2.081078 4.552524)
			(xy -2.03378 4.546551) (xy -1.990454 4.554744) (xy -1.947778 4.57828) (xy -1.906308 4.614422) (xy -1.871409 4.648739)
			(xy -1.84489 4.67124) (xy -1.821998 4.683145) (xy -1.797983 4.685679) (xy -1.768093 4.680064) (xy -1.727577 4.667523)
			(xy -1.715487 4.663534) (xy -1.673114 4.648999) (xy -1.633836 4.634582) (xy -1.603265 4.622386) (xy -1.591549 4.617066)
			(xy -1.57368 4.609222) (xy -1.541378 4.596143) (xy -1.497582 4.578973) (xy -1.44523 4.558859) (xy -1.387261 4.536945)
			(xy -1.355592 4.525115) (xy -1.260872 4.489151) (xy -1.206817 4.467399) (xy -0.571892 4.467399) (xy -0.56473 4.485706)
			(xy -0.555694 4.503704) (xy -0.545974 4.524064) (xy -0.530746 4.557715) (xy -0.511681 4.600894) (xy -0.490446 4.649833)
			(xy -0.476628 4.682113) (xy -0.395466 4.856956) (xy -0.299975 5.034656) (xy -0.215853 5.17426) (xy -0.147468 5.2824)
			(xy -0.09918 5.268675) (xy -0.075304 5.261584) (xy -0.037445 5.249974) (xy 0.010758 5.234977) (xy 0.065667 5.217726)
			(xy 0.123641 5.199355) (xy 0.128538 5.197796) (xy 0.307968 5.14064) (xy 0.28217 5.121886) (xy 0.105161 4.990475)
			(xy -0.05835 4.863201) (xy -0.21197 4.737142) (xy -0.359307 4.609372) (xy -0.438028 4.538177) (xy -0.483047 4.497403)
			(xy -0.516509 4.468459) (xy -0.54 4.450149) (xy -0.555108 4.441276) (xy -0.563419 4.440642) (xy -0.565117 4.442301)
			(xy -0.571702 4.45501) (xy -0.571892 4.467399) (xy -1.206817 4.467399) (xy -1.181405 4.457173) (xy -1.114703 4.427902)
			(xy -1.058279 4.40006) (xy -1.009644 4.372367) (xy -0.966311 4.343545) (xy -0.92579 4.312317) (xy -0.901874 4.291964)
			(xy -0.882348 4.27197) (xy -0.872572 4.251999) (xy -0.872027 4.227339) (xy -0.880196 4.193276) (xy -0.888306 4.168561)
			(xy -0.898288 4.136414) (xy -0.905007 4.108772) (xy -0.906813 4.095052) (xy -0.913384 4.077918) (xy -0.930918 4.053624)
			(xy -0.951497 4.031321) (xy -0.996181 3.987309) (xy -1.069475 4.002777) (xy -1.117913 4.010902) (xy -1.172341 4.01691)
			(xy -1.217356 4.019378) (xy -1.256535 4.019286) (xy -1.283417 4.016686) (xy -1.304175 4.010253) (xy -1.324979 3.998659)
			(xy -1.330524 3.995054) (xy -1.369501 3.959068) (xy -1.394902 3.913829) (xy -1.406295 3.863114) (xy -1.403245 3.810698)
			(xy -1.38532 3.760359) (xy -1.361416 3.725737) (xy -1.327949 3.699783) (xy -1.279092 3.679413) (xy -1.217403 3.665689)
			(xy -1.216282 3.665523) (xy -1.174595 3.659024) (xy -1.124882 3.650748) (xy -1.077292 3.642387) (xy -1.07337 3.641672)
			(xy -1.030458 3.634819) (xy -0.98818 3.629732) (xy -0.954489 3.627337) (xy -0.949526 3.627262) (xy -0.92528 3.627464)
			(xy -0.904082 3.628856) (xy -0.88438 3.6326) (xy -0.864624 3.639855) (xy -0.843265 3.651782) (xy -0.818752 3.669542)
			(xy -0.789536 3.694295) (xy -0.754066 3.727202) (xy -0.710793 3.769421) (xy -0.658166 3.822115) (xy -0.594636 3.886444)
			(xy -0.570243 3.911206) (xy -0.47144 4.010923) (xy -0.382634 4.099179) (xy -0.301407 4.178237) (xy -0.225343 4.250362)
			(xy -0.152025 4.31782) (xy -0.079036 4.382874) (xy -0.00396 4.447789) (xy 0.060145 4.501911) (xy 0.306338 4.69672)
			(xy 0.566719 4.881578) (xy 0.839263 5.055456) (xy 1.121944 5.217324) (xy 1.412738 5.366152) (xy 1.709617 5.50091)
			(xy 2.010557 5.620567) (xy 2.313531 5.724095) (xy 2.616515 5.810463) (xy 2.651038 5.819191) (xy 2.857108 5.865486)
			(xy 3.072211 5.904206) (xy 3.292414 5.934971) (xy 3.513784 5.957403) (xy 3.732388 5.971123) (xy 3.944291 5.975753)
			(xy 4.145563 5.970914) (xy 4.196478 5.968006) (xy 4.466112 5.944633) (xy 4.724436 5.90975) (xy 4.975183 5.86263)
			(xy 5.222086 5.802541) (xy 5.468878 5.728753) (xy 5.538112 5.70566) (xy 5.780075 5.617861) (xy 6.004841 5.525215)
			(xy 6.213176 5.427342) (xy 6.40584 5.323863) (xy 6.583597 5.214398) (xy 6.722441 5.117182) (xy 6.778748 5.072252)
			(xy 6.842284 5.016391) (xy 6.909452 4.953192) (xy 6.976657 4.886252) (xy 7.040303 4.819164) (xy 7.096792 4.755523)
			(xy 7.14253 4.698924) (xy 7.147436 4.692356) (xy 7.2543 4.535131) (xy 7.354548 4.362454) (xy 7.447399 4.176437)
			(xy 7.532071 3.979188) (xy 7.607782 3.77282) (xy 7.673751 3.559442) (xy 7.729195 3.341166) (xy 7.773334 3.120103)
			(xy 7.802317 2.924007) (xy 7.806115 2.882458) (xy 7.809315 2.826283) (xy 7.811778 2.759361) (xy 7.813367 2.685567)
			(xy 7.81394 2.608777) (xy 7.813935 2.600146) (xy 7.8136 2.523882) (xy 7.812687 2.462496) (xy 7.810973 2.412361)
			(xy 7.808231 2.369851) (xy 7.804236 2.33134) (xy 7.798763 2.293202) (xy 7.792675 2.257778) (xy 7.773349 2.159044)
			(xy 7.751666 2.065071) (xy 7.726667 1.973091) (xy 7.697391 1.880342) (xy 7.662879 1.784056) (xy 7.62217 1.68147)
			(xy 7.574304 1.569818) (xy 7.518322 1.446335) (xy 7.489525 1.384682) (xy 7.458137 1.318553) (xy 7.432958 1.267039)
			(xy 7.41268 1.227844) (xy 7.395997 1.19867) (xy 7.381601 1.177221) (xy 7.368187 1.1612) (xy 7.355597 1.149287)
			(xy 7.327746 1.122481) (xy 7.308281 1.095199) (xy 7.296887 1.064582) (xy 7.293246 1.027775) (xy 7.297041 0.981919)
			(xy 7.307956 0.924158) (xy 7.323509 0.860001) (xy 7.360311 0.683605) (xy 7.379582 0.507599) (xy 7.381341 0.330344)
			(xy 7.365605 0.150205) (xy 7.333014 -0.031664) (xy 7.324944 -0.064713) (xy 7.317561 -0.08935) (xy 7.312209 -0.101218)
			(xy 7.311402 -0.101683) (xy 7.303024 -0.095706) (xy 7.283186 -0.079103) (xy 7.254056 -0.053763) (xy 7.217804 -0.021578)
			(xy 7.176599 0.015561) (xy 7.169944 0.021608) (xy 7.118983 0.06755) (xy 7.063879 0.116542) (xy 7.009396 0.164392)
			(xy 6.960295 0.206912) (xy 6.93078 0.232016) (xy 6.827063 0.319235) (xy 6.870489 0.325535) (xy 6.923339 0.341369)
			(xy 6.96609 0.370111) (xy 6.997698 0.408669) (xy 7.017118 0.453951) (xy 7.023303 0.502867) (xy 7.01521 0.552325)
			(xy 6.991792 0.599233) (xy 6.971259 0.623572) (xy 6.961087 0.633741) (xy 6.951487 0.642493) (xy 6.941013 0.650019)
			(xy 6.928218 0.65651) (xy 6.911654 0.662158) (xy 6.889874 0.667153) (xy 6.861431 0.671686) (xy 6.824879 0.675948)
			(xy 6.77877 0.68013) (xy 6.721656 0.684423) (xy 6.652092 0.689018) (xy 6.568629 0.694106) (xy 6.469822 0.699878)
			(xy 6.354222 0.706526) (xy 6.333807 0.707698) (xy 6.258032 0.712322) (xy 6.18146 0.717485) (xy 6.106386 0.722988)
			(xy 6.035108 0.728631) (xy 5.969921 0.734214) (xy 5.913124 0.739536) (xy 5.867011 0.744399) (xy 5.833882 0.748602)
			(xy 5.816031 0.751945) (xy 5.813707 0.752972) (xy 5.818029 0.760798) (xy 5.834201 0.777701) (xy 5.859502 0.801349)
			(xy 5.891211 0.82941) (xy 5.926609 0.85955) (xy 5.962974 0.889436) (xy 5.997586 0.916736) (xy 6.027725 0.939118)
			(xy 6.042671 0.949307) (xy 6.138589 1.000596) (xy 6.244521 1.036757) (xy 6.360818 1.057882) (xy 6.476626 1.064117)
			(xy 6.521334 1.064772) (xy 6.553432 1.067422) (xy 6.57879 1.07309) (xy 6.603281 1.082801) (xy 6.614346 1.088144)
			(xy 6.660468 1.120457) (xy 6.692753 1.1627) (xy 6.710226 1.211637) (xy 6.711913 1.26403) (xy 6.696837 1.316642)
			(xy 6.688177 1.333229) (xy 6.669266 1.360115) (xy 6.64884 1.381299) (xy 6.639929 1.387568) (xy 6.622821 1.398651)
			(xy 6.616029 1.40671) (xy 6.619533 1.417252) (xy 6.629043 1.441049) (xy 6.643058 1.474442) (xy 6.658095 1.509245)
			(xy 6.724443 1.671353) (xy 6.777486 1.824823) (xy 6.818033 1.972984) (xy 6.846896 2.119165) (xy 6.864885 2.266695)
			(xy 6.871972 2.387322) (xy 6.873348 2.530196) (xy 6.867116 2.660934) (xy 6.8526 2.784559) (xy 6.829122 2.906097)
			(xy 6.796007 3.030569) (xy 6.777231 3.090565) (xy 6.730689 3.221079) (xy 6.680288 3.336949) (xy 6.623731 3.441971)
			(xy 6.558726 3.53994) (xy 6.482977 3.634653) (xy 6.394188 3.729906) (xy 6.385439 3.738675) (xy 6.301683 3.818366)
			(xy 6.222103 3.885465) (xy 6.141926 3.943581) (xy 6.05638 3.996321) (xy 6.012933 4.020293) (xy 5.937123 4.0608)
			(xy 5.939436 4.160946) (xy 5.943085 4.226553) (xy 5.950512 4.29006) (xy 5.960949 4.346954) (xy 5.97363 4.392721)
			(xy 5.982406 4.413771) (xy 5.993101 4.430909) (xy 6.012177 4.458087) (xy 6.036472 4.49088) (xy 6.051863 4.510929)
			(xy 6.078009 4.545853) (xy 6.100859 4.578784) (xy 6.11714 4.604891) (xy 6.12217 4.61473) (xy 6.134682 4.664628)
			(xy 6.131131 4.712739) (xy 6.113957 4.756992) (xy 6.085599 4.795317) (xy 6.0485 4.825643) (xy 6.005099 4.845897)
			(xy 5.957837 4.85401) (xy 5.909154 4.84791) (xy 5.868496 4.830012) (xy 5.839559 4.806969) (xy 5.805189 4.771024)
			(xy 5.76821 4.725833) (xy 5.73145 4.675056) (xy 5.697733 4.622349) (xy 5.672032 4.575701) (xy 5.63324 4.48394)
			(xy 5.605771 4.388073) (xy 5.591123 4.294003) (xy 5.58907 4.248447) (xy 5.588605 4.21668) (xy 5.586413 4.199626)
			(xy 5.581 4.193498) (xy 5.570873 4.194503) (xy 5.568105 4.195239) (xy 5.549503 4.19976) (xy 5.518617 4.206693)
			(xy 5.481294 4.214734) (xy 5.470947 4.21691) (xy 5.394608 4.232876) (xy 5.394608 4.280441) (xy 5.392507 4.309498)
			(xy 5.386834 4.350374) (xy 5.378533 4.39694) (xy 5.371475 4.430483) (xy 5.353437 4.535744) (xy 5.349104 4.634129)
			(xy 5.358324 4.73102) (xy 5.36222 4.753011) (xy 5.371328 4.806262) (xy 5.375092 4.846192) (xy 5.373413 4.877229)
			(xy 5.366195 4.9038) (xy 5.358496 4.920751) (xy 5.324784 4.968895) (xy 5.282438 5.00205) (xy 5.234275 5.019766)
			(xy 5.183112 5.021592) (xy 5.131766 5.007079) (xy 5.083053 4.975774) (xy 5.072806 4.966432) (xy 5.054263 4.944511)
			(xy 5.039102 4.916603) (xy 5.026431 4.879874) (xy 5.015355 4.831489) (xy 5.004981 4.768613) (xy 5.000688 4.737733)
			(xy 4.993245 4.666529) (xy 4.991267 4.600116) (xy 4.995063 4.532942) (xy 5.004938 4.459455) (xy 5.020645 4.376758)
			(xy 5.029367 4.334614) (xy 5.036492 4.299374) (xy 5.041266 4.274821) (xy 5.042939 4.264817) (xy 5.034319 4.262161)
			(xy 5.010832 4.259052) (xy 4.976099 4.255884) (xy 4.935115 4.253126) (xy 4.888395 4.250145) (xy 4.844959 4.246816)
			(xy 4.810194 4.243584) (xy 4.791898 4.241313) (xy 4.774096 4.239289) (xy 4.761239 4.241835) (xy 4.75121 4.251815)
			(xy 4.741896 4.272092) (xy 4.731182 4.30553) (xy 4.722625 4.335118) (xy 4.702542 4.410736) (xy 4.68765 4.480709)
			(xy 4.677036 4.55108) (xy 4.669785 4.627893) (xy 4.665038 4.71578) (xy 4.662548 4.775483) (xy 4.660241 4.819784)
			(xy 4.657623 4.851773) (xy 4.6542 4.874544) (xy 4.649476 4.891186) (xy 4.642959 4.904792) (xy 4.634153 4.918454)
			(xy 4.632161 4.921338) (xy 4.593664 4.961944) (xy 4.545678 4.986772) (xy 4.488841 4.995536) (xy 4.468916 4.994903)
			(xy 4.414174 4.982837) (xy 4.369156 4.955105) (xy 4.333472 4.911445) (xy 4.326516 4.89907) (xy 4.318995 4.882892)
			(xy 4.313774 4.865497) (xy 4.310482 4.8433) (xy 4.308748 4.812717) (xy 4.308201 4.770163) (xy 4.308379 4.723752)
			(xy 4.313142 4.600036) (xy 4.326258 4.482999) (xy 4.348829 4.364852) (xy 4.372016 4.273027) (xy 4.383317 4.229787)
			(xy 4.391782 4.193209) (xy 4.39667 4.16684) (xy 4.397241 4.154224) (xy 4.396949 4.15377) (xy 4.386293 4.148396)
			(xy 4.362017 4.137908) (xy 4.327773 4.123841) (xy 4.288852 4.10837) (xy 4.126116 4.037854) (xy 3.957981 3.952068)
			(xy 3.786797 3.852547) (xy 3.614913 3.740825) (xy 3.444682 3.618437) (xy 3.278453 3.486919) (xy 3.118577 3.347806)
			(xy 3.104666 3.335044) (xy 3.051619 3.284878) (xy 2.993 3.227179) (xy 2.930235 3.163532) (xy 2.864748 3.095519)
			(xy 2.797965 3.024723) (xy 2.741466 2.963698) (xy 3.232853 2.963698) (xy 3.237644 2.971286) (xy 3.254431 2.988973)
			(xy 3.281125 3.014857) (xy 3.315635 3.047035) (xy 3.35587 3.083605) (xy 3.39974 3.122665) (xy 3.445154 3.162312)
			(xy 3.490022 3.200644) (xy 3.528136 3.232388) (xy 3.572804 3.268433) (xy 3.606253 3.293757) (xy 3.631034 3.310005)
			(xy 3.6497 3.318817) (xy 3.664802 3.321839) (xy 3.667168 3.321894) (xy 3.68707 3.320314) (xy 3.720899 3.315981)
			(xy 3.764385 3.309503) (xy 3.813256 3.30149) (xy 3.827892 3.298955) (xy 3.986122 3.264463) (xy 4.148033 3.216539)
			(xy 4.308493 3.157116) (xy 4.462369 3.088127) (xy 4.604528 3.011506) (xy 4.626813 2.998074) (xy 4.705246 2.950001)
			(xy 4.660605 2.955428) (xy 4.402835 2.982439) (xy 4.156163 2.999519) (xy 3.921528 3.006653) (xy 3.699867 3.003829)
			(xy 3.492118 2.991034) (xy 3.34164 2.974299) (xy 3.299761 2.968974) (xy 3.265136 2.965208) (xy 3.24155 2.963368)
			(xy 3.232853 2.963698) (xy 2.741466 2.963698) (xy 2.73131 2.952728) (xy 2.66621 2.881117) (xy 2.604088 2.811473)
			(xy 2.546371 2.745379) (xy 2.494483 2.684419) (xy 2.449849 2.630175) (xy 2.413896 2.584231) (xy 2.388046 2.54817)
			(xy 2.373727 2.523575) (xy 2.373298 2.522575) (xy 2.360777 2.471196) (xy 2.36441 2.420979) (xy 2.381968 2.374592)
			(xy 2.411228 2.334704) (xy 2.449963 2.303983) (xy 2.495947 2.285098) (xy 2.546954 2.280717) (xy 2.571945 2.284408)
			(xy 2.599401 2.292099) (xy 2.623141 2.303257) (xy 2.646566 2.320536) (xy 2.673073 2.346589) (xy 2.706062 2.384069)
			(xy 2.718362 2.398694) (xy 2.745902 2.431158) (xy 2.770137 2.458819) (xy 2.787993 2.478219) (xy 2.795324 2.485249)
			(xy 2.813701 2.4944) (xy 2.847299 2.5063) (xy 2.893162 2.520207) (xy 2.948338 2.535382) (xy 3.009871 2.551084)
			(xy 3.074808 2.566572) (xy 3.140195 2.581105) (xy 3.203077 2.593942) (xy 3.2605 2.604343) (xy 3.286897 2.608496)
			(xy 3.340176 2.615876) (xy 3.377835 2.619884) (xy 3.402427 2.620657) (xy 3.416502 2.618332) (xy 3.420798 2.615674)
			(xy 3.429899 2.603137) (xy 3.446376 2.577012) (xy 3.468708 2.539937) (xy 3.495372 2.494549) (xy 3.524848 2.443488)
			(xy 3.555613 2.389391) (xy 3.586146 2.334898) (xy 3.614926 2.282646) (xy 3.64043 2.235273) (xy 3.643211 2.230018)
			(xy 3.7354 2.045705) (xy 3.824814 1.848117) (xy 3.909397 1.642472) (xy 3.987092 1.433987) (xy 4.055844 1.227879)
			(xy 4.107535 1.051811) (xy 4.144988 0.914587) (xy 4.084152 0.732576) (xy 4.043129 0.613668) (xy 4.00312 0.506387)
			(xy 3.961471 0.404221) (xy 3.915527 0.300658) (xy 3.863349 0.190649) (xy 3.734997 -0.05215) (xy 3.590794 -0.286066)
			(xy 3.431534 -0.510314) (xy 3.258009 -0.724105) (xy 3.071012 -0.926651) (xy 2.871335 -1.117166) (xy 2.65977 -1.294862)
			(xy 2.437111 -1.458951) (xy 2.204149 -1.608646) (xy 1.961677 -1.743159) (xy 1.872598 -1.787529) (xy 1.613304 -1.902842)
			(xy 1.349139 -2.000372) (xy 1.079825 -2.080192) (xy 0.805079 -2.142377) (xy 0.524622 -2.187001) (xy 0.261348 -2.212606)
			(xy 0.179081 -2.216656) (xy 0.083789 -2.218703) (xy -0.019757 -2.218844) (xy -0.126789 -2.217177)
			(xy -0.232537 -2.2138) (xy -0.332231 -2.208809) (xy -0.421103 -2.202303) (xy -0.467286 -2.197708)
			(xy -0.750337 -2.156803) (xy -1.027763 -2.098625) (xy -1.298921 -2.023507) (xy -1.563172 -1.931786)
			(xy -1.819875 -1.823797) (xy -2.068389 -1.699875) (xy -2.308072 -1.560355) (xy -2.538285 -1.405573)
			(xy -2.758386 -1.235864) (xy -2.967735 -1.051563) (xy -3.16569 -0.853006) (xy -3.279412 -0.726375)
			(xy -3.45459 -0.510915) (xy -3.61276 -0.289739) (xy -3.75482 -0.061285) (xy -3.881662 0.176011) (xy -3.994183 0.423713)
			(xy -4.093278 0.683384) (xy -4.103738 0.713745) (xy -4.183628 0.976467) (xy -4.246525 1.245286) (xy -4.292268 1.518613)
			(xy -4.3207 1.79486) (xy -4.331662 2.07244) (xy -4.68575 2.07244) (xy -4.684954 1.931358) (xy -4.664972 1.638591)
			(xy -4.626648 1.343951) (xy -4.621008 1.309587) (xy -4.61222 1.256482) (xy -4.606468 1.218656) (xy -4.603625 1.19315)
			(xy -4.603563 1.177008) (xy -4.606156 1.167275) (xy -4.611275 1.160992) (xy -4.614502 1.158403) (xy -4.638333 1.143454)
			(xy -4.675771 1.123609) (xy -4.723115 1.10053) (xy -4.776668 1.075879) (xy -4.832729 1.051317) (xy -4.887599 1.028507)
			(xy -4.93758 1.00911) (xy -4.978215 0.995024) (xy -5.090392 0.963105) (xy -5.196108 0.940731) (xy -5.299417 0.927691)
			(xy -5.404375 0.923775) (xy -5.515036 0.928772) (xy -5.635456 0.942471) (xy -5.723097 0.956324) (xy -5.789567 0.967982)
			(xy -5.841266 0.977702) (xy -5.881706 0.986427) (xy -5.914395 0.995102) (xy -5.942845 1.004672) (xy -5.970564 1.016082)
			(xy -6.001064 1.030275) (xy -6.005042 1.032193) (xy -6.12101 1.097791) (xy -6.223337 1.175814) (xy -6.311806 1.266022)
			(xy -6.386197 1.368172) (xy -6.446292 1.482023) (xy -6.472841 1.548618) (xy -6.495524 1.618795) (xy -6.512734 1.68872)
			(xy -6.525227 1.76296) (xy -6.533759 1.846081) (xy -6.539086 1.942647) (xy -6.539375 1.950476) (xy -6.541542 2.006977)
			(xy -6.543745 2.048382) (xy -6.546533 2.078092) (xy -6.550453 2.09951) (xy -6.556054 2.116039) (xy -6.563884 2.13108)
			(xy -6.570095 2.141146) (xy -6.604995 2.17993) (xy -6.650837 2.207282) (xy -6.702065 2.220162) (xy -6.715507 2.220765)
			(xy -6.757325 2.216983) (xy -6.792444 2.203616) (xy -6.828443 2.17763) (xy -6.832888 2.173777) (xy -6.855534 2.151528)
			(xy -6.871866 2.128329) (xy -6.882861 2.100675) (xy -6.8895 2.065062) (xy -6.892762 2.017985) (xy -6.893625 1.956393)
			(xy -6.886677 1.792477) (xy -6.865464 1.639085) (xy -6.829434 1.494314) (xy -6.778035 1.356258) (xy -6.710715 1.223014)
			(xy -6.654783 1.133022) (xy -6.567539 1.01844) (xy -6.467091 0.915941) (xy -6.352897 0.825091) (xy -6.22442 0.745456)
			(xy -6.093911 0.682056) (xy -6.063145 0.669516) (xy -6.032037 0.658672) (xy -5.997386 0.648738) (xy -5.955991 0.638931)
			(xy -5.904651 0.628465) (xy -5.840165 0.616555) (xy -5.792811 0.608212) (xy -5.720657 0.595831) (xy -5.662536 0.586466)
			(xy -5.614296 0.579703) (xy -5.571785 0.575126) (xy -5.530849 0.572323) (xy -5.487336 0.570879) (xy -5.437093 0.57038)
			(xy -5.413115 0.570352) (xy -5.240602 0.578421) (xy -5.072092 0.602825) (xy -4.905502 0.644049) (xy -4.738746 0.702576)
			(xy -4.619815 0.754567) (xy -4.579428 0.773525) (xy -4.545595 0.789233) (xy -4.52155 0.800202) (xy -4.510525 0.804945)
			(xy -4.510199 0.805027) (xy -4.506624 0.796723) (xy -4.498639 0.77394) (xy -4.487322 0.739876) (xy -4.47375 0.697727)
			(xy -4.469388 0.683946) (xy -4.452562 0.631762) (xy -4.434828 0.578748) (xy -4.418277 0.531043) (xy -4.405001 0.494788)
			(xy -4.404804 0.494276) (xy -4.378393 0.425689) (xy -4.416902 0.392341) (xy -4.450925 0.365359) (xy -4.497369 0.332016)
			(xy -4.552392 0.29479) (xy -4.612154 0.256155) (xy -4.672812 0.218586) (xy -4.730526 0.184559) (xy -4.781455 0.156549)
			(xy -4.788233 0.153039) (xy -4.930617 0.090129) (xy -5.082673 0.041878) (xy -5.242847 0.008234) (xy -5.409586 -0.010857)
			(xy -5.581335 -0.015447) (xy -5.756542 -0.00559) (xy -5.933653 0.018662) (xy -6.111114 0.057255)
			(xy -6.287371 0.110136) (xy -6.460871 0.177252) (xy -6.53939 0.21292) (xy -6.687509 0.292219) (xy -6.820163 0.381525)
			(xy -6.937244 0.480671) (xy -7.038643 0.58949) (xy -7.124252 0.707814) (xy -7.193962 0.835478) (xy -7.247664 0.972313)
			(xy -7.285251 1.118153) (xy -7.306614 1.272831) (xy -7.311948 1.401858) (xy -7.855418 1.401858) (xy -7.933915 1.146982)
			(xy -8.017797 0.81295) (xy -8.083498 0.476671) (xy -8.131001 0.138613) (xy -8.160285 -0.200759) (xy -8.17133 -0.540979)
			(xy -8.170343 -0.587577) (xy -7.812733 -0.587577) (xy -7.809331 -0.356888) (xy -7.799185 -0.139287)
			(xy -7.781829 0.069545) (xy -7.7568 0.273929) (xy -7.723635 0.478182) (xy -7.681869 0.686626) (xy -7.670327 0.738586)
			(xy -7.65804 0.792973) (xy -7.64683 0.842707) (xy -7.63748 0.884317) (xy -7.630767 0.914331) (xy -7.627703 0.92821)
			(xy -7.623473 0.942685) (xy -7.618488 0.946568) (xy -7.611828 0.938303) (xy -7.602574 0.916338) (xy -7.589807 0.879116)
			(xy -7.579295 0.846339) (xy -7.522817 0.698217) (xy -7.449499 0.556816) (xy -7.360027 0.422915) (xy -7.255086 0.297289)
			(xy -7.135362 0.180717) (xy -7.00154 0.073976) (xy -6.854305 -0.022158) (xy -6.773334 -0.067347)
			(xy -6.577966 -0.160099) (xy -6.375087 -0.236144) (xy -6.165637 -0.295239) (xy -5.95056 -0.337137)
			(xy -5.730796 -0.361597) (xy -5.616685 -0.367293) (xy -5.500064 -0.369029) (xy -5.395943 -0.36651)
			(xy -5.29868 -0.359136) (xy -5.202635 -0.346307) (xy -5.102165 -0.327421) (xy -4.991628 -0.301879)
			(xy -4.983831 -0.299942) (xy -4.860194 -0.262606) (xy -4.730115 -0.211197) (xy -4.596924 -0.147358)
			(xy -4.463952 -0.072731) (xy -4.334529 0.011042) (xy -4.292137 0.041163) (xy -4.234436 0.083149)
			(xy -4.177705 -0.025511) (xy -4.127633 -0.119709) (xy -4.077278 -0.211243) (xy -4.02849 -0.296891)
			(xy -3.983117 -0.373428) (xy -3.943009 -0.437631) (xy -3.929595 -0.458033) (xy -3.897872 -0.504183)
			(xy -3.857885 -0.560472) (xy -3.812478 -0.623063) (xy -3.764494 -0.688118) (xy -3.716778 -0.751799)
			(xy -3.672173 -0.810269) (xy -3.633524 -0.85969) (xy -3.61415 -0.883679) (xy -3.589249 -0.913076)
			(xy -3.556257 -0.950752) (xy -3.517474 -0.994203) (xy -3.475202 -1.040926) (xy -3.431744 -1.088417)
			(xy -3.389402 -1.134171) (xy -3.350478 -1.175684) (xy -3.317274 -1.210453) (xy -3.292091 -1.235973)
			(xy -3.278801 -1.248448) (xy -3.2614 -1.263874) (xy -3.234508 -1.288422) (xy -3.202059 -1.318476)
			(xy -3.173855 -1.34489) (xy -3.068287 -1.439525) (xy -2.949304 -1.537822) (xy -2.82081 -1.636933)
			(xy -2.686712 -1.734005) (xy -2.550916 -1.826188) (xy -2.417328 -1.910631) (xy -2.32255 -1.966256)
			(xy -2.062031 -2.103032) (xy -1.793942 -2.222952) (xy -1.518129 -2.326078) (xy -1.234437 -2.412474)
			(xy -1.175155 -2.428159) (xy -0.985465 -2.477085) (xy -0.983477 -2.532911) (xy -0.631361 -2.532911)
			(xy -0.600216 -2.538483) (xy -0.558687 -2.544587) (xy -0.502715 -2.550878) (xy -0.436354 -2.557012)
			(xy -0.363659 -2.562645) (xy -0.288685 -2.567432) (xy -0.218206 -2.570917) (xy -0.070912 -2.577013)
			(xy -0.067457 -2.604772) (xy -0.06042 -2.645315) (xy -0.047962 -2.700265) (xy -0.030983 -2.766638)
			(xy -0.010387 -2.841448) (xy 0.012925 -2.921711) (xy 0.03805 -3.004443) (xy 0.064087 -3.086657) (xy 0.090133 -3.16537)
			(xy 0.115286 -3.237596) (xy 0.138644 -3.300351) (xy 0.154865 -3.340401) (xy 0.235775 -3.509016) (xy 0.330465 -3.6681)
			(xy 0.437855 -3.81648) (xy 0.556865 -3.952986) (xy 0.686416 -4.076449) (xy 0.825427 -4.185697) (xy 0.972817 -4.279559)
			(xy 1.067197 -4.329157) (xy 1.125978 -4.356672) (xy 1.178565 -4.378704) (xy 1.230568 -4.397184) (xy 1.287599 -4.41404)
			(xy 1.35527 -4.4312) (xy 1.383351 -4.437832) (xy 1.425644 -4.447295) (xy 1.461867 -4.454145) (xy 1.496554 -4.458796)
			(xy 1.534235 -4.461668) (xy 1.579444 -4.463175) (xy 1.636713 -4.463735) (xy 1.665573 -4.463789) (xy 1.768617 -4.461702)
			(xy 1.86256 -4.454723) (xy 1.951897 -4.441956) (xy 2.041119 -4.422501) (xy 2.13472 -4.395463) (xy 2.237192 -4.359943)
			(xy 2.29479 -4.338089) (xy 2.359181 -4.312711) (xy 2.408599 -4.292137) (xy 2.445518 -4.275) (xy 2.472414 -4.25993)
			(xy 2.491761 -4.245559) (xy 2.506033 -4.230521) (xy 2.516413 -4.215562) (xy 2.537583 -4.165158) (xy 2.542361 -4.112642)
			(xy 2.531948 -4.06157) (xy 2.507542 -4.015498) (xy 2.470344 -3.977983) (xy 2.428529 -3.955081) (xy 2.401618 -3.946909)
			(xy 2.374166 -3.943931) (xy 2.34297 -3.946703) (xy 2.304823 -3.955783) (xy 2.256521 -3.971725) (xy 2.194857 -3.995089)
			(xy 2.192191 -3.996137) (xy 2.105208 -4.029204) (xy 2.029426 -4.055066) (xy 1.959634 -4.075064) (xy 1.890619 -4.090542)
			(xy 1.817169 -4.102839) (xy 1.739464 -4.112695) (xy 1.668355 -4.115347) (xy 1.586182 -4.109498) (xy 1.497786 -4.096102)
			(xy 1.408013 -4.076114) (xy 1.321705 -4.050486) (xy 1.243705 -4.020175) (xy 1.224585 -4.011257) (xy 1.086102 -3.933692)
			(xy 0.956376 -3.840363) (xy 0.836268 -3.732242) (xy 0.726638 -3.610303) (xy 0.628348 -3.475518) (xy 0.542258 -3.32886)
			(xy 0.469229 -3.171302) (xy 0.459179 -3.146084) (xy 0.441845 -3.099355) (xy 0.42277 -3.044016) (xy 0.402679 -2.982582)
			(xy 0.382298 -2.917567) (xy 0.362351 -2.851488) (xy 0.343564 -2.786858) (xy 0.326661 -2.726194) (xy 0.31237 -2.67201)
			(xy 0.301413 -2.626821) (xy 0.294517 -2.593143) (xy 0.292407 -2.573491) (xy 0.293093 -2.570073) (xy 0.30395 -2.566046)
			(xy 0.327018 -2.563541) (xy 0.34256 -2.563133) (xy 0.388638 -2.561158) (xy 0.449725 -2.555556) (xy 0.522787 -2.546806)
			(xy 0.604788 -2.53539) (xy 0.692694 -2.52179) (xy 0.783469 -2.506486) (xy 0.874078 -2.489959) (xy 0.961488 -2.472691)
			(xy 1.042661 -2.455163) (xy 1.082623 -2.44581) (xy 1.367817 -2.36751) (xy 1.645482 -2.272363) (xy 1.915184 -2.160614)
			(xy 2.176488 -2.032504) (xy 2.428961 -1.888277) (xy 2.67217 -1.728175) (xy 2.90568 -1.552442) (xy 3.129058 -1.361321)
			(xy 3.285445 -1.212256) (xy 3.454266 -1.036344) (xy 3.607934 -0.859801) (xy 3.74951 -0.678715) (xy 3.882054 -0.489176)
			(xy 4.006124 -0.291475) (xy 4.038853 -0.235207) (xy 4.074538 -0.171494) (xy 4.111376 -0.103774) (xy 4.147563 -0.035486)
			(xy 4.181298 0.029931) (xy 4.210777 0.089038) (xy 4.234198 0.138397) (xy 4.247532 0.168975) (xy 4.259641 0.195448)
			(xy 4.269897 0.212047) (xy 4.275663 0.215241) (xy 4.278777 0.204034) (xy 4.283138 0.177735) (xy 4.288279 0.139677)
			(xy 4.293732 0.093195) (xy 4.296744 0.064772) (xy 4.313044 -0.127263) (xy 4.323741 -0.325945) (xy 4.32879 -0.526556)
			(xy 4.328149 -0.724378) (xy 4.321773 -0.914691) (xy 4.30962 -1.092777) (xy 4.307592 -1.115009) (xy 4.266786 -1.453254)
			(xy 4.208537 -1.785466) (xy 4.13272 -2.112142) (xy 4.039209 -2.433778) (xy 3.927879 -2.750871) (xy 3.834273 -2.982127)
			(xy 3.778662 -3.106278) (xy 3.714503 -3.239503) (xy 3.644096 -3.377546) (xy 3.569737 -3.516151) (xy 3.493724 -3.651062)
			(xy 3.418356 -3.778022) (xy 3.345929 -3.892776) (xy 3.32796 -3.919944) (xy 3.300849 -3.95986) (xy 3.280959 -3.986878)
			(xy 3.265617 -4.003738) (xy 3.252149 -4.013179) (xy 3.237881 -4.017942) (xy 3.231125 -4.019188) (xy 3.214916 -4.022624)
			(xy 3.198923 -4.028474) (xy 3.181125 -4.038255) (xy 3.159501 -4.053483) (xy 3.13203 -4.075676) (xy 3.09669 -4.106349)
			(xy 3.051462 -4.147019) (xy 3.008417 -4.186292) (xy 2.837336 -4.33372) (xy 2.666043 -4.462884) (xy 2.494128 -4.574027)
			(xy 2.321178 -4.66739) (xy 2.146781 -4.743214) (xy 1.970526 -4.801741) (xy 1.949853 -4.807445) (xy 1.759436 -4.850647)
			(xy 1.573831 -4.876001) (xy 1.392796 -4.883462) (xy 1.216088 -4.872984) (xy 1.043467 -4.844522) (xy 0.874691 -4.798032)
			(xy 0.709516 -4.733467) (xy 0.547703 -4.650783) (xy 0.389009 -4.549934) (xy 0.325655 -4.503977) (xy 0.268884 -4.458275)
			(xy 0.204639 -4.401485) (xy 0.136621 -4.337265) (xy 0.068534 -4.269277) (xy 0.004079 -4.20118) (xy -0.053039 -4.136635)
			(xy -0.083814 -4.099162) (xy -0.194429 -3.948996) (xy -0.292926 -3.79416) (xy -0.377614 -3.63761)
			(xy -0.446799 -3.482303) (xy -0.46626 -3.430943) (xy -0.495692 -3.346841) (xy -0.520793 -3.268404)
			(xy -0.542136 -3.19266) (xy -0.560298 -3.11664) (xy -0.575853 -3.037372) (xy -0.589374 -2.951887)
			(xy -0.601437 -2.857215) (xy -0.612617 -2.750385) (xy -0.623487 -2.628426) (xy -0.624976 -2.610481)
			(xy -0.631361 -2.532911) (xy -0.983477 -2.532911) (xy -0.983191 -2.540928) (xy -0.980209 -2.598983)
			(xy -0.97514 -2.669952) (xy -0.968473 -2.748794) (xy -0.960691 -2.830468) (xy -0.952283 -2.909935)
			(xy -0.943733 -2.982155) (xy -0.935528 -3.042086) (xy -0.933749 -3.053552) (xy -0.891017 -3.262823)
			(xy -0.830281 -3.46936) (xy -0.75195 -3.672255) (xy -0.656437 -3.870599) (xy -0.544153 -4.063483)
			(xy -0.415508 -4.249997) (xy -0.3598 -4.322315) (xy -0.224398 -4.480014) (xy -0.079127 -4.625064)
			(xy 0.074758 -4.756619) (xy 0.236003 -4.873833) (xy 0.403352 -4.975858) (xy 0.575553 -5.061848) (xy 0.751349 -5.130957)
			(xy 0.906089 -5.176653) (xy 0.975258 -5.193371) (xy 1.035765 -5.206421) (xy 1.091648 -5.216244) (xy 1.146942 -5.22328)
			(xy 1.205684 -5.227972) (xy 1.271912 -5.230762) (xy 1.349661 -5.232089) (xy 1.415737 -5.232389) (xy 1.492035 -5.232305)
			(xy 1.553262 -5.231707) (xy 1.602853 -5.230388) (xy 1.644239 -5.228144) (xy 1.680856 -5.224766) (xy 1.716135 -5.22005)
			(xy 1.753511 -5.213788) (xy 1.767359 -5.211261) (xy 1.955036 -5.171191) (xy 2.132557 -5.122569) (xy 2.296688 -5.066303)
			(xy 2.32949 -5.053465) (xy 2.355725 -5.043466) (xy 2.373364 -5.037722) (xy 2.378069 -5.037209) (xy 2.371584 -5.044068)
			(xy 2.354165 -5.060324) (xy 2.328862 -5.083255) (xy 2.298726 -5.110138) (xy 2.266807 -5.138252) (xy 2.236158 -5.164873)
			(xy 2.210654 -5.186589) (xy 2.193346 -5.201166) (xy 2.166786 -5.223604) (xy 2.135836 -5.249795) (xy 2.125706 -5.258376)
			(xy 2.083418 -5.292967) (xy 2.028912 -5.335657) (xy 1.965291 -5.384167) (xy 1.895658 -5.436215) (xy 1.823115 -5.48952)
			(xy 1.750766 -5.5418) (xy 1.681713 -5.590774) (xy 1.619059 -5.634162) (xy 1.569244 -5.667504) (xy 1.291844 -5.837888)
			(xy 1.005185 -5.992773) (xy 0.710275 -6.131916) (xy 0.408122 -6.255076) (xy 0.099731 -6.362011) (xy -0.213888 -6.452478)
			(xy -0.53173 -6.526236) (xy -0.852786 -6.583042) (xy -1.176049 -6.622655) (xy -1.500513 -6.644833)
			(xy -1.825169 -6.649333) (xy -2.149011 -6.635914) (xy -2.376409 -6.615538) (xy -2.66295 -6.578197)
			(xy -2.938277 -6.530035) (xy -3.20686 -6.470053) (xy -3.473168 -6.397252) (xy -3.741674 -6.310633)
			(xy -3.742915 -6.310203) (xy -4.052047 -6.193384) (xy -4.353393 -6.060013) (xy -4.64636 -5.910591)
			(xy -4.930355 -5.745618) (xy -5.204784 -5.565594) (xy -5.469054 -5.37102) (xy -5.722572 -5.162394)
			(xy -5.964744 -4.940219) (xy -6.194977 -4.704992) (xy -6.412678 -4.457216) (xy -6.617252 -4.19739)
			(xy -6.808108 -3.926013) (xy -6.984651 -3.643587) (xy -7.057497 -3.516211) (xy -7.195162 -3.252339)
			(xy -7.321071 -2.977682) (xy -7.433927 -2.69564) (xy -7.532432 -2.409611) (xy -7.615292 -2.122993)
			(xy -7.660925 -1.934496) (xy -7.703669 -1.731861) (xy -7.73857 -1.54137) (xy -7.766122 -1.358644)
			(xy -7.786818 -1.179305) (xy -7.801151 -0.998973) (xy -7.809615 -0.813269) (xy -7.812703 -0.617817)
			(xy -7.812733 -0.587577) (xy -8.170343 -0.587577) (xy -8.164117 -0.88158) (xy -8.138625 -1.222096)
			(xy -8.094834 -1.562061) (xy -8.032726 -1.901009) (xy -7.95228 -2.238473) (xy -7.892638 -2.448568)
			(xy -7.84014 -2.612427) (xy -7.779652 -2.78339) (xy -7.712888 -2.957324) (xy -7.641563 -3.1301) (xy -7.567393 -3.297585)
			(xy -7.492091 -3.455647) (xy -7.417372 -3.600156) (xy -7.405911 -3.621154) (xy -7.229207 -3.925011)
			(xy -7.041305 -4.21437) (xy -6.841722 -4.489824) (xy -6.629973 -4.751966) (xy -6.405574 -5.001388)
			(xy -6.168042 -5.238682) (xy -5.916891 -5.464441) (xy -5.861895 -5.510841) (xy -5.591266 -5.724723)
			(xy -5.31097 -5.922969) (xy -5.021598 -6.105347) (xy -4.723741 -6.271623) (xy -4.417989 -6.421566)
			(xy -4.104934 -6.554943) (xy -3.785167 -6.67152) (xy -3.459278 -6.771067) (xy -3.127859 -6.853349)
			(xy -2.7915 -6.918134) (xy -2.450793 -6.96519) (xy -2.106328 -6.994284) (xy -2.091221 -6.99514) (xy -1.819965 -7.003823)
		)
		(stroke
			(width 0)
			(type solid)
		)
		(fill solid)
		(layer "F.SilkS")
		(uuid "9467130f-441c-43a3-becf-6605bf49a71c")
	)
)