(footprint "LOGO" (version 20221018) (generator "bitmap2component") (generator_version "8.0")
  (layer "F.Cu")
  (attr board_only exclude_from_pos_files exclude_from_bom)
  (fp_text reference "G***" (at 0 0) (layer "F.SilkS")
      (effects (font (size 1.5 1.5) (thickness 0.3)))
    (uuid 1588381b-556c-4f2c-a917-1a193b623c28)
  )
  (fp_text value "LOGO" (at 0.75 0) (layer "F.SilkS") hide
      (effects (font (size 1.5 1.5) (thickness 0.3)))
    (uuid 92a1617e-6f29-4895-b474-6265ccd905a8)
  )
  (fp_poly
    (pts
      (xy -0.691996 -3.144079)
      (xy -0.565751 -3.137403)
      (xy -0.441329 -3.125637)
      (xy -0.34285 -3.112331)
      (xy -0.190605 -3.084591)
      (xy -0.040409 -3.048876)
      (xy 0.10741 -3.0053)
      (xy 0.252525 -2.953974)
      (xy 0.394609 -2.895013)
      (xy 0.533334 -2.828529)
      (xy 0.628992 -2.777167)
      (xy 0.684285 -2.745229)
      (xy 0.74175 -2.71042)
      (xy 0.799134 -2.674172)
      (xy 0.854187 -2.637918)
      (xy 0.904657 -2.603089)
      (xy 0.920501 -2.591734)
      (xy 0.930131 -2.584543)
      (xy 0.944238 -2.57373)
      (xy 0.961753 -2.56014)
      (xy 0.981607 -2.544618)
      (xy 1.002732 -2.528008)
      (xy 1.02406 -2.511157)
      (xy 1.044522 -2.494907)
      (xy 1.063051 -2.480105)
      (xy 1.078577 -2.467595)
      (xy 1.090032 -2.458222)
      (xy 1.096347 -2.45283)
      (xy 1.097121 -2.45207)
      (xy 1.100701 -2.44867)
      (xy 1.109488 -2.440571)
      (xy 1.12252 -2.42865)
      (xy 1.138841 -2.413782)
      (xy 1.157491 -2.396845)
      (xy 1.161535 -2.393179)
      (xy 1.270598 -2.288759)
      (xy 1.374134 -2.178321)
      (xy 1.471867 -2.062289)
      (xy 1.563525 -1.941086)
      (xy 1.648833 -1.815136)
      (xy 1.727516 -1.68486)
      (xy 1.799301 -1.550682)
      (xy 1.863914 -1.413026)
      (xy 1.921081 -1.272315)
      (xy 1.960782 -1.159316)
      (xy 2.004748 -1.011881)
      (xy 2.040661 -0.862954)
      (xy 2.068547 -0.712866)
      (xy 2.088429 -0.56195)
      (xy 2.100331 -0.410538)
      (xy 2.104278 -0.258962)
      (xy 2.100293 -0.107554)
      (xy 2.088401 0.043354)
      (xy 2.068626 0.193429)
      (xy 2.040991 0.342339)
      (xy 2.005521 0.489752)
      (xy 1.96224 0.635336)
      (xy 1.911171 0.778758)
      (xy 1.85234 0.919687)
      (xy 1.802713 1.024394)
      (xy 1.789223 1.051138)
      (xy 1.774962 1.078923)
      (xy 1.761082 1.105535)
      (xy 1.748738 1.128763)
      (xy 1.740372 1.144084)
      (xy 1.731021 1.161395)
      (xy 1.723671 1.176018)
      (xy 1.719021 1.186489)
      (xy 1.717769 1.191338)
      (xy 1.717833 1.191437)
      (xy 1.722705 1.192084)
      (xy 1.734709 1.192226)
      (xy 1.752686 1.191918)
      (xy 1.775475 1.191218)
      (xy 1.801917 1.19018)
      (xy 1.830851 1.188862)
      (xy 1.861117 1.18732)
      (xy 1.891556 1.185609)
      (xy 1.921007 1.183786)
      (xy 1.948311 1.181907)
      (xy 1.972306 1.180029)
      (xy 1.991834 1.178208)
      (xy 1.992687 1.178118)
      (xy 2.037156 1.172984)
      (xy 2.087785 1.16644)
      (xy 2.142592 1.158767)
      (xy 2.199601 1.150245)
      (xy 2.256831 1.141154)
      (xy 2.277356 1.137755)
      (xy 2.30446 1.133506)
      (xy 2.331387 1.129803)
      (xy 2.356028 1.126901)
      (xy 2.376271 1.125052)
      (xy 2.387755 1.124503)
      (xy 2.405559 1.124646)
      (xy 2.41774 1.125914)
      (xy 2.426964 1.128855)
      (xy 2.435898 1.134013)
      (xy 2.436656 1.134522)
      (xy 2.449015 1.145897)
      (xy 2.460086 1.161274)
      (xy 2.462359 1.165467)
      (xy 2.469939 1.184371)
      (xy 2.472615 1.202206)
      (xy 2.469997 1.219851)
      (xy 2.461697 1.238182)
      (xy 2.447326 1.258076)
      (xy 2.426496 1.280412)
      (xy 2.400934 1.30419)
      (xy 2.325903 1.367669)
      (xy 2.251747 1.423716)
      (xy 2.177357 1.472967)
      (xy 2.101623 1.51606)
      (xy 2.023436 1.553634)
      (xy 1.941685 1.586326)
      (xy 1.866416 1.611411)
      (xy 1.827416 1.623319)
      (xy 1.887195 1.652933)
      (xy 1.964134 1.687923)
      (xy 2.03867 1.715313)
      (xy 2.111505 1.735211)
      (xy 2.183342 1.747728)
      (xy 2.254886 1.752971)
      (xy 2.326839 1.751049)
      (xy 2.399904 1.742073)
      (xy 2.428445 1.736765)
      (xy 2.497695 1.719049)
      (xy 2.563461 1.694888)
      (xy 2.625168 1.664685)
      (xy 2.682242 1.62884)
      (xy 2.734107 1.587757)
      (xy 2.780187 1.541837)
      (xy 2.819908 1.491483)
      (xy 2.850095 1.442048)
      (xy 2.875074 1.387977)
      (xy 2.895766 1.328386)
      (xy 2.911792 1.265089)
      (xy 2.922776 1.1999)
      (xy 2.92834 1.134634)
      (xy 2.928105 1.071104)
      (xy 2.927944 1.068179)
      (xy 2.919742 0.992295)
      (xy 2.903821 0.914378)
      (xy 2.880354 0.835009)
      (xy 2.849512 0.754769)
      (xy 2.812081 0.675431)
      (xy 2.786437 0.625682)
      (xy 2.759424 0.618748)
      (xy 2.708919 0.602706)
      (xy 2.66189 0.581029)
      (xy 2.621556 0.556573)
      (xy 2.596925 0.538813)
      (xy 2.570648 0.517719)
      (xy 2.543568 0.494167)
      (xy 2.51653 0.469036)
      (xy 2.490376 0.443202)
      (xy 2.46595 0.417544)
      (xy 2.444098 0.392937)
      (xy 2.425661 0.370261)
      (xy 2.411484 0.350391)
      (xy 2.402412 0.334206)
      (xy 2.399594 0.325783)
      (xy 2.397322 0.297394)
      (xy 2.40088 0.270457)
      (xy 2.409734 0.246556)
      (xy 2.423355 0.227277)
      (xy 2.436034 0.217014)
      (xy 2.453555 0.208857)
      (xy 2.478808 0.200901)
      (xy 2.511212 0.193253)
      (xy 2.550189 0.18602)
      (xy 2.595158 0.179308)
      (xy 2.645541 0.173225)
      (xy 2.700757 0.167877)
      (xy 2.704649 0.167544)
      (xy 2.789922 0.160324)
      (xy 2.819347 0.137632)
      (xy 2.885195 0.085647)
      (xy 2.955194 0.028096)
      (xy 3.028276 -0.034116)
      (xy 3.103371 -0.100088)
      (xy 3.14166 -0.134491)
      (xy 3.17191 -0.161723)
      (xy 3.197005 -0.183912)
      (xy 3.217812 -0.201742)
      (xy 3.235203 -0.215896)
      (xy 3.250045 -0.227055)
      (xy 3.263209 -0.235902)
      (xy 3.275564 -0.243121)
      (xy 3.287979 -0.249394)
      (xy 3.288021 -0.249413)
      (xy 3.316297 -0.259406)
      (xy 3.342224 -0.26164)
      (xy 3.365513 -0.256159)
      (xy 3.38588 -0.24301)
      (xy 3.395925 -0.232285)
      (xy 3.401258 -0.222579)
      (xy 3.40782 -0.205717)
      (xy 3.41532 -0.182717)
      (xy 3.423473 -0.154596)
      (xy 3.431988 -0.122372)
      (xy 3.44058 -0.087062)
      (xy 3.448959 -0.049682)
      (xy 3.452849 -0.031169)
      (xy 3.466763 0.05426)
      (xy 3.473712 0.140317)
      (xy 3.473696 0.225708)
      (xy 3.466713 0.309137)
      (xy 3.453038 0.38808)
      (xy 3.444857 0.424999)
      (xy 3.463275 0.460806)
      (xy 3.493916 0.522239)
      (xy 3.523064 0.584329)
      (xy 3.550235 0.645883)
      (xy 3.574943 0.70571)
      (xy 3.596702 0.76262)
      (xy 3.615028 0.815422)
      (xy 3.629433 0.862923)
      (xy 3.63368 0.878943)
      (xy 3.650707 0.9553)
      (xy 3.662555 1.030167)
      (xy 3.669312 1.105183)
      (xy 3.671063 1.181983)
      (xy 3.667897 1.262204)
      (xy 3.659901 1.347484)
      (xy 3.659031 1.354777)
      (xy 3.644862 1.449111)
      (xy 3.625256 1.544634)
      (xy 3.600616 1.640284)
      (xy 3.571349 1.734996)
      (xy 3.537858 1.827706)
      (xy 3.500549 1.917352)
      (xy 3.459827 2.00287)
      (xy 3.416096 2.083196)
      (xy 3.369763 2.157265)
      (xy 3.334777 2.206444)
      (xy 3.28088 2.272454)
      (xy 3.221609 2.334407)
      (xy 3.156465 2.392702)
      (xy 3.084952 2.447737)
      (xy 3.006571 2.49991)
      (xy 2.920825 2.549621)
      (xy 2.877863 2.572234)
      (xy 2.782476 2.618048)
      (xy 2.682034 2.660812)
      (xy 2.578176 2.699995)
      (xy 2.472537 2.735065)
      (xy 2.366755 2.765491)
      (xy 2.262465 2.79074)
      (xy 2.161306 2.810281)
      (xy 2.129827 2.815247)
      (xy 2.082436 2.822021)
      (xy 2.039434 2.827508)
      (xy 1.99904 2.831829)
      (xy 1.959476 2.835107)
      (xy 1.918963 2.837465)
      (xy 1.875721 2.839024)
      (xy 1.827973 2.839908)
      (xy 1.773939 2.840237)
      (xy 1.766198 2.840246)
      (xy 1.712751 2.840096)
      (xy 1.665911 2.839499)
      (xy 1.623981 2.838339)
      (xy 1.585263 2.836503)
      (xy 1.548059 2.833876)
      (xy 1.510672 2.830344)
      (xy 1.471404 2.825793)
      (xy 1.428558 2.820108)
      (xy 1.394257 2.815207)
      (xy 1.256997 2.791315)
      (xy 1.119891 2.759721)
      (xy 0.982716 2.720344)
      (xy 0.845244 2.673105)
      (xy 0.707252 2.617923)
      (xy 0.568512 2.55472)
      (xy 0.428801 2.483415)
      (xy 0.375913 2.454459)
      (xy 0.305083 2.414968)
      (xy 0.247085 2.437477)
      (xy 0.222229 2.446847)
      (xy 0.192486 2.457629)
      (xy 0.160902 2.468743)
      (xy 0.130518 2.479111)
      (xy 0.117464 2.483436)
      (xy 0.090351 2.492514)
      (xy 0.070583 2.499628)
      (xy 0.057503 2.505053)
      (xy 0.050452 2.509067)
      (xy 0.048774 2.511944)
      (xy 0.048894 2.512213)
      (xy 0.052758 2.517001)
      (xy 0.061288 2.526522)
      (xy 0.073359 2.53955)
      (xy 0.087844 2.554857)
      (xy 0.093505 2.560765)
      (xy 0.128366 2.596172)
      (xy 0.164288 2.630868)
      (xy 0.201939 2.665397)
      (xy 0.241991 2.700302)
      (xy 0.285113 2.736128)
      (xy 0.331976 2.773417)
      (xy 0.38325 2.812713)
      (xy 0.439606 2.85456)
      (xy 0.501713 2.899501)
      (xy 0.570242 2.94808)
      (xy 0.576896 2.952753)
      (xy 0.605689 2.973189)
      (xy 0.628244 2.989951)
      (xy 0.64528 3.003913)
      (xy 0.657515 3.01595)
      (xy 0.665668 3.026934)
      (xy 0.670459 3.037741)
      (xy 0.672604 3.049244)
      (xy 0.672824 3.062318)
      (xy 0.672483 3.069011)
      (xy 0.670696 3.085723)
      (xy 0.667139 3.097618)
      (xy 0.660641 3.108169)
      (xy 0.65828 3.111177)
      (xy 0.647836 3.122307)
      (xy 0.63597 3.130929)
      (xy 0.621652 3.137238)
      (xy 0.603856 3.141425)
      (xy 0.581554 3.143682)
      (xy 0.553718 3.144204)
      (xy 0.519321 3.143182)
      (xy 0.494536 3.141875)
      (xy 0.386443 3.131952)
      (xy 0.282792 3.115095)
      (xy 0.183267 3.091186)
      (xy 0.087552 3.060105)
      (xy -0.004671 3.021732)
      (xy -0.093716 2.97595)
      (xy -0.179901 2.922638)
      (xy -0.263542 2.861677)
      (xy -0.276358 2.851488)
      (xy -0.310508 2.822638)
      (xy -0.346551 2.789716)
      (xy -0.382674 2.754533)
      (xy -0.417066 2.718901)
      (xy -0.447913 2.68463)
      (xy -0.469601 2.658421)
      (xy -0.504924 2.613521)
      (xy -0.523625 2.615733)
      (xy -0.573279 2.620442)
      (xy -0.629702 2.623747)
      (xy -0.691478 2.625679)
      (xy -0.757188 2.626264)
      (xy -0.825416 2.62553)
      (xy -0.894743 2.623507)
      (xy -0.963752 2.620221)
      (xy -1.031026 2.615701)
      (xy -1.095146 2.609975)
      (xy -1.153223 2.603265)
      (xy -1.306504 2.579063)
      (xy -1.457629 2.546923)
      (xy -1.606322 2.506968)
      (xy -1.752307 2.459321)
      (xy -1.895309 2.404105)
      (xy -2.035049 2.341444)
      (xy -2.171253 2.271462)
      (xy -2.303643 2.194281)
      (xy -2.431944 2.110025)
      (xy -2.55588 2.018818)
      (xy -2.667997 1.926988)
      (xy -2.780657 1.824484)
      (xy -2.88776 1.716068)
      (xy -2.989021 1.60214)
      (xy -3.084152 1.4831)
      (xy -3.172869 1.359351)
      (xy -3.254886 1.231292)
      (xy -3.329916 1.099326)
      (xy -3.397673 0.963853)
      (xy -3.457872 0.825274)
      (xy -3.463449 0.811303)
      (xy -3.517424 0.663929)
      (xy -3.527998 0.629597)
      (xy -3.283916 0.629597)
      (xy -3.283381 0.666518)
      (xy -3.281519 0.70147)
      (xy -3.27809 0.736621)
      (xy -3.272858 0.774141)
      (xy -3.265581 0.816197)
      (xy -3.260381 0.843268)
      (xy -3.24637 0.914203)
      (xy -3.207101 0.990077)
      (xy -3.147233 1.100025)
      (xy -3.083994 1.204661)
      (xy -3.015961 1.306185)
      (xy -2.941713 1.406796)
      (xy -2.917411 1.437892)
      (xy -2.900062 1.459789)
      (xy -2.885704 1.477783)
      (xy -2.8733 1.493076)
      (xy -2.861808 1.506868)
      (xy -2.850192 1.52036)
      (xy -2.83741 1.534751)
      (xy -2.822424 1.551242)
      (xy -2.804196 1.571034)
      (xy -2.781685 1.595326)
      (xy -2.773323 1.604337)
      (xy -2.680082 1.699716)
      (xy -2.581428 1.790638)
      (xy -2.47667 1.877684)
      (xy -2.36512 1.961435)
      (xy -2.278001 2.021493)
      (xy -2.203163 2.068944)
      (xy -2.122035 2.116084)
      (xy -2.036611 2.161906)
      (xy -1.948883 2.205401)
      (xy -1.860845 2.245561)
      (xy -1.774488 2.281378)
      (xy -1.733345 2.297053)
      (xy -1.714334 2.30392)
      (xy -1.692198 2.311675)
      (xy -1.668338 2.319855)
      (xy -1.644158 2.327996)
      (xy -1.621059 2.335632)
      (xy -1.600442 2.3423)
      (xy -1.583711 2.347535)
      (xy -1.572268 2.350874)
      (xy -1.567802 2.351872)
      (xy -1.568537 2.349039)
      (xy -1.573971 2.341041)
      (xy -1.5833 2.328942)
      (xy -1.595721 2.313805)
      (xy -1.603125 2.305096)
      (xy -1.68369 2.20509)
      (xy -1.757913 2.099944)
      (xy -1.825574 1.990139)
      (xy -1.886452 1.876157)
      (xy -1.940328 1.758482)
      (xy -1.986979 1.637594)
      (xy -2.026186 1.513976)
      (xy -2.057729 1.38811)
      (xy -2.081387 1.260478)
      (xy -2.081607 1.259034)
      (xy -2.097334 1.12874)
      (xy -2.104828 0.998271)
      (xy -2.104447 0.930766)
      (xy -1.94542 0.930766)
      (xy -1.942426 1.055317)
      (xy -1.931443 1.179041)
      (xy -1.929994 1.190625)
      (xy -1.909869 1.315229)
      (xy -1.881816 1.437667)
      (xy -1.846015 1.557593)
      (xy -1.802648 1.674658)
      (xy -1.751896 1.788516)
      (xy -1.693942 1.89882)
      (xy -1.628965 2.005224)
      (xy -1.557148 2.107379)
      (xy -1.478672 2.204941)
      (xy -1.393718 2.297561)
      (xy -1.30855 2.379416)
      (xy -1.256088 2.426847)
      (xy -1.188033 2.437054)
      (xy -1.10786 2.447772)
      (xy -1.0253 2.456355)
      (xy -0.94212 2.46271)
      (xy -0.860089 2.466745)
      (xy -0.780976 2.468369)
      (xy -0.706548 2.46749)
      (xy -0.651466 2.464916)
      (xy -0.610999 2.462287)
      (xy -0.64142 2.412418)
      (xy -0.655667 2.388699)
      (xy -0.671882 2.361127)
      (xy -0.688055 2.333148)
      (xy -0.702002 2.308524)
      (xy -0.712645 2.289521)
      (xy -0.721811 2.273271)
      (xy -0.728762 2.261072)
      (xy -0.732759 2.254226)
      (xy -0.733407 2.253227)
      (xy -0.737734 2.253548)
      (xy -0.747853 2.255621)
      (xy -0.761083 2.258874)
      (xy -0.790476 2.263754)
      (xy -0.821959 2.264207)
      (xy -0.852523 2.260426)
      (xy -0.879161 2.252602)
      (xy -0.882599 2.251107)
      (xy -0.908982 2.236585)
      (xy -0.934611 2.218054)
      (xy -0.957769 2.197096)
      (xy -0.959668 2.194914)
      (xy -0.581806 2.194914)
      (xy -0.579683 2.200508)
      (xy -0.573699 2.212151)
      (xy -0.564437 2.228866)
      (xy -0.552476 2.249677)
      (xy -0.538398 2.273607)
      (xy -0.522782 2.299679)
      (xy -0.506209 2.326916)
      (xy -0.489261 2.354342)
      (xy -0.472517 2.380979)
      (xy -0.456558 2.405851)
      (xy -0.45499 2.408262)
      (xy -0.395837 2.493534)
      (xy -0.334373 2.571143)
      (xy -0.270167 2.641521)
      (xy -0.202787 2.705102)
      (xy -0.131801 2.762317)
      (xy -0.056778 2.813601)
      (xy -0.041127 2.823259)
      (xy 0.00624 2.849713)
      (xy 0.05951 2.875507)
      (xy 0.11628 2.899645)
      (xy 0.17415 2.92113)
      (xy 0.230717 2.938965)
      (xy 0.250912 2.944459)
      (xy 0.273366 2.950283)
      (xy 0.288992 2.954322)
      (xy 0.299014 2.956853)
      (xy 0.304656 2.958155)
      (xy 0.307141 2.958506)
      (xy 0.307693 2.958183)
      (xy 0.307536 2.957466)
      (xy 0.307526 2.957326)
      (xy 0.304423 2.954329)
      (xy 0.296075 2.947548)
      (xy 0.283925 2.938132)
      (xy 0.275319 2.931629)
      (xy 0.182381 2.858695)
      (xy 0.094406 2.78294)
      (xy 0.012055 2.705019)
      (xy -0.064014 2.625588)
      (xy -0.133143 2.545305)
      (xy -0.194671 2.464825)
      (xy -0.197961 2.460209)
      (xy -0.225747 2.418933)
      (xy -0.254783 2.371948)
      (xy -0.283839 2.32148)
      (xy -0.311686 2.269752)
      (xy -0.337095 2.218991)
      (xy -0.358837 2.171421)
      (xy -0.363261 2.160994)
      (xy -0.370944 2.142704)
      (xy -0.377455 2.127431)
      (xy -0.382144 2.116685)
      (xy -0.38436 2.111976)
      (xy -0.384414 2.111902)
      (xy -0.388394 2.11306)
      (xy -0.398038 2.117256)
      (xy -0.41162 2.123717)
      (xy -0.419044 2.127403)
      (xy -0.445723 2.139851)
      (xy -0.479213 2.153875)
      (xy -0.518275 2.168978)
      (xy -0.559988 2.18407)
      (xy -0.571931 2.188785)
      (xy -0.579856 2.192917)
      (xy -0.581806 2.194914)
      (xy -0.959668 2.194914)
      (xy -0.976741 2.175291)
      (xy -0.989812 2.154221)
      (xy -0.991292 2.150903)
      (xy -0.997065 2.127267)
      (xy -0.995291 2.104098)
      (xy -0.986689 2.082744)
      (xy -0.971976 2.064552)
      (xy -0.95187 2.050869)
      (xy -0.934646 2.044613)
      (xy -0.913404 2.04193)
      (xy -0.893945 2.04561)
      (xy -0.874779 2.056181)
      (xy -0.856154 2.072413)
      (xy -0.84048 2.087825)
      (xy -0.82857 2.09793)
      (xy -0.818289 2.103277)
      (xy -0.807504 2.104415)
      (xy -0.79408 2.101893)
      (xy -0.775883 2.096261)
      (xy -0.770453 2.09447)
      (xy -0.751423 2.087942)
      (xy -0.733782 2.081467)
      (xy -0.720053 2.075989)
      (xy -0.71479 2.0736)
      (xy -0.706765 2.070077)
      (xy -0.692258 2.064203)
      (xy -0.672588 2.056492)
      (xy -0.649076 2.047458)
      (xy -0.623041 2.037617)
      (xy -0.608818 2.032303)
      (xy -0.566278 2.016151)
      (xy -0.542 2.006382)
      (xy -0.256846 2.006382)
      (xy -0.253629 2.014604)
      (xy -0.249571 2.022687)
      (xy -0.245205 2.031831)
      (xy -0.238367 2.046945)
      (xy -0.229804 2.066337)
      (xy -0.220267 2.088316)
      (xy -0.214061 2.102814)
      (xy -0.17761 2.181339)
      (xy -0.134723 2.261146)
      (xy -0.096943 2.323845)
      (xy -0.06623 2.372412)
      (xy -0.044543 2.366249)
      (xy -0.03382 2.363064)
      (xy -0.016817 2.357849)
      (xy 0.004832 2.351114)
      (xy 0.029492 2.343367)
      (xy 0.05553 2.335116)
      (xy 0.057729 2.334415)
      (xy 0.138314 2.308746)
      (xy 0.126728 2.300323)
      (xy 0.04723 2.241304)
      (xy -0.026205 2.184143)
      (xy -0.095199 2.127528)
      (xy -0.16137 2.070145)
      (xy -0.196725 2.03817)
      (xy -0.216944 2.019857)
      (xy -0.231972 2.006858)
      (xy -0.242523 1.998635)
      (xy -0.249308 1.99465)
      (xy -0.25304 1.994365)
      (xy -0.253803 1.99511)
      (xy -0.25676 2.000818)
      (xy -0.256846 2.006382)
      (xy -0.542 2.006382)
      (xy -0.530588 2.00179)
      (xy -0.500631 1.988643)
      (xy -0.47529 1.976139)
      (xy -0.453448 1.963702)
      (xy -0.433986 1.950757)
      (xy -0.415787 1.936732)
      (xy -0.405046 1.927591)
      (xy -0.396277 1.918612)
      (xy -0.391886 1.909643)
      (xy -0.391642 1.898567)
      (xy -0.39531 1.883269)
      (xy -0.398953 1.872169)
      (xy -0.403435 1.857731)
      (xy -0.406453 1.845317)
      (xy -0.407264 1.839155)
      (xy -0.410216 1.83146)
      (xy -0.41809 1.820549)
      (xy -0.427332 1.810533)
      (xy -0.447401 1.790766)
      (xy -0.480318 1.797713)
      (xy -0.502073 1.801362)
      (xy -0.526517 1.80406)
      (xy -0.546734 1.805168)
      (xy -0.56433 1.805127)
      (xy -0.576403 1.80396)
      (xy -0.585726 1.80107)
      (xy -0.59507 1.795863)
      (xy -0.59756 1.794244)
      (xy -0.615065 1.778082)
      (xy -0.626473 1.757765)
      (xy -0.63159 1.734988)
      (xy -0.63022 1.711447)
      (xy -0.62217 1.688839)
      (xy -0.611434 1.673289)
      (xy -0.596403 1.661633)
      (xy -0.574461 1.652485)
      (xy -0.546755 1.646321)
      (xy -0.546252 1.646246)
      (xy -0.52753 1.643328)
      (xy -0.505203 1.639611)
      (xy -0.483829 1.635856)
      (xy -0.482068 1.635534)
      (xy -0.462795 1.632457)
      (xy -0.443808 1.630172)
      (xy -0.428676 1.629096)
      (xy -0.426447 1.629063)
      (xy -0.415558 1.629153)
      (xy -0.406038 1.629779)
      (xy -0.397189 1.63146)
      (xy -0.388316 1.634718)
      (xy -0.378724 1.640075)
      (xy -0.367715 1.648052)
      (xy -0.354593 1.659169)
      (xy -0.338663 1.673947)
      (xy -0.319228 1.692909)
      (xy -0.295593 1.716575)
      (xy -0.26706 1.745465)
      (xy -0.256105 1.756587)
      (xy -0.211731 1.801371)
      (xy -0.171847 1.841008)
      (xy -0.135367 1.876515)
      (xy -0.101205 1.908907)
      (xy -0.068277 1.939204)
      (xy -0.035496 1.968421)
      (xy -0.001778 1.997575)
      (xy 0.027013 2.021882)
      (xy 0.137582 2.109374)
      (xy 0.254523 2.192397)
      (xy 0.376927 2.270488)
      (xy 0.503884 2.343186)
      (xy 0.634484 2.410027)
      (xy 0.767818 2.470549)
      (xy 0.902975 2.524289)
      (xy 1.039045 2.570785)
      (xy 1.17512 2.609574)
      (xy 1.190625 2.613494)
      (xy 1.283175 2.634286)
      (xy 1.379781 2.651676)
      (xy 1.478678 2.665493)
      (xy 1.578099 2.675567)
      (xy 1.676277 2.68173)
      (xy 1.771447 2.683809)
      (xy 1.861841 2.681636)
      (xy 1.884708 2.68033)
      (xy 2.005805 2.669832)
      (xy 2.121823 2.654166)
      (xy 2.234437 2.633003)
      (xy 2.345325 2.606016)
      (xy 2.456164 2.572877)
      (xy 2.487258 2.562505)
      (xy 2.595927 2.523074)
      (xy 2.696874 2.481465)
      (xy 2.79044 2.437508)
      (xy 2.876969 2.391034)
      (xy 2.956803 2.341872)
      (xy 3.019159 2.29821)
      (xy 3.044448 2.278032)
      (xy 3.072983 2.252943)
      (xy 3.103149 2.22456)
      (xy 3.133332 2.194496)
      (xy 3.161916 2.164366)
      (xy 3.187287 2.135783)
      (xy 3.207828 2.110364)
      (xy 3.210032 2.107414)
      (xy 3.258026 2.036802)
      (xy 3.303049 1.95925)
      (xy 3.34475 1.875706)
      (xy 3.382778 1.787119)
      (xy 3.416781 1.694435)
      (xy 3.446408 1.598604)
      (xy 3.471309 1.500573)
      (xy 3.491133 1.401289)
      (xy 3.50415 1.31322)
      (xy 3.505855 1.294559)
      (xy 3.507292 1.26933)
      (xy 3.508399 1.239274)
      (xy 3.509112 1.206132)
      (xy 3.50937 1.171644)
      (xy 3.509368 1.167768)
      (xy 3.509217 1.133517)
      (xy 3.508807 1.105947)
      (xy 3.508037 1.083431)
      (xy 3.506806 1.064339)
      (xy 3.505011 1.047043)
      (xy 3.502554 1.029914)
      (xy 3.499819 1.014005)
      (xy 3.491139 0.969662)
      (xy 3.481401 0.927457)
      (xy 3.470174 0.886147)
      (xy 3.457026 0.844492)
      (xy 3.441526 0.801249)
      (xy 3.423243 0.755176)
      (xy 3.401745 0.705031)
      (xy 3.376603 0.649573)
      (xy 3.363669 0.621883)
      (xy 3.349573 0.592183)
      (xy 3.338264 0.569048)
      (xy 3.329157 0.551444)
      (xy 3.321665 0.538342)
      (xy 3.315199 0.528709)
      (xy 3.309175 0.521514)
      (xy 3.30352 0.516163)
      (xy 3.291012 0.504125)
      (xy 3.28227 0.491872)
      (xy 3.277153 0.478121)
      (xy 3.275518 0.46159)
      (xy 3.277222 0.440996)
      (xy 3.282124 0.415054)
      (xy 3.289109 0.38624)
      (xy 3.305637 0.307018)
      (xy 3.314292 0.22797)
      (xy 3.315082 0.148363)
      (xy 3.308015 0.067459)
      (xy 3.293378 -0.014221)
      (xy 3.289753 -0.029064)
      (xy 3.286438 -0.040129)
      (xy 3.284034 -0.045459)
      (xy 3.283672 -0.045668)
      (xy 3.279909 -0.042984)
      (xy 3.270999 -0.035527)
      (xy 3.257916 -0.024146)
      (xy 3.241635 -0.009692)
      (xy 3.22313 0.006988)
      (xy 3.22014 0.009704)
      (xy 3.197253 0.030337)
      (xy 3.172505 0.05234)
      (xy 3.148036 0.073831)
      (xy 3.125984 0.092927)
      (xy 3.112728 0.104202)
      (xy 3.066147 0.143373)
      (xy 3.08565 0.146203)
      (xy 3.109386 0.153314)
      (xy 3.128586 0.166223)
      (xy 3.142782 0.183539)
      (xy 3.151504 0.203877)
      (xy 3.154282 0.225846)
      (xy 3.150647 0.248058)
      (xy 3.140129 0.269125)
      (xy 3.130908 0.280056)
      (xy 3.126339 0.284623)
      (xy 3.122028 0.288554)
      (xy 3.117324 0.291934)
      (xy 3.111577 0.294849)
      (xy 3.104138 0.297386)
      (xy 3.094356 0.299629)
      (xy 3.081582 0.301665)
      (xy 3.065166 0.303579)
      (xy 3.044458 0.305457)
      (xy 3.018807 0.307385)
      (xy 2.987565 0.309449)
      (xy 2.95008 0.311734)
      (xy 2.905704 0.314327)
      (xy 2.853786 0.317312)
      (xy 2.844617 0.317839)
      (xy 2.810586 0.319915)
      (xy 2.776196 0.322234)
      (xy 2.742479 0.324705)
      (xy 2.710467 0.32724)
      (xy 2.68119 0.329747)
      (xy 2.655682 0.332137)
      (xy 2.634972 0.334321)
      (xy 2.620093 0.336209)
      (xy 2.612076 0.33771)
      (xy 2.611032 0.338172)
      (xy 2.612973 0.341686)
      (xy 2.620236 0.349278)
      (xy 2.631599 0.359899)
      (xy 2.645841 0.372501)
      (xy 2.661738 0.386038)
      (xy 2.67807 0.39946)
      (xy 2.693615 0.411721)
      (xy 2.707151 0.421773)
      (xy 2.713864 0.426349)
      (xy 2.756942 0.449384)
      (xy 2.804518 0.465624)
      (xy 2.856749 0.475112)
      (xy 2.90876 0.477912)
      (xy 2.928839 0.478206)
      (xy 2.943255 0.479396)
      (xy 2.954644 0.481942)
      (xy 2.965643 0.486303)
      (xy 2.970612 0.488703)
      (xy 2.991326 0.503215)
      (xy 3.005826 0.522187)
      (xy 3.013674 0.544166)
      (xy 3.014431 0.567696)
      (xy 3.007661 0.591325)
      (xy 3.003771 0.598775)
      (xy 2.995278 0.61085)
      (xy 2.986104 0.620364)
      (xy 2.982102 0.623179)
      (xy 2.974418 0.628157)
      (xy 2.971368 0.631776)
      (xy 2.972942 0.636511)
      (xy 2.977213 0.647199)
      (xy 2.983507 0.662196)
      (xy 2.990261 0.677826)
      (xy 3.020059 0.750632)
      (xy 3.043881 0.819558)
      (xy 3.062091 0.886099)
      (xy 3.075054 0.951752)
      (xy 3.083133 1.01801)
      (xy 3.086316 1.072185)
      (xy 3.086934 1.136352)
      (xy 3.084136 1.195069)
      (xy 3.077616 1.250591)
      (xy 3.067072 1.305175)
      (xy 3.052199 1.361078)
      (xy 3.043766 1.388023)
      (xy 3.022864 1.446639)
      (xy 3.000228 1.498678)
      (xy 2.974827 1.545846)
      (xy 2.945632 1.589845)
      (xy 2.911612 1.632382)
      (xy 2.871736 1.675162)
      (xy 2.867806 1.6791)
      (xy 2.83019 1.714891)
      (xy 2.794449 1.745026)
      (xy 2.758441 1.771127)
      (xy 2.720021 1.794813)
      (xy 2.700508 1.80558)
      (xy 2.66646 1.823772)
      (xy 2.667499 1.868749)
      (xy 2.669138 1.898214)
      (xy 2.672473 1.926736)
      (xy 2.677161 1.952288)
      (xy 2.682856 1.972843)
      (xy 2.686797 1.982297)
      (xy 2.691601 1.989994)
      (xy 2.700168 2.0022)
      (xy 2.711079 2.016928)
      (xy 2.717992 2.025932)
      (xy 2.729734 2.041617)
      (xy 2.739997 2.056407)
      (xy 2.747309 2.068132)
      (xy 2.749568 2.072551)
      (xy 2.755187 2.094961)
      (xy 2.753592 2.116568)
      (xy 2.745879 2.136443)
      (xy 2.733143 2.153656)
      (xy 2.716482 2.167275)
      (xy 2.696989 2.176372)
      (xy 2.675763 2.180016)
      (xy 2.653899 2.177276)
      (xy 2.635639 2.169238)
      (xy 2.622643 2.158889)
      (xy 2.607206 2.142745)
      (xy 2.590599 2.122449)
      (xy 2.574089 2.099644)
      (xy 2.558946 2.075973)
      (xy 2.547404 2.055023)
      (xy 2.529981 2.013811)
      (xy 2.517645 1.970756)
      (xy 2.511066 1.928507)
      (xy 2.510144 1.908047)
      (xy 2.509935 1.89378)
      (xy 2.50895 1.886121)
      (xy 2.506519 1.883369)
      (xy 2.501971 1.88382)
      (xy 2.500728 1.884151)
      (xy 2.492374 1.886181)
      (xy 2.478503 1.889295)
      (xy 2.46174 1.892906)
      (xy 2.457093 1.893883)
      (xy 2.422808 1.901054)
      (xy 2.422808 1.922416)
      (xy 2.421864 1.935466)
      (xy 2.419316 1.953824)
      (xy 2.415588 1.974738)
      (xy 2.412418 1.989802)
      (xy 2.404317 2.037077)
      (xy 2.402371 2.081263)
      (xy 2.406512 2.124778)
      (xy 2.408262 2.134655)
      (xy 2.412352 2.158571)
      (xy 2.414043 2.176504)
      (xy 2.413289 2.190444)
      (xy 2.410047 2.202377)
      (xy 2.406589 2.20999)
      (xy 2.391449 2.231612)
      (xy 2.37243 2.246503)
      (xy 2.3508 2.254459)
      (xy 2.327822 2.25528)
      (xy 2.304761 2.248761)
      (xy 2.282883 2.234702)
      (xy 2.278281 2.230506)
      (xy 2.269953 2.220661)
      (xy 2.263144 2.208127)
      (xy 2.257453 2.191631)
      (xy 2.252479 2.169901)
      (xy 2.24782 2.141662)
      (xy 2.245892 2.127793)
      (xy 2.242549 2.095815)
      (xy 2.241661 2.065988)
      (xy 2.243365 2.035819)
      (xy 2.247801 2.002815)
      (xy 2.254855 1.965674)
      (xy 2.258772 1.946746)
      (xy 2.261972 1.930919)
      (xy 2.264116 1.919892)
      (xy 2.264868 1.915399)
      (xy 2.260996 1.914206)
      (xy 2.250448 1.91281)
      (xy 2.234849 1.911387)
      (xy 2.216442 1.910149)
      (xy 2.195459 1.90881)
      (xy 2.175952 1.907315)
      (xy 2.160338 1.905863)
      (xy 2.152121 1.904843)
      (xy 2.144126 1.903934)
      (xy 2.138351 1.905078)
      (xy 2.133847 1.90956)
      (xy 2.129664 1.918666)
      (xy 2.124852 1.933684)
      (xy 2.121009 1.946973)
      (xy 2.11199 1.980934)
      (xy 2.105302 2.01236)
      (xy 2.100534 2.043965)
      (xy 2.097278 2.078463)
      (xy 2.095146 2.117934)
      (xy 2.094028 2.144748)
      (xy 2.092991 2.164644)
      (xy 2.091816 2.179011)
      (xy 2.090278 2.189238)
      (xy 2.088157 2.196712)
      (xy 2.08523 2.202823)
      (xy 2.081275 2.208958)
      (xy 2.08038 2.210254)
      (xy 2.063091 2.228491)
      (xy 2.04154 2.239641)
      (xy 2.016013 2.243577)
      (xy 2.007064 2.243293)
      (xy 1.982479 2.237874)
      (xy 1.962261 2.225419)
      (xy 1.946234 2.20581)
      (xy 1.94311 2.200253)
      (xy 1.939732 2.192987)
      (xy 1.937388 2.185174)
      (xy 1.935909 2.175206)
      (xy 1.93513 2.16147)
      (xy 1.934884 2.142359)
      (xy 1.934964 2.121515)
      (xy 1.937103 2.065952)
      (xy 1.942994 2.013389)
      (xy 1.953131 1.960327)
      (xy 1.963545 1.919086)
      (xy 1.96862 1.899666)
      (xy 1.972422 1.883239)
      (xy 1.974617 1.871396)
      (xy 1.974874 1.86573)
      (xy 1.974743 1.865526)
      (xy 1.969957 1.863112)
      (xy 1.959054 1.858402)
      (xy 1.943675 1.852084)
      (xy 1.926195 1.845136)
      (xy 1.853107 1.813466)
      (xy 1.777595 1.774939)
      (xy 1.700713 1.730242)
      (xy 1.623518 1.680066)
      (xy 1.547064 1.625099)
      (xy 1.472408 1.566032)
      (xy 1.400605 1.503554)
      (xy 1.394357 1.497823)
      (xy 1.370533 1.475292)
      (xy 1.344206 1.449379)
      (xy 1.316017 1.420794)
      (xy 1.286606 1.390248)
      (xy 1.256613 1.358453)
      (xy 1.231238 1.331045)
      (xy 1.451928 1.331045)
      (xy 1.45408 1.334453)
      (xy 1.461619 1.342397)
      (xy 1.473608 1.354022)
      (xy 1.489107 1.368473)
      (xy 1.507177 1.384897)
      (xy 1.52688 1.40244)
      (xy 1.547276 1.420246)
      (xy 1.567427 1.437462)
      (xy 1.584544 1.451718)
      (xy 1.604606 1.467907)
      (xy 1.619628 1.47928)
      (xy 1.630758 1.486577)
      (xy 1.639141 1.490535)
      (xy 1.645923 1.491892)
      (xy 1.646986 1.491917)
      (xy 1.655924 1.491208)
      (xy 1.671118 1.489261)
      (xy 1.690648 1.486352)
      (xy 1.712596 1.482753)
      (xy 1.71917 1.481615)
      (xy 1.790233 1.466124)
      (xy 1.86295 1.4446)
      (xy 1.935015 1.417912)
      (xy 2.004124 1.386929)
      (xy 2.06797 1.352517)
      (xy 2.077978 1.346484)
      (xy 2.113204 1.324894)
      (xy 2.093155 1.327331)
      (xy 1.977386 1.339462)
      (xy 1.866602 1.347133)
      (xy 1.761223 1.350337)
      (xy 1.661672 1.349069)
      (xy 1.568368 1.343322)
      (xy 1.500786 1.335806)
      (xy 1.481978 1.333415)
      (xy 1.466427 1.331723)
      (xy 1.455834 1.330897)
      (xy 1.451928 1.331045)
      (xy 1.231238 1.331045)
      (xy 1.226677 1.326118)
      (xy 1.197439 1.293957)
      (xy 1.169539 1.262678)
      (xy 1.143618 1.232995)
      (xy 1.120314 1.205616)
      (xy 1.100268 1.181254)
      (xy 1.084121 1.16062)
      (xy 1.072511 1.144425)
      (xy 1.06608 1.133379)
      (xy 1.065888 1.13293)
      (xy 1.060264 1.109855)
      (xy 1.061896 1.087301)
      (xy 1.069782 1.066468)
      (xy 1.082923 1.048554)
      (xy 1.100319 1.034756)
      (xy 1.120971 1.026275)
      (xy 1.14388 1.024307)
      (xy 1.155104 1.025965)
      (xy 1.167434 1.029419)
      (xy 1.178096 1.03443)
      (xy 1.188617 1.042191)
      (xy 1.200521 1.053892)
      (xy 1.215337 1.070724)
      (xy 1.220861 1.077292)
      (xy 1.23323 1.091873)
      (xy 1.244115 1.104296)
      (xy 1.252134 1.113009)
      (xy 1.255427 1.116166)
      (xy 1.26368 1.120276)
      (xy 1.278769 1.12562)
      (xy 1.299367 1.131866)
      (xy 1.324148 1.138682)
      (xy 1.351783 1.145734)
      (xy 1.380947 1.152689)
      (xy 1.410314 1.159216)
      (xy 1.438555 1.164982)
      (xy 1.464345 1.169653)
      (xy 1.4762 1.171518)
      (xy 1.500128 1.174832)
      (xy 1.517042 1.176633)
      (xy 1.528086 1.17698)
      (xy 1.534408 1.175936)
      (xy 1.536337 1.174742)
      (xy 1.540425 1.169111)
      (xy 1.547825 1.157378)
      (xy 1.557854 1.140727)
      (xy 1.56983 1.120343)
      (xy 1.583068 1.09741)
      (xy 1.596885 1.073115)
      (xy 1.610598 1.048641)
      (xy 1.623523 1.025173)
      (xy 1.634978 1.003898)
      (xy 1.636226 1.001538)
      (xy 1.67763 0.91876)
      (xy 1.717787 0.83002)
      (xy 1.755775 0.737661)
      (xy 1.790669 0.644027)
      (xy 1.821547 0.55146)
      (xy 1.844762 0.472385)
      (xy 1.861583 0.410756)
      (xy 1.83426 0.329012)
      (xy 1.815837 0.275608)
      (xy 1.797868 0.227426)
      (xy 1.779162 0.181542)
      (xy 1.758528 0.13503)
      (xy 1.735094 0.085623)
      (xy 1.677449 -0.023422)
      (xy 1.612685 -0.128478)
      (xy 1.541159 -0.229191)
      (xy 1.463226 -0.325208)
      (xy 1.379243 -0.416175)
      (xy 1.289564 -0.501738)
      (xy 1.194547 -0.581544)
      (xy 1.094547 -0.655239)
      (xy 0.98992 -0.72247)
      (xy 0.881022 -0.782882)
      (xy 0.841015 -0.802809)
      (xy 0.724562 -0.854598)
      (xy 0.605921 -0.8984)
      (xy 0.484967 -0.934249)
      (xy 0.361575 -0.962177)
      (xy 0.235617 -0.982219)
      (xy 0.117376 -0.993718)
      (xy 0.080428 -0.995537)
      (xy 0.037631 -0.996457)
      (xy -0.008873 -0.99652)
      (xy -0.056943 -0.995771)
      (xy -0.104436 -0.994254)
      (xy -0.14921 -0.992013)
      (xy -0.189124 -0.989091)
      (xy -0.209866 -0.987027)
      (xy -0.336989 -0.968656)
      (xy -0.461585 -0.942527)
      (xy -0.583367 -0.908791)
      (xy -0.702046 -0.867597)
      (xy -0.817336 -0.819098)
      (xy -0.928947 -0.763442)
      (xy -1.036593 -0.700782)
      (xy -1.139985 -0.631266)
      (xy -1.238836 -0.555047)
      (xy -1.332858 -0.472275)
      (xy -1.421763 -0.3831)
      (xy -1.472838 -0.326227)
      (xy -1.551513 -0.229461)
      (xy -1.62255 -0.130127)
      (xy -1.686351 -0.027525)
      (xy -1.743318 0.079049)
      (xy -1.793853 0.190296)
      (xy -1.838358 0.306919)
      (xy -1.843056 0.320554)
      (xy -1.878936 0.438547)
      (xy -1.907184 0.559278)
      (xy -1.927728 0.682034)
      (xy -1.940497 0.806101)
      (xy -1.94542 0.930766)
      (xy -2.104447 0.930766)
      (xy -2.10409 0.867404)
      (xy -2.095115 0.735918)
      (xy -2.077904 0.60359)
      (xy -2.075371 0.588156)
      (xy -2.071424 0.564307)
      (xy -2.06884 0.547318)
      (xy -2.067563 0.535863)
      (xy -2.067536 0.528613)
      (xy -2.0687 0.524242)
      (xy -2.070999 0.52142)
      (xy -2.072448 0.520257)
      (xy -2.083151 0.513543)
      (xy -2.099965 0.504631)
      (xy -2.121229 0.494266)
      (xy -2.14528 0.483195)
      (xy -2.170458 0.472164)
      (xy -2.195101 0.461919)
      (xy -2.217548 0.453207)
      (xy -2.235798 0.446881)
      (xy -2.286179 0.432546)
      (xy -2.333657 0.422497)
      (xy -2.380055 0.416641)
      (xy -2.427194 0.414882)
      (xy -2.476893 0.417126)
      (xy -2.530976 0.423279)
      (xy -2.570337 0.429501)
      (xy -2.60019 0.434736)
      (xy -2.623409 0.439101)
      (xy -2.641571 0.44302)
      (xy -2.656252 0.446916)
      (xy -2.669029 0.451214)
      (xy -2.681478 0.456339)
      (xy -2.695176 0.462713)
      (xy -2.696963 0.463575)
      (xy -2.749046 0.493036)
      (xy -2.795003 0.528077)
      (xy -2.834736 0.568591)
      (xy -2.868146 0.614468)
      (xy -2.895136 0.6656)
      (xy -2.907059 0.695509)
      (xy -2.917247 0.727027)
      (xy -2.924976 0.758432)
      (xy -2.930587 0.791774)
      (xy -2.934419 0.829105)
      (xy -2.936811 0.872474)
      (xy -2.936941 0.87599)
      (xy -2.937914 0.901366)
      (xy -2.938903 0.919962)
      (xy -2.940155 0.933305)
      (xy -2.941916 0.942924)
      (xy -2.944432 0.950348)
      (xy -2.947948 0.957103)
      (xy -2.950738 0.961623)
      (xy -2.966412 0.979042)
      (xy -2.987 0.991327)
      (xy -3.010008 0.997111)
      (xy -3.016045 0.997382)
      (xy -3.034826 0.995683)
      (xy -3.050598 0.98968)
      (xy -3.066766 0.978009)
      (xy -3.068762 0.976279)
      (xy -3.078933 0.966286)
      (xy -3.086268 0.955867)
      (xy -3.091206 0.943447)
      (xy -3.094188 0.927453)
      (xy -3.095653 0.90631)
      (xy -3.09604 0.878648)
      (xy -3.09292 0.805031)
      (xy -3.083393 0.73614)
      (xy -3.067211 0.67112)
      (xy -3.044127 0.609117)
      (xy -3.013892 0.549275)
      (xy -2.988772 0.508859)
      (xy -2.94959 0.457398)
      (xy -2.904477 0.411364)
      (xy -2.853191 0.370562)
      (xy -2.795489 0.334796)
      (xy -2.736875 0.306322)
      (xy -2.723058 0.30069)
      (xy -2.709087 0.29582)
      (xy -2.693524 0.291359)
      (xy -2.674933 0.286954)
      (xy -2.651876 0.282254)
      (xy -2.622914 0.276905)
      (xy -2.601646 0.273158)
      (xy -2.569241 0.267597)
      (xy -2.543138 0.263391)
      (xy -2.521473 0.260354)
      (xy -2.50238 0.258298)
      (xy -2.483995 0.257039)
      (xy -2.464453 0.256391)
      (xy -2.441888 0.256166)
      (xy -2.431119 0.256154)
      (xy -2.353641 0.259778)
      (xy -2.27796 0.270738)
      (xy -2.203141 0.289253)
      (xy -2.128249 0.315538)
      (xy -2.074835 0.338888)
      (xy -2.056696 0.347402)
      (xy -2.041501 0.354457)
      (xy -2.030702 0.359384)
      (xy -2.025751 0.361514)
      (xy -2.025604 0.361551)
      (xy -2.023999 0.357821)
      (xy -2.020412 0.347589)
      (xy -2.01533 0.33229)
      (xy -2.009235 0.31336)
      (xy -2.007276 0.307171)
      (xy -1.999719 0.283734)
      (xy -1.991754 0.259925)
      (xy -1.984321 0.2385)
      (xy -1.978358 0.222217)
      (xy -1.97827 0.221987)
      (xy -1.966408 0.191184)
      (xy -1.983703 0.176206)
      (xy -1.998984 0.164088)
      (xy -2.019842 0.149114)
      (xy -2.044554 0.132395)
      (xy -2.071394 0.115043)
      (xy -2.098636 0.09817)
      (xy -2.124557 0.082888)
      (xy -2.14743 0.070308)
      (xy -2.150474 0.068732)
      (xy -2.214421 0.040478)
      (xy -2.282712 0.018808)
      (xy -2.354649 0.003697)
      (xy -2.429534 -0.004876)
      (xy -2.506669 -0.006938)
      (xy -2.585358 -0.002511)
      (xy -2.664901 0.008381)
      (xy -2.744602 0.025714)
      (xy -2.823762 0.049463)
      (xy -2.901683 0.079606)
      (xy -2.936948 0.095625)
      (xy -3.00347 0.13124)
      (xy -3.063047 0.171349)
      (xy -3.11563 0.215877)
      (xy -3.16117 0.264749)
      (xy -3.199619 0.317891)
      (xy -3.230926 0.375226)
      (xy -3.255045 0.436681)
      (xy -3.271926 0.502181)
      (xy -3.28152 0.571649)
      (xy -3.283916 0.629597)
      (xy -3.527998 0.629597)
      (xy -3.563252 0.515128)
      (xy -3.600924 0.365109)
      (xy -3.630432 0.21408)
      (xy -3.651766 0.062253)
      (xy -3.664918 -0.090165)
      (xy -3.669879 -0.242963)
      (xy -3.669436 -0.263891)
      (xy -3.508827 -0.263891)
      (xy -3.507299 -0.160285)
      (xy -3.502742 -0.062556)
      (xy -3.494947 0.031234)
      (xy -3.483707 0.123025)
      (xy -3.468812 0.214759)
      (xy -3.450054 0.308375)
      (xy -3.44487 0.331711)
      (xy -3.439351 0.356137)
      (xy -3.434317 0.378473)
      (xy -3.430118 0.397161)
      (xy -3.427103 0.41064)
      (xy -3.425727 0.416874)
      (xy -3.423827 0.423375)
      (xy -3.421588 0.425119)
      (xy -3.418597 0.421407)
      (xy -3.414441 0.411542)
      (xy -3.408707 0.394825)
      (xy -3.403986 0.380104)
      (xy -3.378621 0.31358)
      (xy -3.345693 0.250075)
      (xy -3.305509 0.189938)
      (xy -3.258378 0.133517)
      (xy -3.204608 0.081163)
      (xy -3.144506 0.033223)
      (xy -3.078381 -0.009952)
      (xy -3.042015 -0.030247)
      (xy -2.954273 -0.071904)
      (xy -2.863156 -0.106057)
      (xy -2.769089 -0.132597)
      (xy -2.672494 -0.151414)
      (xy -2.573795 -0.1624)
      (xy -2.522546 -0.164958)
      (xy -2.470169 -0.165737)
      (xy -2.423407 -0.164606)
      (xy -2.379724 -0.161294)
      (xy -2.336589 -0.155532)
      (xy -2.291466 -0.147051)
      (xy -2.241822 -0.135579)
      (xy -2.23832 -0.134709)
      (xy -2.182793 -0.117941)
      (xy -2.124372 -0.094853)
      (xy -2.064554 -0.066181)
      (xy -2.004834 -0.032665)
      (xy -1.946708 0.004959)
      (xy -1.927669 0.018487)
      (xy -1.901755 0.037343)
      (xy -1.876276 -0.011458)
      (xy -1.853788 -0.053764)
      (xy -1.831172 -0.094873)
      (xy -1.809261 -0.133339)
      (xy -1.788883 -0.167713)
      (xy -1.77087 -0.196548)
      (xy -1.764845 -0.20571)
      (xy -1.750598 -0.226437)
      (xy -1.73264 -0.251718)
      (xy -1.712246 -0.279828)
      (xy -1.690696 -0.309046)
      (xy -1.669266 -0.337646)
      (xy -1.649233 -0.363906)
      (xy -1.631875 -0.386102)
      (xy -1.623174 -0.396875)
      (xy -1.611991 -0.410078)
      (xy -1.597173 -0.426999)
      (xy -1.579755 -0.446513)
      (xy -1.56077 -0.467498)
      (xy -1.541253 -0.488826)
      (xy -1.522236 -0.509375)
      (xy -1.504755 -0.52802)
      (xy -1.489842 -0.543635)
      (xy -1.478532 -0.555096)
      (xy -1.472563 -0.560699)
      (xy -1.464748 -0.567627)
      (xy -1.452671 -0.578652)
      (xy -1.438097 -0.59215)
      (xy -1.42543 -0.604013)
      (xy -1.378018 -0.646515)
      (xy -1.32458 -0.690662)
      (xy -1.266872 -0.735174)
      (xy -1.206646 -0.778771)
      (xy -1.145658 -0.820171)
      (xy -1.085662 -0.858096)
      (xy -1.043095 -0.883078)
      (xy -0.926092 -0.944507)
      (xy -0.805689 -0.998365)
      (xy -0.681816 -1.044681)
      (xy -0.554405 -1.083482)
      (xy -0.527781 -1.090527)
      (xy -0.442588 -1.1125)
      (xy -0.441695 -1.137573)
      (xy -0.283554 -1.137573)
      (xy -0.269567 -1.140075)
      (xy -0.250915 -1.142817)
      (xy -0.225777 -1.145642)
      (xy -0.195973 -1.148397)
      (xy -0.163325 -1.150927)
      (xy -0.129653 -1.153076)
      (xy -0.098 -1.154642)
      (xy -0.031847 -1.157379)
      (xy -0.030296 -1.169847)
      (xy -0.027135 -1.188055)
      (xy -0.02154 -1.212734)
      (xy -0.013915 -1.242543)
      (xy -0.004665 -1.276142)
      (xy 0.005805 -1.312189)
      (xy 0.017089 -1.349345)
      (xy 0.028783 -1.386269)
      (xy 0.04048 -1.42162)
      (xy 0.051777 -1.454058)
      (xy 0.062268 -1.482242)
      (xy 0.069553 -1.500229)
      (xy 0.105891 -1.575958)
      (xy 0.148418 -1.647404)
      (xy 0.196648 -1.714044)
      (xy 0.250098 -1.775352)
      (xy 0.308281 -1.830801)
      (xy 0.370713 -1.879866)
      (xy 0.436909 -1.922021)
      (xy 0.479296 -1.944296)
      (xy 0.505696 -1.956654)
      (xy 0.529313 -1.966549)
      (xy 0.552669 -1.974848)
      (xy 0.578282 -1.982418)
      (xy 0.608674 -1.990125)
      (xy 0.621286 -1.993104)
      (xy 0.640281 -1.997354)
      (xy 0.656549 -2.00043)
      (xy 0.672127 -2.002519)
      (xy 0.689051 -2.003809)
      (xy 0.709355 -2.004486)
      (xy 0.735075 -2.004738)
      (xy 0.748037 -2.004762)
      (xy 0.794315 -2.003824)
      (xy 0.836507 -2.00069)
      (xy 0.876629 -1.994956)
      (xy 0.916701 -1.986219)
      (xy 0.958738 -1.974075)
      (xy 1.00476 -1.958123)
      (xy 1.030629 -1.948308)
      (xy 1.059547 -1.93691)
      (xy 1.081742 -1.92767)
      (xy 1.098323 -1.919973)
      (xy 1.110402 -1.913205)
      (xy 1.119091 -1.906751)
      (xy 1.125501 -1.899997)
      (xy 1.130163 -1.893279)
      (xy 1.139671 -1.870641)
      (xy 1.141817 -1.847056)
      (xy 1.13714 -1.824118)
      (xy 1.126179 -1.803427)
      (xy 1.109473 -1.786578)
      (xy 1.090693 -1.776292)
      (xy 1.078607 -1.772622)
      (xy 1.066278 -1.771285)
      (xy 1.052267 -1.77253)
      (xy 1.035134 -1.776608)
      (xy 1.013441 -1.783768)
      (xy 0.985747 -1.794261)
      (xy 0.98455 -1.794732)
      (xy 0.945484 -1.809582)
      (xy 0.911449 -1.821197)
      (xy 0.880104 -1.830179)
      (xy 0.849109 -1.83713)
      (xy 0.816121 -1.842653)
      (xy 0.781222 -1.84708)
      (xy 0.749286 -1.848271)
      (xy 0.712381 -1.845644)
      (xy 0.672681 -1.839628)
      (xy 0.632362 -1.83065)
      (xy 0.5936 -1.819141)
      (xy 0.558569 -1.805527)
      (xy 0.549982 -1.801522)
      (xy 0.487787 -1.766686)
      (xy 0.429525 -1.724771)
      (xy 0.375582 -1.676212)
      (xy 0.326346 -1.621447)
      (xy 0.282202 -1.560913)
      (xy 0.243538 -1.495046)
      (xy 0.210739 -1.424284)
      (xy 0.206225 -1.412959)
      (xy 0.19844 -1.391972)
      (xy 0.189873 -1.367118)
      (xy 0.18085 -1.339527)
      (xy 0.171697 -1.310328)
      (xy 0.162738 -1.280651)
      (xy 0.1543 -1.251624)
      (xy 0.146709 -1.224379)
      (xy 0.140291 -1.200044)
      (xy 0.13537 -1.179749)
      (xy 0.132273 -1.164624)
      (xy 0.131325 -1.155798)
      (xy 0.131633 -1.154262)
      (xy 0.136509 -1.152454)
      (xy 0.146869 -1.151329)
      (xy 0.15385 -1.151146)
      (xy 0.174544 -1.150259)
      (xy 0.201979 -1.147743)
      (xy 0.234793 -1.143813)
      (xy 0.271621 -1.138686)
      (xy 0.311101 -1.132578)
      (xy 0.351869 -1.125705)
      (xy 0.392563 -1.118282)
      (xy 0.43182 -1.110527)
      (xy 0.468277 -1.102655)
      (xy 0.486224 -1.098454)
      (xy 0.61431 -1.063288)
      (xy 0.739014 -1.020556)
      (xy 0.860141 -0.970368)
      (xy 0.977497 -0.912831)
      (xy 1.090887 -0.848057)
      (xy 1.200116 -0.776153)
      (xy 1.304989 -0.697228)
      (xy 1.405312 -0.611392)
      (xy 1.475548 -0.544444)
      (xy 1.551368 -0.46544)
      (xy 1.620383 -0.386151)
      (xy 1.683967 -0.304823)
      (xy 1.743495 -0.219697)
      (xy 1.799217 -0.130907)
      (xy 1.813916 -0.105636)
      (xy 1.829943 -0.077021)
      (xy 1.846487 -0.046607)
      (xy 1.86274 -0.015938)
      (xy 1.87789 0.013442)
      (xy 1.89113 0.039988)
      (xy 1.901649 0.062156)
      (xy 1.907637 0.075889)
      (xy 1.913075 0.087779)
      (xy 1.917681 0.095233)
      (xy 1.920271 0.096668)
      (xy 1.92167 0.091635)
      (xy 1.923628 0.079823)
      (xy 1.925937 0.062731)
      (xy 1.928386 0.041855)
      (xy 1.929739 0.02909)
      (xy 1.93706 -0.057156)
      (xy 1.941864 -0.146388)
      (xy 1.944131 -0.236485)
      (xy 1.943843 -0.32533)
      (xy 1.94098 -0.410803)
      (xy 1.935522 -0.490785)
      (xy 1.934611 -0.500769)
      (xy 1.916284 -0.652681)
      (xy 1.890124 -0.801883)
      (xy 1.856073 -0.948598)
      (xy 1.814076 -1.09305)
      (xy 1.764075 -1.235462)
      (xy 1.722036 -1.339323)
      (xy 1.69706 -1.395081)
      (xy 1.668245 -1.454915)
      (xy 1.636624 -1.516912)
      (xy 1.603228 -1.579162)
      (xy 1.56909 -1.639752)
      (xy 1.53524 -1.696772)
      (xy 1.502712 -1.74831)
      (xy 1.494642 -1.760512)
      (xy 1.482466 -1.778439)
      (xy 1.473533 -1.790573)
      (xy 1.466643 -1.798145)
      (xy 1.460594 -1.802385)
      (xy 1.454186 -1.804525)
      (xy 1.451152 -1.805084)
      (xy 1.443872 -1.806627)
      (xy 1.436689 -1.809254)
      (xy 1.428696 -1.813647)
      (xy 1.418984 -1.820487)
      (xy 1.406647 -1.830454)
      (xy 1.390775 -1.844229)
      (xy 1.370462 -1.862495)
      (xy 1.35113 -1.880133)
      (xy 1.274295 -1.946345)
      (xy 1.197364 -2.004355)
      (xy 1.120154 -2.054271)
      (xy 1.04248 -2.096202)
      (xy 0.964155 -2.130256)
      (xy 0.884996 -2.156541)
      (xy 0.875712 -2.159103)
      (xy 0.790192 -2.178506)
      (xy 0.706834 -2.189893)
      (xy 0.625528 -2.193244)
      (xy 0.546166 -2.188538)
      (xy 0.468639 -2.175755)
      (xy 0.392838 -2.154876)
      (xy 0.318656 -2.125878)
      (xy 0.245983 -2.088744)
      (xy 0.174711 -2.043451)
      (xy 0.146257 -2.022811)
      (xy 0.120761 -2.002285)
      (xy 0.091907 -1.97678)
      (xy 0.061359 -1.947938)
      (xy 0.03078 -1.917403)
      (xy 0.001833 -1.886819)
      (xy -0.02382 -1.857831)
      (xy -0.037642 -1.841002)
      (xy -0.087321 -1.77356)
      (xy -0.131558 -1.70402)
      (xy -0.169592 -1.633711)
      (xy -0.200664 -1.56396)
      (xy -0.209405 -1.540893)
      (xy -0.222623 -1.503122)
      (xy -0.233896 -1.467894)
      (xy -0.243482 -1.433877)
      (xy -0.251639 -1.399735)
      (xy -0.258624 -1.364134)
      (xy -0.264697 -1.325742)
      (xy -0.270115 -1.283223)
      (xy -0.275136 -1.235243)
      (xy -0.280018 -1.18047)
      (xy -0.280686 -1.172411)
      (xy -0.283554 -1.137573)
      (xy -0.441695 -1.137573)
      (xy -0.441567 -1.141173)
      (xy -0.440227 -1.167247)
      (xy -0.437951 -1.19912)
      (xy -0.434957 -1.234529)
      (xy -0.431462 -1.27121)
      (xy -0.427686 -1.3069)
      (xy -0.423846 -1.339335)
      (xy -0.420161 -1.366251)
      (xy -0.419362 -1.371401)
      (xy -0.40017 -1.465388)
      (xy -0.372892 -1.558147)
      (xy -0.337713 -1.649271)
      (xy -0.294816 -1.73835)
      (xy -0.244388 -1.824978)
      (xy -0.186611 -1.908744)
      (xy -0.161592 -1.941224)
      (xy -0.10078 -2.012049)
      (xy -0.035537 -2.077193)
      (xy 0.033576 -2.136276)
      (xy 0.105993 -2.188919)
      (xy 0.181153 -2.23474)
      (xy 0.258491 -2.27336)
      (xy 0.337444 -2.304398)
      (xy 0.40694 -2.324921)
      (xy 0.438005 -2.332429)
      (xy 0.46518 -2.33829)
      (xy 0.490277 -2.342701)
      (xy 0.515111 -2.345862)
      (xy 0.541493 -2.347969)
      (xy 0.571237 -2.349222)
      (xy 0.606155 -2.349818)
      (xy 0.635831 -2.349953)
      (xy 0.670098 -2.349915)
      (xy 0.697596 -2.349646)
      (xy 0.719868 -2.349054)
      (xy 0.738455 -2.348046)
      (xy 0.7549 -2.346529)
      (xy 0.770745 -2.344411)
      (xy 0.787531 -2.341599)
      (xy 0.79375 -2.340464)
      (xy 0.878039 -2.322468)
      (xy 0.957767 -2.300631)
      (xy 1.031481 -2.27536)
      (xy 1.046213 -2.269595)
      (xy 1.057995 -2.265104)
      (xy 1.065917 -2.262524)
      (xy 1.06803 -2.262294)
      (xy 1.065118 -2.265374)
      (xy 1.057295 -2.272675)
      (xy 1.045931 -2.282974)
      (xy 1.032396 -2.295048)
      (xy 1.018061 -2.307674)
      (xy 1.004296 -2.31963)
      (xy 0.992841 -2.329383)
      (xy 0.985068 -2.33593)
      (xy 0.97314 -2.346007)
      (xy 0.95924 -2.35777)
      (xy 0.95469 -2.361624)
      (xy 0.935698 -2.377159)
      (xy 0.911218 -2.396332)
      (xy 0.882645 -2.418119)
      (xy 0.851372 -2.441494)
      (xy 0.818792 -2.465434)
      (xy 0.786298 -2.488914)
      (xy 0.755285 -2.510909)
      (xy 0.727146 -2.530395)
      (xy 0.704774 -2.54537)
      (xy 0.580189 -2.621892)
      (xy 0.451446 -2.691453)
      (xy 0.318997 -2.753945)
      (xy 0.183295 -2.809258)
      (xy 0.044791 -2.857284)
      (xy -0.09606 -2.897915)
      (xy -0.238808 -2.931041)
      (xy -0.383 -2.956553)
      (xy -0.528183 -2.974344)
      (xy -0.673905 -2.984305)
      (xy -0.819713 -2.986326)
      (xy -0.965156 -2.980299)
      (xy -1.067284 -2.971148)
      (xy -1.195974 -2.954377)
      (xy -1.319628 -2.932747)
      (xy -1.440253 -2.905808)
      (xy -1.559857 -2.873112)
      (xy -1.680447 -2.83421)
      (xy -1.681004 -2.834017)
      (xy -1.819841 -2.781551)
      (xy -1.95518 -2.721652)
      (xy -2.086757 -2.654544)
      (xy -2.214303 -2.580452)
      (xy -2.337554 -2.499601)
      (xy -2.456242 -2.412214)
      (xy -2.570101 -2.318517)
      (xy -2.678865 -2.218734)
      (xy -2.782266 -2.11309)
      (xy -2.880039 -2.00181)
      (xy -2.971917 -1.885117)
      (xy -3.057633 -1.763238)
      (xy -3.136922 -1.636396)
      (xy -3.169638 -1.579189)
      (xy -3.231466 -1.460679)
      (xy -3.288013 -1.337327)
      (xy -3.338699 -1.210657)
      (xy -3.382939 -1.082197)
      (xy -3.420153 -0.953472)
      (xy -3.440647 -0.868814)
      (xy -3.459844 -0.777808)
      (xy -3.475519 -0.692255)
      (xy -3.487893 -0.61019)
      (xy -3.497188 -0.529646)
      (xy -3.503625 -0.448655)
      (xy -3.507426 -0.365253)
      (xy -3.508813 -0.277472)
      (xy -3.508827 -0.263891)
      (xy -3.669436 -0.263891)
      (xy -3.666639 -0.395933)
      (xy -3.65519 -0.548864)
      (xy -3.635523 -0.701548)
      (xy -3.607629 -0.853775)
      (xy -3.5715 -1.005335)
      (xy -3.544713 -1.099693)
      (xy -3.521136 -1.173284)
      (xy -3.49397 -1.250067)
      (xy -3.463985 -1.328184)
      (xy -3.431952 -1.40578)
      (xy -3.39864 -1.481)
      (xy -3.364821 -1.551989)
      (xy -3.331264 -1.61689)
      (xy -3.326117 -1.62632)
      (xy -3.246756 -1.762787)
      (xy -3.162366 -1.892743)
      (xy -3.07273 -2.016455)
      (xy -2.97763 -2.134187)
      (xy -2.876849 -2.246206)
      (xy -2.770169 -2.352779)
      (xy -2.657373 -2.454171)
      (xy -2.632673 -2.47501)
      (xy -2.511129 -2.571068)
      (xy -2.385244 -2.660103)
      (xy -2.255282 -2.742012)
      (xy -2.121509 -2.81669)
      (xy -1.984191 -2.884032)
      (xy -1.843593 -2.943933)
      (xy -1.699981 -2.99629)
      (xy -1.553619 -3.040998)
      (xy -1.404773 -3.077952)
      (xy -1.253708 -3.107048)
      (xy -1.100691 -3.128182)
      (xy -0.945986 -3.141249)
      (xy -0.939201 -3.141633)
      (xy -0.817376 -3.145533)
    )

    (stroke (width 0.000000) (type solid)) (fill solid) (layer "F.SilkS") (uuid 21881086-55ad-4710-a085-25d29d4e54e1))
  (fp_poly
    (pts
      (xy -0.896562 0.694675)
      (xy -0.863714 0.708502)
      (xy -0.832709 0.729218)
      (xy -0.811769 0.748553)
      (xy -0.79687 0.766985)
      (xy -0.782179 0.790049)
      (xy -0.768638 0.815712)
      (xy -0.75719 0.841937)
      (xy -0.748774 0.866689)
      (xy -0.744334 0.887934)
      (xy -0.743881 0.895295)
      (xy -0.745423 0.916768)
      (xy -0.749543 0.941992)
      (xy -0.755478 0.967343)
      (xy -0.762465 0.989197)
      (xy -0.764859 0.994997)
      (xy -0.780093 1.020406)
      (xy -0.801878 1.044726)
      (xy -0.828463 1.066465)
      (xy -0.858096 1.084128)
      (xy -0.880307 1.093474)
      (xy -0.902264 1.099055)
      (xy -0.92808 1.102576)
      (xy -0.954291 1.103778)
      (xy -0.977429 1.102402)
      (xy -0.984305 1.101234)
      (xy -1.010473 1.09185)
      (xy -1.036552 1.075469)
      (xy -1.061448 1.053343)
      (xy -1.084066 1.026725)
      (xy -1.103311 0.996867)
      (xy -1.118089 0.965023)
      (xy -1.125904 0.939201)
      (xy -1.129202 0.915924)
      (xy -1.130058 0.888488)
      (xy -1.129991 0.887254)
      (xy -0.972264 0.887254)
      (xy -0.970504 0.898534)
      (xy -0.966041 0.912483)
      (xy -0.960103 0.926133)
      (xy -0.953919 0.936515)
      (xy -0.950419 0.940061)
      (xy -0.938522 0.943217)
      (xy -0.925655 0.940213)
      (xy -0.918654 0.935277)
      (xy -0.909439 0.92061)
      (xy -0.907807 0.902819)
      (xy -0.913772 0.882216)
      (xy -0.915983 0.877579)
      (xy -0.926637 0.860255)
      (xy -0.936872 0.851104)
      (xy -0.94662 0.850176)
      (xy -0.950895 0.852501)
      (xy -0.965335 0.866996)
      (xy -0.971885 0.882464)
      (xy -0.972264 0.887254)
      (xy -1.129991 0.887254)
      (xy -1.128541 0.860658)
      (xy -1.124721 0.836198)
      (xy -1.123957 0.833064)
      (xy -1.111224 0.799731)
      (xy -1.091517 0.768716)
      (xy -1.066087 0.741139)
      (xy -1.036184 0.718117)
      (xy -1.00306 0.700771)
      (xy -0.967965 0.690218)
      (xy -0.963374 0.689411)
      (xy -0.93015 0.688168)
    )

    (stroke (width 0.000000) (type solid)) (fill solid) (layer "F.SilkS") (uuid e001f567-1d42-4b41-8782-59d2ea761e5f))
  (fp_poly
    (pts
      (xy 0.398575 -0.012906)
      (xy 0.434407 0.002531)
      (xy 0.466428 0.025334)
      (xy 0.494605 0.055466)
      (xy 0.518904 0.092888)
      (xy 0.539292 0.137565)
      (xy 0.544316 0.151427)
      (xy 0.549496 0.168412)
      (xy 0.551993 0.183196)
      (xy 0.551882 0.198591)
      (xy 0.549235 0.217409)
      (xy 0.5464 0.231797)
      (xy 0.536921 0.267967)
      (xy 0.524391 0.297701)
      (xy 0.507671 0.322649)
      (xy 0.485623 0.344464)
      (xy 0.457109 0.364797)
      (xy 0.452978 0.36735)
      (xy 0.41873 0.383832)
      (xy 0.381721 0.393793)
      (xy 0.344134 0.396791)
      (xy 0.319103 0.394584)
      (xy 0.290856 0.386172)
      (xy 0.262655 0.370824)
      (xy 0.236206 0.349748)
      (xy 0.213214 0.324153)
      (xy 0.206644 0.314873)
      (xy 0.185091 0.275983)
      (xy 0.171103 0.236449)
      (xy 0.164453 0.197036)
      (xy 0.164665 0.179397)
      (xy 0.324149 0.179397)
      (xy 0.326297 0.196117)
      (xy 0.331818 0.213922)
      (xy 0.339331 0.228641)
      (xy 0.34137 0.231364)
      (xy 0.350316 0.236258)
      (xy 0.362357 0.235558)
      (xy 0.372776 0.230631)
      (xy 0.383275 0.218573)
      (xy 0.387991 0.202597)
      (xy 0.386299 0.185303)
      (xy 0.384724 0.18089)
      (xy 0.376043 0.163429)
      (xy 0.366704 0.150152)
      (xy 0.357871 0.142537)
      (xy 0.353524 0.141295)
      (xy 0.342702 0.14503)
      (xy 0.33297 0.154619)
      (xy 0.326193 0.167642)
      (xy 0.324149 0.179397)
      (xy 0.164665 0.179397)
      (xy 0.164917 0.158504)
      (xy 0.17227 0.121617)
      (xy 0.186285 0.087138)
      (xy 0.206738 0.055829)
      (xy 0.233404 0.028453)
      (xy 0.266056 0.005772)
      (xy 0.302902 -0.010903)
      (xy 0.335521 -0.01904)
      (xy 0.367084 -0.019567)
    )

    (stroke (width 0.000000) (type solid)) (fill solid) (layer "F.SilkS") (uuid f9bf114e-1311-4d4a-94a6-da1c58a5b779))
  (fp_poly
    (pts
      (xy -2.025493 -1.062297)
      (xy -2.005133 -1.055553)
      (xy -1.984982 -1.041406)
      (xy -1.970648 -1.021934)
      (xy -1.963139 -0.998592)
      (xy -1.962596 -0.994164)
      (xy -1.962779 -0.983521)
      (xy -1.964712 -0.965917)
      (xy -1.968431 -0.941105)
      (xy -1.973977 -0.908837)
      (xy -1.981389 -0.868867)
      (xy -1.986253 -0.843619)
      (xy -1.99264 -0.811087)
      (xy -1.998715 -0.780645)
      (xy -2.004249 -0.753398)
      (xy -2.009015 -0.730448)
      (xy -2.012786 -0.712899)
      (xy -2.015333 -0.701854)
      (xy -2.01608 -0.699101)
      (xy -2.026871 -0.678064)
      (xy -2.043526 -0.661431)
      (xy -2.064374 -0.650097)
      (xy -2.087742 -0.644959)
      (xy -2.11196 -0.646914)
      (xy -2.112939 -0.647157)
      (xy -2.133075 -0.656311)
      (xy -2.150061 -0.671677)
      (xy -2.162443 -0.691332)
      (xy -2.168763 -0.713349)
      (xy -2.169274 -0.72159)
      (xy -2.168424 -0.732002)
      (xy -2.166057 -0.748913)
      (xy -2.162414 -0.771128)
      (xy -2.157738 -0.797449)
      (xy -2.152269 -0.82668)
      (xy -2.14625 -0.857623)
      (xy -2.139923 -0.889081)
      (xy -2.133529 -0.919859)
      (xy -2.127311 -0.948758)
      (xy -2.121509 -0.974582)
      (xy -2.116366 -0.996134)
      (xy -2.112123 -1.012217)
      (xy -2.109022 -1.021635)
      (xy -2.108415 -1.022874)
      (xy -2.092396 -1.042834)
      (xy -2.072278 -1.056361)
      (xy -2.049497 -1.063001)
    )

    (stroke (width 0.000000) (type solid)) (fill solid) (layer "F.SilkS") (uuid 8681df4e-5d1a-40ed-af85-cc749a4c93f3))
  (fp_poly
    (pts
      (xy -1.795175 -1.933299)
      (xy -1.75857 -1.927597)
      (xy -1.742669 -1.923423)
      (xy -1.717281 -1.913931)
      (xy -1.690508 -1.900875)
      (xy -1.664014 -1.885359)
      (xy -1.639461 -1.868487)
      (xy -1.61851 -1.851364)
      (xy -1.602824 -1.835096)
      (xy -1.596776 -1.826457)
      (xy -1.589348 -1.805868)
      (xy -1.588404 -1.782893)
      (xy -1.593806 -1.760168)
      (xy -1.60097 -1.746299)
      (xy -1.617437 -1.728141)
      (xy -1.637486 -1.716974)
      (xy -1.659978 -1.712948)
      (xy -1.683774 -1.716214)
      (xy -1.707734 -1.726921)
      (xy -1.714377 -1.731316)
      (xy -1.739263 -1.748503)
      (xy -1.759419 -1.761045)
      (xy -1.776382 -1.769754)
      (xy -1.791689 -1.775443)
      (xy -1.80307 -1.77823)
      (xy -1.8339 -1.780657)
      (xy -1.861704 -1.775391)
      (xy -1.886088 -1.762623)
      (xy -1.906656 -1.742546)
      (xy -1.919967 -1.721601)
      (xy -1.928861 -1.697671)
      (xy -1.933975 -1.669413)
      (xy -1.935282 -1.639401)
      (xy -1.93276 -1.610209)
      (xy -1.926383 -1.584412)
      (xy -1.921384 -1.572905)
      (xy -1.914702 -1.562254)
      (xy -1.90485 -1.548948)
      (xy -1.89316 -1.534514)
      (xy -1.880967 -1.520484)
      (xy -1.869605 -1.508386)
      (xy -1.860406 -1.49975)
      (xy -1.854705 -1.496105)
      (xy -1.854387 -1.496074)
      (xy -1.849031 -1.498837)
      (xy -1.839394 -1.506295)
      (xy -1.827005 -1.517197)
      (xy -1.81752 -1.526203)
      (xy -1.802787 -1.53984)
      (xy -1.788353 -1.551875)
      (xy -1.776329 -1.560604)
      (xy -1.771264 -1.563496)
      (xy -1.748862 -1.569655)
      (xy -1.726247 -1.568455)
      (xy -1.704974 -1.560659)
      (xy -1.686603 -1.547028)
      (xy -1.672691 -1.528323)
      (xy -1.666315 -1.51216)
      (xy -1.663971 -1.490581)
      (xy -1.668824 -1.468963)
      (xy -1.681132 -1.446744)
      (xy -1.701153 -1.423359)
      (xy -1.711615 -1.413337)
      (xy -1.736199 -1.390859)
      (xy -1.714819 -1.365546)
      (xy -1.687453 -1.32935)
      (xy -1.664574 -1.29133)
      (xy -1.647045 -1.253191)
      (xy -1.635732 -1.216635)
      (xy -1.633495 -1.205123)
      (xy -1.630869 -1.1839)
      (xy -1.629488 -1.161707)
      (xy -1.629346 -1.140677)
      (xy -1.630438 -1.122944)
      (xy -1.632759 -1.110642)
      (xy -1.633721 -1.108276)
      (xy -1.643516 -1.094056)
      (xy -1.657031 -1.080144)
      (xy -1.670794 -1.070086)
      (xy -1.671447 -1.069737)
      (xy -1.686802 -1.065192)
      (xy -1.706088 -1.064235)
      (xy -1.725806 -1.066733)
      (xy -1.742312 -1.072474)
      (xy -1.758117 -1.083561)
      (xy -1.769606 -1.098493)
      (xy -1.777462 -1.118586)
      (xy -1.782372 -1.145159)
      (xy -1.782988 -1.150654)
      (xy -1.790992 -1.190683)
      (xy -1.806158 -1.22734)
      (xy -1.828062 -1.259658)
      (xy -1.833477 -1.265802)
      (xy -1.850451 -1.284217)
      (xy -1.886245 -1.249776)
      (xy -1.907498 -1.230207)
      (xy -1.925007 -1.216358)
      (xy -1.940169 -1.207418)
      (xy -1.95438 -1.202577)
      (xy -1.969036 -1.201022)
      (xy -1.970185 -1.201015)
      (xy -1.994018 -1.204903)
      (xy -2.014998 -1.215808)
      (xy -2.031876 -1.232593)
      (xy -2.043403 -1.254118)
      (xy -2.047641 -1.271568)
      (xy -2.046417 -1.289538)
      (xy -2.039139 -1.309399)
      (xy -2.026947 -1.328876)
      (xy -2.010979 -1.345696)
      (xy -2.010189 -1.346354)
      (xy -1.997392 -1.357676)
      (xy -1.98516 -1.369708)
      (xy -1.980803 -1.374458)
      (xy -1.968921 -1.388128)
      (xy -1.996825 -1.417708)
      (xy -2.027906 -1.454471)
      (xy -2.053112 -1.49233)
      (xy -2.071547 -1.529869)
      (xy -2.076449 -1.543322)
      (xy -2.080802 -1.557349)
      (xy -2.083865 -1.569829)
      (xy -2.085873 -1.582775)
      (xy -2.087062 -1.598199)
      (xy -2.087665 -1.618112)
      (xy -2.087902 -1.641525)
      (xy -2.087687 -1.673563)
      (xy -2.086408 -1.699348)
      (xy -2.083723 -1.720906)
      (xy -2.079292 -1.740264)
      (xy -2.072773 -1.759449)
      (xy -2.064937 -1.778027)
      (xy -2.041711 -1.820785)
      (xy -2.013332 -1.857024)
      (xy -1.979801 -1.886741)
      (xy -1.941121 -1.909934)
      (xy -1.903337 -1.924786)
      (xy -1.870482 -1.931918)
      (xy -1.833453 -1.934748)
    )

    (stroke (width 0.000000) (type solid)) (fill solid) (layer "F.SilkS") (uuid 69fcd4e7-ce4b-4247-8661-94217195590b))
  (fp_poly
    (pts
      (xy -2.401903 -1.540838)
      (xy -2.379668 -1.52622)
      (xy -2.364787 -1.507761)
      (xy -2.357288 -1.485505)
      (xy -2.356315 -1.472656)
      (xy -2.357173 -1.457541)
      (xy -2.35935 -1.443969)
      (xy -2.360735 -1.439203)
      (xy -2.369184 -1.424543)
      (xy -2.382164 -1.410068)
      (xy -2.39655 -1.399203)
      (xy -2.397873 -1.398485)
      (xy -2.404478 -1.396476)
      (xy -2.418118 -1.393397)
      (xy -2.437612 -1.389451)
      (xy -2.461781 -1.38484)
      (xy -2.489444 -1.379767)
      (xy -2.519424 -1.374435)
      (xy -2.550539 -1.369046)
      (xy -2.581612 -1.363803)
      (xy -2.611461 -1.358909)
      (xy -2.638907 -1.354566)
      (xy -2.662771 -1.350977)
      (xy -2.681873 -1.348344)
      (xy -2.695034 -1.346871)
      (xy -2.699674 -1.346629)
      (xy -2.71408 -1.348253)
      (xy -2.727384 -1.351983)
      (xy -2.728256 -1.352357)
      (xy -2.746306 -1.364519)
      (xy -2.761367 -1.382362)
      (xy -2.771816 -1.403368)
      (xy -2.776028 -1.425018)
      (xy -2.776047 -1.42649)
      (xy -2.772821 -1.443744)
      (xy -2.764231 -1.46247)
      (xy -2.751906 -1.47965)
      (xy -2.742393 -1.488776)
      (xy -2.738056 -1.491946)
      (xy -2.733053 -1.494767)
      (xy -2.726524 -1.497433)
      (xy -2.717611 -1.500137)
      (xy -2.705454 -1.503073)
      (xy -2.689196 -1.506435)
      (xy -2.667976 -1.510417)
      (xy -2.640937 -1.515213)
      (xy -2.607219 -1.521016)
      (xy -2.576037 -1.526315)
      (xy -2.424635 -1.551968)
    )

    (stroke (width 0.000000) (type solid)) (fill solid) (layer "F.SilkS") (uuid 7e8bd015-31c7-4f26-a6c3-4dd07d09d3db))
  (fp_poly
    (pts
      (xy -1.278187 -1.659123)
      (xy -1.23916 -1.658063)
      (xy -1.200075 -1.656627)
      (xy -1.161911 -1.654883)
      (xy -1.125645 -1.652895)
      (xy -1.092257 -1.650732)
      (xy -1.062724 -1.648458)
      (xy -1.038024 -1.646142)
      (xy -1.019135 -1.643848)
      (xy -1.007036 -1.641644)
      (xy -1.003613 -1.640485)
      (xy -0.984238 -1.626123)
      (xy -0.970187 -1.606945)
      (xy -0.962056 -1.584747)
      (xy -0.960445 -1.561324)
      (xy -0.965951 -1.538473)
      (xy -0.968109 -1.533833)
      (xy -0.982996 -1.5132)
      (xy -1.002966 -1.498189)
      (xy -1.026375 -1.489771)
      (xy -1.045173 -1.488368)
      (xy -1.05248 -1.488703)
      (xy -1.066897 -1.489369)
      (xy -1.087234 -1.490313)
      (xy -1.112299 -1.491477)
      (xy -1.1409 -1.492808)
      (xy -1.171845 -1.494249)
      (xy -1.17608 -1.494446)
      (xy -1.207887 -1.496038)
      (xy -1.238082 -1.497754)
      (xy -1.265345 -1.499505)
      (xy -1.288359 -1.501199)
      (xy -1.305803 -1.502745)
      (xy -1.31636 -1.504052)
      (xy -1.316832 -1.504137)
      (xy -1.340961 -1.51225)
      (xy -1.359929 -1.525745)
      (xy -1.373475 -1.543288)
      (xy -1.381338 -1.563549)
      (xy -1.383258 -1.585196)
      (xy -1.378974 -1.606896)
      (xy -1.368224 -1.627317)
      (xy -1.350749 -1.645128)
      (xy -1.345206 -1.649078)
      (xy -1.33768 -1.653783)
      (xy -1.330777 -1.656891)
      (xy -1.322622 -1.658684)
      (xy -1.311337 -1.659443)
      (xy -1.295047 -1.659449)
    )

    (stroke (width 0.000000) (type solid)) (fill solid) (layer "F.SilkS") (uuid 04e94a56-2742-463f-9bdd-2023d1d6d0c6))
  (fp_poly
    (pts
      (xy -2.342118 -2.290622)
      (xy -2.329417 -2.285723)
      (xy -2.321622 -2.280532)
      (xy -2.310152 -2.270613)
      (xy -2.294674 -2.255631)
      (xy -2.274851 -2.23525)
      (xy -2.250348 -2.209135)
      (xy -2.223172 -2.179524)
      (xy -2.201105 -2.155157)
      (xy -2.180683 -2.132351)
      (xy -2.162632 -2.111934)
      (xy -2.147674 -2.094735)
      (xy -2.136535 -2.081584)
      (xy -2.129938 -2.073308)
      (xy -2.128573 -2.071264)
      (xy -2.124781 -2.060721)
      (xy -2.121724 -2.046585)
      (xy -2.121014 -2.041362)
      (xy -2.122592 -2.019059)
      (xy -2.131667 -1.997367)
      (xy -2.147485 -1.977874)
      (xy -2.153876 -1.972336)
      (xy -2.164885 -1.964802)
      (xy -2.176062 -1.96071)
      (xy -2.19104 -1.958861)
      (xy -2.195434 -1.958626)
      (xy -2.216333 -1.959118)
      (xy -2.231959 -1.963083)
      (xy -2.235235 -1.964612)
      (xy -2.242018 -1.969771)
      (xy -2.253368 -1.980299)
      (xy -2.268432 -1.995261)
      (xy -2.286356 -2.013727)
      (xy -2.306287 -2.034761)
      (xy -2.327372 -2.057432)
      (xy -2.348757 -2.080807)
      (xy -2.36959 -2.103953)
      (xy -2.389017 -2.125936)
      (xy -2.406185 -2.145823)
      (xy -2.420241 -2.162683)
      (xy -2.430331 -2.175581)
      (xy -2.435603 -2.183585)
      (xy -2.435731 -2.183852)
      (xy -2.442295 -2.206664)
      (xy -2.441581 -2.228744)
      (xy -2.434619 -2.249107)
      (xy -2.422438 -2.266765)
      (xy -2.406068 -2.280732)
      (xy -2.386538 -2.290022)
      (xy -2.364878 -2.293647)
    )

    (stroke (width 0.000000) (type solid)) (fill solid) (layer "F.SilkS") (uuid cad9869d-20eb-4b17-a139-f68d78df2df3))
  (fp_poly
    (pts
      (xy -1.432031 -2.424815)
      (xy -1.411023 -2.417392)
      (xy -1.392539 -2.404124)
      (xy -1.378043 -2.385198)
      (xy -1.372984 -2.3743)
      (xy -1.369832 -2.365213)
      (xy -1.367931 -2.356617)
      (xy -1.367601 -2.347686)
      (xy -1.369161 -2.337593)
      (xy -1.372932 -2.325512)
      (xy -1.379234 -2.310615)
      (xy -1.388387 -2.292076)
      (xy -1.400711 -2.269067)
      (xy -1.416526 -2.240762)
      (xy -1.436153 -2.206335)
      (xy -1.441896 -2.196319)
      (xy -1.462445 -2.160599)
      (xy -1.479397 -2.1314)
      (xy -1.493235 -2.108)
      (xy -1.504441 -2.089679)
      (xy -1.513497 -2.075715)
      (xy -1.520884 -2.065387)
      (xy -1.527085 -2.057973)
      (xy -1.532581 -2.052752)
      (xy -1.537854 -2.049003)
      (xy -1.541786 -2.046808)
      (xy -1.552378 -2.042888)
      (xy -1.565994 -2.039705)
      (xy -1.579205 -2.037871)
      (xy -1.588583 -2.038)
      (xy -1.589578 -2.038271)
      (xy -1.596517 -2.040222)
      (xy -1.604841 -2.042191)
      (xy -1.622951 -2.050148)
      (xy -1.638063 -2.064317)
      (xy -1.64935 -2.082886)
      (xy -1.655984 -2.104046)
      (xy -1.657141 -2.125985)
      (xy -1.652307 -2.14615)
      (xy -1.648634 -2.153585)
      (xy -1.641411 -2.167077)
      (xy -1.631279 -2.185503)
      (xy -1.618876 -2.20774)
      (xy -1.604843 -2.232667)
      (xy -1.589819 -2.25916)
      (xy -1.574444 -2.286099)
      (xy -1.559357 -2.312359)
      (xy -1.545198 -2.33682)
      (xy -1.532606 -2.358358)
      (xy -1.522222 -2.375852)
      (xy -1.514685 -2.388179)
      (xy -1.51204 -2.392268)
      (xy -1.495567 -2.410119)
      (xy -1.475766 -2.421367)
      (xy -1.4541 -2.426203)
    )

    (stroke (width 0.000000) (type solid)) (fill solid) (layer "F.SilkS") (uuid df827e73-bccf-46e6-b09f-079328ab255b))
)
