(footprint "SM460281" (version 20221018) (generator pcbnew)
  (layer "F.Cu")
  (attr smd)
  (fp_text reference "REF**" (at 0 -6 unlocked) (layer "F.SilkS")
      (effects (font (size 1 1) (thickness 0.15)))
    (tstamp d7c1ae4a-7e23-417d-96ae-5347484268e4)
  )
  (fp_text value "SM460281" (at 0 6 unlocked) (layer "F.Fab")
      (effects (font (size 1 1) (thickness 0.15)))
    (tstamp b3bf6938-9a19-41c1-acbb-f56e5d553101)
  )
  (fp_rect (start -3.55 -5) (end 3.55 5)
    (stroke (width 0.12) (type default)) (fill none) (layer "F.SilkS") (tstamp cd9646fd-e194-4fb0-82b3-08615e630897))
  (pad "1" thru_hole rect (at -2.5 -3.81) (size 1.5 1.5) (drill 1) (layers "*.Cu" "*.Mask") (tstamp 990f4659-a369-4da5-9369-4b6abeb102e7))
  (pad "2" thru_hole circle (at -2.5 -1.27) (size 1.5 1.5) (drill 1) (layers "*.Cu" "*.Mask") (tstamp a0ded498-dc96-442f-981b-e85ab89de734))
  (pad "3" thru_hole circle (at -2.5 1.27) (size 1.5 1.5) (drill 1) (layers "*.Cu" "*.Mask") (tstamp 2d218ea0-7e5f-4da4-93e8-fea67ee1ea9e))
  (pad "4" thru_hole circle (at -2.5 3.81) (size 1.5 1.5) (drill 1) (layers "*.Cu" "*.Mask") (tstamp a5b7e686-7886-4804-8ab5-aa7740445d8c))
  (pad "5" thru_hole circle (at 2.5 3.81) (size 1.5 1.5) (drill 1) (layers "*.Cu" "*.Mask") (tstamp 378fb35d-1e99-4c6a-a5d2-c115e2b2e126))
  (pad "6" thru_hole circle (at 2.54 1.27) (size 1.5 1.5) (drill 1) (layers "*.Cu" "*.Mask") (tstamp d926bc8a-694e-483a-bf6a-ee6c52d2f214))
  (pad "7" thru_hole circle (at 2.54 -1.27) (size 1.5 1.5) (drill 1) (layers "*.Cu" "*.Mask") (tstamp 99555fe0-7254-45eb-9ec7-37c3d2da029a))
  (pad "8" thru_hole circle (at 2.54 -3.81) (size 1.5 1.5) (drill 1) (layers "*.Cu" "*.Mask") (tstamp 2ff2e4d5-ed12-41aa-ba54-744e847352b5))
  (model "${KIPRJMOD}/3d/SM460281.step"
    (offset (xyz 0 0 0))
    (scale (xyz 1 1 1))
    (rotate (xyz 0 0 0))
  )
)
