(footprint "SMAF, SS24FL"
	(version 20240108)
	(generator "pcbnew")
	(generator_version "8.0")
	(layer "F.Cu")
	(property "Reference" "REF**"
		(at 0 -2.5 0)
		(unlocked yes)
		(layer "F.SilkS")
		(uuid "36f04fff-9f0e-46aa-9094-2e75c952410a")
		(effects
			(font
				(size 1 1)
				(thickness 0.15)
			)
		)
	)
	(property "Value" "SMAF, SS24FL"
		(at 0.1 2.5 0)
		(unlocked yes)
		(layer "F.Fab")
		(uuid "3205b8de-70b7-49de-aa6b-77f4ae8a93b3")
		(effects
			(font
				(size 1 1)
				(thickness 0.15)
			)
		)
	)
	(property "Footprint" ""
		(at -0.1 0 0)
		(unlocked yes)
		(layer "F.Fab")
		(hide yes)
		(uuid "83b42fe5-8081-495c-b684-fb885e861c04")
		(effects
			(font
				(size 1 1)
				(thickness 0.15)
			)
		)
	)
	(property "Datasheet" ""
		(at -0.1 0 0)
		(unlocked yes)
		(layer "F.Fab")
		(hide yes)
		(uuid "69a5103c-b86c-4510-95d9-ecaf2d42e9ef")
		(effects
			(font
				(size 1 1)
				(thickness 0.15)
			)
		)
	)
	(property "Description" ""
		(at -0.1 0 0)
		(unlocked yes)
		(layer "F.Fab")
		(hide yes)
		(uuid "d8c6b422-e10d-4669-89ed-e7c76066de4b")
		(effects
			(font
				(size 1 1)
				(thickness 0.15)
			)
		)
	)
	(attr smd)
	(fp_line
		(start -1.9 -1.4)
		(end -1.9 -1.1)
		(stroke
			(width 0.12)
			(type default)
		)
		(layer "F.SilkS")
		(uuid "1d1eb12e-2e86-4023-b8a5-413e17fb7251")
	)
	(fp_line
		(start -1.9 1.4)
		(end -1.9 1.1)
		(stroke
			(width 0.12)
			(type default)
		)
		(layer "F.SilkS")
		(uuid "fd14d1fd-a972-42c8-87c4-3e1919e5cabf")
	)
	(fp_line
		(start -0.5 -0.4)
		(end -0.5 0.4)
		(stroke
			(width 0.12)
			(type default)
		)
		(layer "F.SilkS")
		(uuid "e2ddac71-493e-403c-82aa-09fcf1bdf97d")
	)
	(fp_line
		(start -0.5 0)
		(end -0.8 0)
		(stroke
			(width 0.12)
			(type default)
		)
		(layer "F.SilkS")
		(uuid "9036a719-1fc2-4910-8c5f-f9f84605cda2")
	)
	(fp_line
		(start 0.7 0)
		(end 0.4 0)
		(stroke
			(width 0.12)
			(type default)
		)
		(layer "F.SilkS")
		(uuid "7f1b562d-9652-4a09-8d6d-fe084517ceb2")
	)
	(fp_line
		(start 1.9 -1.4)
		(end -1.9 -1.4)
		(stroke
			(width 0.12)
			(type default)
		)
		(layer "F.SilkS")
		(uuid "3cba3bbf-d952-4732-8ee3-8bb8f2fb077b")
	)
	(fp_line
		(start 1.9 -1.1)
		(end 1.9 -1.4)
		(stroke
			(width 0.12)
			(type default)
		)
		(layer "F.SilkS")
		(uuid "dc1753ac-4703-44c9-be81-79e9466907a0")
	)
	(fp_line
		(start 1.9 1.1)
		(end 1.9 1.4)
		(stroke
			(width 0.12)
			(type default)
		)
		(layer "F.SilkS")
		(uuid "76543c03-1d89-4311-ac69-803b11e10c71")
	)
	(fp_line
		(start 1.9 1.4)
		(end -1.9 1.4)
		(stroke
			(width 0.12)
			(type default)
		)
		(layer "F.SilkS")
		(uuid "51f67a3f-68df-4f91-9714-b0bde6c1074c")
	)
	(fp_poly
		(pts
			(xy 0.4 -0.4) (xy 0.4 0.4) (xy -0.5 0)
		)
		(stroke
			(width 0.12)
			(type solid)
		)
		(fill solid)
		(layer "F.SilkS")
		(uuid "34625773-279e-4100-9d76-4f2449909324")
	)
	(fp_line
		(start -2.95 -1.15)
		(end -2.95 1.15)
		(stroke
			(width 0.05)
			(type default)
		)
		(layer "F.CrtYd")
		(uuid "1ba43d18-1df2-4fb4-a08a-f1e5db3d4179")
	)
	(fp_line
		(start -2.95 1.15)
		(end -2.15 1.15)
		(stroke
			(width 0.05)
			(type default)
		)
		(layer "F.CrtYd")
		(uuid "2003dd49-e648-42c7-a771-4c264239569d")
	)
	(fp_line
		(start -2.15 -1.65)
		(end -2.15 -1.15)
		(stroke
			(width 0.05)
			(type default)
		)
		(layer "F.CrtYd")
		(uuid "2e144d38-9fac-49a4-b780-186244dedfb5")
	)
	(fp_line
		(start -2.15 -1.15)
		(end -2.95 -1.15)
		(stroke
			(width 0.05)
			(type default)
		)
		(layer "F.CrtYd")
		(uuid "aba25304-219c-47dd-a0cb-11dc4ac81ea9")
	)
	(fp_line
		(start -2.15 1.15)
		(end -2.15 1.65)
		(stroke
			(width 0.05)
			(type default)
		)
		(layer "F.CrtYd")
		(uuid "dcc16969-db3e-437b-b65c-50fc22dc2cd0")
	)
	(fp_line
		(start -2.15 1.65)
		(end 2.15 1.65)
		(stroke
			(width 0.05)
			(type default)
		)
		(layer "F.CrtYd")
		(uuid "6bdc5372-552c-48bd-b580-c167caee722d")
	)
	(fp_line
		(start 2.15 -1.65)
		(end -2.15 -1.65)
		(stroke
			(width 0.05)
			(type default)
		)
		(layer "F.CrtYd")
		(uuid "62bdaa96-87cd-422b-90ed-47a111146afb")
	)
	(fp_line
		(start 2.15 -1.15)
		(end 2.15 -1.65)
		(stroke
			(width 0.05)
			(type default)
		)
		(layer "F.CrtYd")
		(uuid "4c8fe6cf-0593-4029-bced-03fff950ba8d")
	)
	(fp_line
		(start 2.15 1.15)
		(end 2.95 1.15)
		(stroke
			(width 0.05)
			(type default)
		)
		(layer "F.CrtYd")
		(uuid "27b24e37-2596-43ea-80f3-4f40f67e0e68")
	)
	(fp_line
		(start 2.15 1.65)
		(end 2.15 1.15)
		(stroke
			(width 0.05)
			(type default)
		)
		(layer "F.CrtYd")
		(uuid "3f2d4957-20c3-4f90-ad6c-5db8d14db15d")
	)
	(fp_line
		(start 2.95 -1.15)
		(end 2.15 -1.15)
		(stroke
			(width 0.05)
			(type default)
		)
		(layer "F.CrtYd")
		(uuid "417c09e1-589b-44ce-8afd-2292039dafc8")
	)
	(fp_line
		(start 2.95 1.15)
		(end 2.95 -1.15)
		(stroke
			(width 0.05)
			(type default)
		)
		(layer "F.CrtYd")
		(uuid "398355be-cbb1-4c3c-bd4c-8699c4306ab4")
	)
	(fp_rect
		(start -1.9 -1.4)
		(end 1.9 1.4)
		(stroke
			(width 0.1)
			(type default)
		)
		(fill none)
		(layer "F.Fab")
		(uuid "e5bca186-e1af-4036-9b27-a2cc184da268")
	)
	(pad "1" smd roundrect
		(at -1.9 0 90)
		(size 1.8 1.6)
		(layers "F.Cu" "F.Paste" "F.Mask")
		(roundrect_rratio 0.25)
		(uuid "181fd3e1-937d-468b-abdb-f99d797e8104")
	)
	(pad "2" smd rect
		(at 1.9 0 90)
		(size 1.8 1.6)
		(layers "F.Cu" "F.Paste" "F.Mask")
		(uuid "3be09c49-86c8-47f3-a006-6f38dfdcb1d2")
	)
	(model "${KIPRJMOD}/3d/SS24FL.step"
		(offset
			(xyz 0 0 0)
		)
		(scale
			(xyz 1 1 1)
		)
		(rotate
			(xyz 0 0 0)
		)
	)
)