(footprint "SOT-23"
	(version 20240108)
	(generator "pcbnew")
	(generator_version "8.0")
	(layer "F.Cu")
	(descr "SOT, 3 Pin (https://www.jedec.org/system/files/docs/to-236h.pdf variant AB), generated with kicad-footprint-generator ipc_gullwing_generator.py")
	(tags "SOT TO_SOT_SMD")
	(property "Reference" "REF**"
		(at 0 2.4 180)
		(layer "F.SilkS")
		(hide yes)
		(uuid "a789b715-a607-4e33-8841-9629668002af")
		(effects
			(font
				(size 1 1)
				(thickness 0.15)
			)
		)
	)
	(property "Value" "SOT-23"
		(at 0 -2.4 180)
		(layer "F.Fab")
		(hide yes)
		(uuid "09c66217-272f-4cad-9179-550976bbecab")
		(effects
			(font
				(size 1 1)
				(thickness 0.15)
			)
		)
	)
	(property "Footprint" ""
		(at 0 0 0)
		(unlocked yes)
		(layer "F.Fab")
		(hide yes)
		(uuid "8013eaaa-3f13-4b8e-9687-6a3fda5f217c")
		(effects
			(font
				(size 1.27 1.27)
			)
		)
	)
	(property "Datasheet" ""
		(at 0 0 0)
		(unlocked yes)
		(layer "F.Fab")
		(hide yes)
		(uuid "f46ae1fc-ac7e-4f54-8d5a-0097d1c36d86")
		(effects
			(font
				(size 1.27 1.27)
			)
		)
	)
	(property "Description" ""
		(at 0 0 0)
		(unlocked yes)
		(layer "F.Fab")
		(hide yes)
		(uuid "abadc7bb-f387-4b0d-828f-c679b49ca338")
		(effects
			(font
				(size 1.27 1.27)
			)
		)
	)
	(attr smd)
	(fp_line
		(start 0 -1.56)
		(end -0.65 -1.56)
		(stroke
			(width 0.12)
			(type solid)
		)
		(layer "F.SilkS")
		(uuid "3b863cc7-c69b-49fd-a19a-922aac50b8f4")
	)
	(fp_line
		(start 0 -1.56)
		(end 0.65 -1.56)
		(stroke
			(width 0.12)
			(type solid)
		)
		(layer "F.SilkS")
		(uuid "31eef86b-b4cc-49fe-884c-7efc8606bbf7")
	)
	(fp_line
		(start 0 1.56)
		(end -0.65 1.56)
		(stroke
			(width 0.12)
			(type solid)
		)
		(layer "F.SilkS")
		(uuid "8f6518a9-7232-4544-8072-d8afdd59d1e0")
	)
	(fp_line
		(start 0 1.56)
		(end 0.65 1.56)
		(stroke
			(width 0.12)
			(type solid)
		)
		(layer "F.SilkS")
		(uuid "3555a165-1df5-4443-bc4b-00717853f90b")
	)
	(fp_poly
		(pts
			(xy 1.1625 1.51) (xy 1.4025 1.84) (xy 0.9225 1.84) (xy 1.1625 1.51)
		)
		(stroke
			(width 0.12)
			(type solid)
		)
		(fill solid)
		(layer "F.SilkS")
		(uuid "2b14a651-49df-4f58-a3f1-2a3b4fab387e")
	)
	(fp_line
		(start -1.92 -1.7)
		(end -1.92 1.7)
		(stroke
			(width 0.05)
			(type solid)
		)
		(layer "F.CrtYd")
		(uuid "6a630be5-bcee-4eb7-9af1-11fc0a9ba2db")
	)
	(fp_line
		(start -1.92 1.7)
		(end 1.92 1.7)
		(stroke
			(width 0.05)
			(type solid)
		)
		(layer "F.CrtYd")
		(uuid "4688d5c1-c23f-4619-b070-a66311f487a1")
	)
	(fp_line
		(start 1.92 -1.7)
		(end -1.92 -1.7)
		(stroke
			(width 0.05)
			(type solid)
		)
		(layer "F.CrtYd")
		(uuid "47269e75-9ee5-4bd7-8578-accf594967b5")
	)
	(fp_line
		(start 1.92 1.7)
		(end 1.92 -1.7)
		(stroke
			(width 0.05)
			(type solid)
		)
		(layer "F.CrtYd")
		(uuid "cdb0916d-4a0c-46cc-96dc-548ce4eb33fa")
	)
	(fp_line
		(start -0.65 -1.45)
		(end 0.65 -1.45)
		(stroke
			(width 0.1)
			(type solid)
		)
		(layer "F.Fab")
		(uuid "84f6b5e7-6611-4d45-90bd-79d0c3c34077")
	)
	(fp_line
		(start -0.65 1.45)
		(end -0.65 -1.45)
		(stroke
			(width 0.1)
			(type solid)
		)
		(layer "F.Fab")
		(uuid "d4e58d73-b772-4752-86e9-5fe843894edf")
	)
	(fp_line
		(start 0.325 1.45)
		(end -0.65 1.45)
		(stroke
			(width 0.1)
			(type solid)
		)
		(layer "F.Fab")
		(uuid "3eaf92b7-412d-4fb5-a6e1-1027cd595033")
	)
	(fp_line
		(start 0.65 -1.45)
		(end 0.65 1.125)
		(stroke
			(width 0.1)
			(type solid)
		)
		(layer "F.Fab")
		(uuid "a7dfc97c-4741-4f68-a71b-62b9b17941e7")
	)
	(fp_line
		(start 0.65 1.125)
		(end 0.325 1.45)
		(stroke
			(width 0.1)
			(type solid)
		)
		(layer "F.Fab")
		(uuid "44230064-7e21-4d6e-ab8a-ca9ab89d71bb")
	)
	(fp_text user "${REFERENCE}"
		(at 0 0 180)
		(layer "F.Fab")
		(uuid "48bc7777-4a3c-4390-939f-1b3ba3d997da")
		(effects
			(font
				(size 0.32 0.32)
				(thickness 0.05)
			)
		)
	)
	(pad "1" smd roundrect
		(at 0.9375 0.95 180)
		(size 1.475 0.6)
		(layers "F.Cu" "F.Paste" "F.Mask")
		(roundrect_rratio 0.25)
		(uuid "7f77df5d-db8e-4a05-bd3b-4b56e9b3bcfa")
	)
	(pad "2" smd roundrect
		(at 0.9375 -0.95 180)
		(size 1.475 0.6)
		(layers "F.Cu" "F.Paste" "F.Mask")
		(roundrect_rratio 0.25)
		(uuid "1ee4ebc8-fd26-421c-8745-2014610f5467")
	)
	(pad "3" smd roundrect
		(at -0.9375 0 180)
		(size 1.475 0.6)
		(layers "F.Cu" "F.Paste" "F.Mask")
		(roundrect_rratio 0.25)
		(uuid "08249c92-0fb8-43d1-86f9-58956869b675")
	)
	(model "${KICAD6_3DMODEL_DIR}/Package_TO_SOT_SMD.3dshapes/SOT-23.wrl"
		(offset
			(xyz 0 0 0)
		)
		(scale
			(xyz 1 1 1)
		)
		(rotate
			(xyz 0 0 180)
		)
	)
)